RISC-V-Uniciclo/src/testbench_waveform.vcd
$date
  Sat Dec 16 15:37:07 2023
$end
$version
  GHDL v0
$end
$timescale
  1 fs
$end
$scope module standard $end
$upscope $end
$scope module textio $end
$upscope $end
$scope module std_logic_1164 $end
$upscope $end
$scope module numeric_std $end
$upscope $end
$scope module testbench_rv32_processor $end
$var reg 1 ! clock $end
$var reg 1 " test_finished $end
$var reg 32 # instruction[31:0] $end
$var reg 32 $ rs1[31:0] $end
$var reg 32 % rs2[31:0] $end
$var reg 32 & rd[31:0] $end
$var reg 32 ' immediate[31:0] $end
$scope module uut $end
$var reg 1 ( clock $end
$var reg 32 ) instruction[31:0] $end
$var reg 32 * rs1[31:0] $end
$var reg 32 + rs2[31:0] $end
$var reg 32 , rd[31:0] $end
$var reg 32 - immediate[31:0] $end
$var reg 32 . instruction_signal[31:0] $end
$var reg 32 / immout_signal[31:0] $end
$var reg 32 0 ain_signal[31:0] $end
$var reg 32 1 bin_signal[31:0] $end
$var reg 32 2 zout_signal[31:0] $end
$var reg 1 3 zeroout_signal $end
$var reg 2 4 aluop_signal[1:0] $end
$var reg 4 5 aluopout_signal[3:0] $end
$var reg 1 6 branch_signal $end
$var reg 1 7 memtoreg_signal $end
$var reg 1 8 memread_signal $end
$var reg 1 9 memwrite_signal $end
$var reg 1 : auipc_signal $end
$var reg 1 ; alusrc_signal $end
$var reg 1 < jal_signal $end
$var reg 1 = regwrite_signal $end
$var reg 32 > addr_in_signal[31:0] $end
$var reg 1 ? rst_signal $end
$var reg 32 @ addr_out_signal[31:0] $end
$var reg 32 A adderout_signal[31:0] $end
$var reg 32 B adder4out_signal[31:0] $end
$var reg 32 C write_data_signal[31:0] $end
$var reg 32 D rs1_signal[31:0] $end
$var reg 32 E rs2_signal[31:0] $end
$var reg 32 F data_out_signal[31:0] $end
$var reg 32 G adder_in1_signal[31:0] $end
$var reg 32 H write_or_jal_signal[31:0] $end
$scope module control_inst01 $end
$var reg 7 I op[6:0] $end
$var reg 1 J branch $end
$var reg 1 K memread $end
$var reg 1 L memtoreg $end
$var reg 1 M auipc $end
$var reg 1 N jal $end
$var reg 2 O aluop[1:0] $end
$var reg 1 P memwrite $end
$var reg 1 Q alusrc $end
$var reg 1 R regwrite $end
$var reg 7 S op_signal[6:0] $end
$var reg 1 T branch_signal $end
$var reg 1 U memread_signal $end
$var reg 1 V memtoreg_signal $end
$var reg 2 W aluop_signal[1:0] $end
$var reg 1 X memwrite_signal $end
$var reg 1 Y alusrc_signal $end
$var reg 1 Z auipc_signal $end
$var reg 1 [ jal_signal $end
$var reg 1 \ regwrite_signal $end
$upscope $end
$scope module genimm_inst02 $end
$var reg 32 ] instruction[31:0] $end
$var reg 32 ^ immediate[31:0] $end
$var reg 32 _ i_type[31:0] $end
$var reg 32 ` s_type[31:0] $end
$var reg 32 a sb_type[31:0] $end
$var reg 32 b uj_type[31:0] $end
$var reg 32 c u_type[31:0] $end
$var reg 3 d selector[2:0] $end
$var reg 1 e zero_bit $end
$var reg 12 f zero_bit_twelve[11:0] $end
$var reg 32 g zero_bit_thirtytwo[31:0] $end
$scope module b2v_inst $end
$var reg 32 h a[31:0] $end
$var reg 32 i b[31:0] $end
$var reg 32 j c[31:0] $end
$var reg 32 k d[31:0] $end
$var reg 32 l e[31:0] $end
$var reg 32 m f[31:0] $end
$var reg 32 n g[31:0] $end
$var reg 32 o h[31:0] $end
$var reg 3 p sel[2:0] $end
$var reg 32 q result[31:0] $end
$upscope $end
$upscope $end
$scope module alu_inst03 $end
$var reg 4 r opcode[3:0] $end
$var reg 32 s a[31:0] $end
$var reg 32 t b[31:0] $end
$var reg 32 u z[31:0] $end
$var reg 1 v zero $end
$upscope $end
$scope module control_alu_inst04 $end
$var reg 2 w ulaop[1:0] $end
$var reg 1 x funct7 $end
$var reg 1 y auipcin $end
$var reg 3 z funct3[2:0] $end
$var reg 4 { opout[3:0] $end
$upscope $end
$scope module pc_inst05 $end
$var reg 32 | addr_in[31:0] $end
$var reg 1 } rst $end
$var reg 1 !" clk $end
$var reg 32 "" addr_out[31:0] $end
$upscope $end
$scope module adder_inst06 $end
$var reg 32 #" a[31:0] $end
$var reg 32 $" b[31:0] $end
$var reg 32 %" z[31:0] $end
$upscope $end
$scope module adder4_inst07 $end
$var reg 32 &" a[31:0] $end
$var reg 32 '" z[31:0] $end
$upscope $end
$scope module muxa_inst08 $end
$var reg 1 (" sel $end
$var reg 32 )" a[31:0] $end
$var reg 32 *" b[31:0] $end
$var reg 32 +" result[31:0] $end
$upscope $end
$scope module muxb_inst09 $end
$var reg 1 ," sel $end
$var reg 32 -" a[31:0] $end
$var reg 32 ." b[31:0] $end
$var reg 32 /" result[31:0] $end
$upscope $end
$scope module muxc_inst10 $end
$var reg 1 0" sel $end
$var reg 32 1" a[31:0] $end
$var reg 32 2" b[31:0] $end
$var reg 32 3" result[31:0] $end
$upscope $end
$scope module muxd_inst11 $end
$var reg 1 4" sel $end
$var reg 32 5" a[31:0] $end
$var reg 32 6" b[31:0] $end
$var reg 32 7" result[31:0] $end
$upscope $end
$scope module muxg_inst14 $end
$var reg 1 8" sel $end
$var reg 32 9" a[31:0] $end
$var reg 32 :" b[31:0] $end
$var reg 32 ;" result[31:0] $end
$upscope $end
$scope module muxh_inst15 $end
$var reg 1 <" sel $end
$var reg 32 =" a[31:0] $end
$var reg 32 >" b[31:0] $end
$var reg 32 ?" result[31:0] $end
$upscope $end
$scope module mem_reg_inst16 $end
$var reg 1 @" clk $end
$var reg 1 A" wren $end
$var reg 5 B" rs1[4:0] $end
$var reg 5 C" rs2[4:0] $end
$var reg 5 D" rd[4:0] $end
$var reg 32 E" data[31:0] $end
$var reg 32 F" ro1[31:0] $end
$var reg 32 G" ro2[31:0] $end
$var integer 32 H" address1_signal $end
$var integer 32 I" address2_signal $end
$var integer 32 J" write_address_signal $end
$comment breg is not handled $end
$upscope $end
$scope module mem_data_inst17 $end
$var reg 1 K" clock $end
$var reg 1 L" we $end
$var reg 1 M" re $end
$var reg 12 N" address[11:0] $end
$var reg 32 O" datain[31:0] $end
$var reg 32 P" dataout[31:0] $end
$var integer 32 Q" address_signal $end
$comment newramsignal is not handled $end
$upscope $end
$scope module mem_instr_inst18 $end
$var reg 12 R" address[11:0] $end
$var reg 32 S" dataout[31:0] $end
$var integer 32 T" address_signal $end
$comment newromsignal is not handled $end
$upscope $end
$upscope $end
$upscope $end
$enddefinitions $end
#0
0!
0"
bXX001XX1X1XX0XX00XX0XX1X1XX100XX #
b00000000000000000000000000000000 $
b00000000000000000000000000000000 %
b00000000000000000000000011111111 &
b00000000000000000000000011111111 '
0(
bXX001XX1X1XX0XX00XX0XX1X1XX100XX )
b00000000000000000000000000000000 *
b00000000000000000000000000000000 +
b00000000000000000000000011111111 ,
b00000000000000000000000011111111 -
b00001111111100000110001010010011 .
b00000000000000000000000011111111 /
b00000000000000000000000000000000 0
b00000000000000000000000011111111 1
b00000000000000000000000011111111 2
03
b01 4
b0011 5
06
07
08
09
0:
1;
0<
1=
b00000000000000000000000000000100 >
0?
b00000000000000000000000000000000 @
b00000000000000000000000011111111 A
b00000000000000000000000000000100 B
b00000000000000000000000011111111 C
b00000000000000000000000000000000 D
b00000000000000000000000000000000 E
b00000000000000000000000000000000 F
b00000000000000000000000000000000 G
b00000000000000000000000011111111 H
b0010011 I
0J
0K
0L
0M
0N
b01 O
0P
1Q
1R
b0010011 S
0T
0U
0V
b01 W
0X
1Y
0Z
0[
1\
b00001111111100000110001010010011 ]
b00000000000000000000000011111111 ^
b00000000000000000000000011111111 _
b00000000000000000000000011100101 `
b00000000000000000000100011100100 a
b00000000000000000110100011111110 b
b00001111111100000110000000000000 c
b000 d
0e
b000000000000 f
b00000000000000000000000000000000 g
b00000000000000000000000011111111 h
b00000000000000000000000011100101 i
b00000000000000000000100011100100 j
b00001111111100000110000000000000 k
b00000000000000000110100011111110 l
b00000000000000000000000000000000 m
b00000000000000000000000000000000 n
b00000000000000000000000000000000 o
b000 p
b00000000000000000000000011111111 q
b0011 r
b00000000000000000000000000000000 s
b00000000000000000000000011111111 t
b00000000000000000000000011111111 u
0v
b01 w
0x
0y
b110 z
b0011 {
b00000000000000000000000000000100 |
0}
0!"
b00000000000000000000000000000000 ""
b00000000000000000000000000000000 #"
b00000000000000000000000011111111 $"
b00000000000000000000000011111111 %"
b00000000000000000000000000000000 &"
b00000000000000000000000000000100 '"
0("
b00000000000000000000000000000100 )"
b00000000000000000000000011111111 *"
b00000000000000000000000000000100 +"
1,"
b00000000000000000000000000000000 -"
b00000000000000000000000011111111 ."
b00000000000000000000000011111111 /"
00"
b00000000000000000000000011111111 1"
b00000000000000000000000000000000 2"
b00000000000000000000000011111111 3"
04"
b00000000000000000000000000000000 5"
b00000000000000000000000000000000 6"
b00000000000000000000000000000000 7"
08"
b00000000000000000000000000000000 9"
b00000000000000000000000000000000 :"
b00000000000000000000000000000000 ;"
0<"
b00000000000000000000000011111111 ="
b00000000000000000000000000000100 >"
b00000000000000000000000011111111 ?"
0@"
1A"
b00000 B"
b11111 C"
b00101 D"
b00000000000000000000000011111111 E"
b00000000000000000000000000000000 F"
b00000000000000000000000000000000 G"
b0 H"
b11111 I"
b101 J"
0K"
0L"
0M"
b000011111111 N"
b00000000000000000000000000000000 O"
b00000000000000000000000000000000 P"
b111111 Q"
b000000000000 R"
b00001111111100000110001010010011 S"
b0 T"
#5000000
1!
bXX001XX10X000X10XXXXXX1X1XX100XX #
b00000000000000000000000011111111 $
b00000000000000000000000011110000 &
b00000000000000000000000011110000 '
1(
bXX001XX10X000X10XXXXXX1X1XX100XX )
b00000000000000000000000011111111 *
b00000000000000000000000011110000 ,
b00000000000000000000000011110000 -
b00001111000000101111001010010011 .
b00000000000000000000000011110000 /
b00000000000000000000000011111111 0
b00000000000000000000000011110000 1
b00000000000000000000000011110000 2
b0010 5
b00000000000000000000000000001000 >
b00000000000000000000000000000100 @
b00000000000000000000000011110100 A
b00000000000000000000000000001000 B
b00000000000000000000000011110000 C
b00000000000000000000000011111111 D
b00000000000000000000000000000100 G
b00000000000000000000000011110000 H
b00001111000000101111001010010011 ]
b00000000000000000000000011110000 ^
b00000000000000000000000011110000 _
b00000000000000101111000011110000 b
b00001111000000101111000000000000 c
b00000000000000000000000011110000 h
b00001111000000101111000000000000 k
b00000000000000101111000011110000 l
b00000000000000000000000011110000 q
b0010 r
b00000000000000000000000011111111 s
b00000000000000000000000011110000 t
b00000000000000000000000011110000 u
b111 z
b0010 {
b00000000000000000000000000001000 |
1!"
b00000000000000000000000000000100 ""
b00000000000000000000000000000100 #"
b00000000000000000000000011110000 $"
b00000000000000000000000011110100 %"
b00000000000000000000000000000100 &"
b00000000000000000000000000001000 '"
b00000000000000000000000000001000 )"
b00000000000000000000000011110100 *"
b00000000000000000000000000001000 +"
b00000000000000000000000011110000 ."
b00000000000000000000000011110000 /"
b00000000000000000000000011110000 1"
b00000000000000000000000011110000 3"
b00000000000000000000000011111111 5"
b00000000000000000000000000000100 6"
b00000000000000000000000011111111 7"
b00000000000000000000000000000100 9"
b00000000000000000000000011111111 :"
b00000000000000000000000000000100 ;"
b00000000000000000000000011110000 ="
b00000000000000000000000000001000 >"
b00000000000000000000000011110000 ?"
1@"
b00101 B"
b10000 C"
b00000000000000000000000011110000 E"
b00000000000000000000000011111111 F"
b101 H"
b10000 I"
1K"
b000011110000 N"
b111100 Q"
b000000000100 R"
b00001111000000101111001010010011 S"
b1 T"
#10000000
0!
bXX001XX10X00XX1XX1XX00X01XX100XX #
0(
bXX001XX10X00XX1XX1XX00X01XX100XX )
0!"
0@"
0K"
#15000000
1!
bXX00X00X0X00XXXX0XX00X00XX110XXX #
b00000000000000000000000000000000 $
b00000000000000000010000000000000 &
b00000000000000000010000000000000 '
1(
bXX00X00X0X00XXXX0XX00X00XX110XXX )
b00000000000000000000000000000000 *
b00000000000000000010000000000000 ,
b00000000000000000010000000000000 -
b00000000000000000010010000110111 .
b00000000000000000010000000000000 /
b00000000000000000000000000000000 0
b00000000000000000010000000000000 1
b00000000000000000010000000000000 2
03
b11 4
b1110 5
b00000000000000000000000000001100 >
b00000000000000000000000000001000 @
b00000000000000000010000000001000 A
b00000000000000000000000000001100 B
b00000000000000000010000000000000 C
b00000000000000000000000000000000 D
b00000000000000000000000000001000 G
b00000000000000000010000000000000 H
b0110111 I
b11 O
b0110111 S
b11 W
b00000000000000000010010000110111 ]
b00000000000000000010000000000000 ^
b00000000000000000000000000000000 _
b00000000000000000000000000001000 `
b00000000000000000000000000001000 a
b00000000000000000010000000000000 b
b00000000000000000010000000000000 c
b011 d
b00000000000000000000000000000000 h
b00000000000000000000000000001000 i
b00000000000000000000000000001000 j
b00000000000000000010000000000000 k
b00000000000000000010000000000000 l
b011 p
b00000000000000000010000000000000 q
b1110 r
b00000000000000000000000000000000 s
b00000000000000000010000000000000 t
b00000000000000000010000000000000 u
0v
b11 w
b010 z
b1110 {
b00000000000000000000000000001100 |
1!"
b00000000000000000000000000001000 ""
b00000000000000000000000000001000 #"
b00000000000000000010000000000000 $"
b00000000000000000010000000001000 %"
b00000000000000000000000000001000 &"
b00000000000000000000000000001100 '"
b00000000000000000000000000001100 )"
b00000000000000000010000000001000 *"
b00000000000000000000000000001100 +"
b00000000000000000010000000000000 ."
b00000000000000000010000000000000 /"
b00000000000000000010000000000000 1"
b00000000000000000010000000000000 3"
b00000000000000000000000000000000 5"
b00000000000000000000000000001000 6"
b00000000000000000000000000000000 7"
b00000000000000000000000000001000 9"
b00000000000000000000000000000000 :"
b00000000000000000000000000001000 ;"
b00000000000000000010000000000000 ="
b00000000000000000000000000001100 >"
b00000000000000000010000000000000 ?"
1@"
b00000 B"
b00000 C"
b01000 D"
b00000000000000000010000000000000 E"
b00000000000000000000000000000000 F"
b0 H"
b0 I"
b1000 J"
1K"
b000000000000 N"
b0 Q"
b000000001000 R"
b00000000000000000010010000110111 S"
b10 T"
#20000000
0!
bXXX0XX0000X00X0000X00X0000XX0XXX #
0(
bXXX0XX0000X00X0000X00X0000XX0XXX )
0!"
0@"
0K"
#25000000
1!
bXXX0XX0000X00X0000X0XXXX000X0XXX #
b00000000000000000010000000001100 &
1(
bXXX0XX0000X00X0000X0XXXX000X0XXX )
b00000000000000000010000000001100 ,
b00000000000000000010111100010111 .
b00000000000000000000000000001100 0
b00000000000000000010000000001100 2
b1111 5
1:
b00000000000000000000000000010000 >
b00000000000000000000000000001100 @
b00000000000000000010000000001100 A
b00000000000000000000000000010000 B
b00000000000000000010000000001100 C
b00000000000000000000000000001100 G
b00000000000000000010000000001100 H
b0010111 I
1M
b0010111 S
1Z
b00000000000000000010111100010111 ]
b00000000000000000000000000011110 `
b00000000000000000000000000011110 a
b00000000000000000000000000011110 i
b00000000000000000000000000011110 j
b1111 r
b00000000000000000000000000001100 s
b00000000000000000010000000001100 u
1y
b1111 {
b00000000000000000000000000010000 |
1!"
b00000000000000000000000000001100 ""
b00000000000000000000000000001100 #"
b00000000000000000010000000001100 %"
b00000000000000000000000000001100 &"
b00000000000000000000000000010000 '"
b00000000000000000000000000010000 )"
b00000000000000000010000000001100 *"
b00000000000000000000000000010000 +"
b00000000000000000010000000001100 1"
b00000000000000000010000000001100 3"
14"
b00000000000000000000000000001100 6"
b00000000000000000000000000001100 7"
b00000000000000000000000000001100 9"
b00000000000000000000000000001100 ;"
b00000000000000000010000000001100 ="
b00000000000000000000000000010000 >"
b00000000000000000010000000001100 ?"
1@"
b11110 D"
b00000000000000000010000000001100 E"
b11110 J"
1K"
b000000001100 N"
b11 Q"
b000000001100 R"
b00000000000000000010111100010111 S"
b11 T"
#30000000
0!
bXXX0X000XXXX0X0000X0XXXX000X0XXX #
0(
bXXX0X000XXXX0X0000X0XXXX000X0XXX )
0!"
0@"
0K"
#35000000
1!
bXXX0X000XXXX010000X00X00X00000XX #
b00000000000000000010000000000000 $
b00000000000000000000000000001111 &
b00000000000000000000000000000000 '
1(
bXXX0X000XXXX010000X00X00X00000XX )
b00000000000000000010000000000000 *
b00000000000000000000000000001111 ,
b00000000000000000000000000000000 -
b00000000000001000010010010000011 .
b00000000000000000000000000000000 /
b00000000000000000010000000000000 0
b00000000000000000000000000000000 1
b00000000000000000000000000000000 2
b1110 5
17
18
0:
b00000000000000000000000000010100 >
b00000000000000000000000000010000 @
b00000000000000000000000000010000 A
b00000000000000000000000000010100 B
b00000000000000000000000000001111 C
b00000000000000000010000000000000 D
b00000000000000000000000000001111 F
b00000000000000000000000000010000 G
b00000000000000000000000000001111 H
b0000011 I
1K
1L
0M
b0000011 S
1U
1V
0Z
b00000000000001000010010010000011 ]
b00000000000000000000000000000000 ^
b00000000000000000000000000001001 `
b00000000000000000000100000001000 a
b00000000000001000010000000000000 b
b00000000000001000010000000000000 c
b000 d
b00000000000000000000000000001001 i
b00000000000000000000100000001000 j
b00000000000001000010000000000000 k
b00000000000001000010000000000000 l
b000 p
b00000000000000000000000000000000 q
b1110 r
b00000000000000000010000000000000 s
b00000000000000000000000000000000 t
b00000000000000000000000000000000 u
0y
b1110 {
b00000000000000000000000000010100 |
1!"
b00000000000000000000000000010000 ""
b00000000000000000000000000010000 #"
b00000000000000000000000000000000 $"
b00000000000000000000000000010000 %"
b00000000000000000000000000010000 &"
b00000000000000000000000000010100 '"
b00000000000000000000000000010100 )"
b00000000000000000000000000010000 *"
b00000000000000000000000000010100 +"
b00000000000000000000000000000000 ."
b00000000000000000000000000000000 /"
10"
b00000000000000000000000000000000 1"
b00000000000000000000000000001111 2"
b00000000000000000000000000001111 3"
04"
b00000000000000000010000000000000 5"
b00000000000000000000000000010000 6"
b00000000000000000010000000000000 7"
b00000000000000000000000000010000 9"
b00000000000000000010000000000000 :"
b00000000000000000000000000010000 ;"
b00000000000000000000000000001111 ="
b00000000000000000000000000010100 >"
b00000000000000000000000000001111 ?"
1@"
b01000 B"
b01001 D"
b00000000000000000000000000001111 E"
b00000000000000000010000000000000 F"
b1000 H"
b1001 J"
1K"
1M"
b000000000000 N"
b00000000000000000000000000001111 P"
b0 Q"
b000000010000 R"
b00000000000001000010010010000011 S"
b100 T"
#40000000
0!
bXX00000X00X0010000100X00X00000XX #
0(
bXX00000X00X0010000100X00X00000XX )
0!"
0@"
0K"
#45000000
1!
bXX00000X0XX001000010X00X000000XX #
b00000000000000000000000000111111 &
b00000000000000000000000000000100 '
1(
bXX00000X0XX001000010X00X000000XX )
b00000000000000000000000000111111 ,
b00000000000000000000000000000100 -
b00000000010001000010100100000011 .
b00000000000000000000000000000100 /
b00000000000000000000000000000100 1
b00000000000000000000000000000100 2
b00000000000000000000000000011000 >
b00000000000000000000000000010100 @
b00000000000000000000000000011000 A
b00000000000000000000000000011000 B
b00000000000000000000000000111111 C
b00000000000000000000000000111111 F
b00000000000000000000000000010100 G
b00000000000000000000000000111111 H
b00000000010001000010100100000011 ]
b00000000000000000000000000000100 ^
b00000000000000000000000000000100 _
b00000000000000000000000000010010 `
b00000000000000000000000000010010 a
b00000000000001000010000000000100 b
b00000000010001000010000000000000 c
b00000000000000000000000000000100 h
b00000000000000000000000000010010 i
b00000000000000000000000000010010 j
b00000000010001000010000000000000 k
b00000000000001000010000000000100 l
b00000000000000000000000000000100 q
b00000000000000000000000000000100 t
b00000000000000000000000000000100 u
b00000000000000000000000000011000 |
1!"
b00000000000000000000000000010100 ""
b00000000000000000000000000010100 #"
b00000000000000000000000000000100 $"
b00000000000000000000000000011000 %"
b00000000000000000000000000010100 &"
b00000000000000000000000000011000 '"
b00000000000000000000000000011000 )"
b00000000000000000000000000011000 *"
b00000000000000000000000000011000 +"
b00000000000000000000000000000100 ."
b00000000000000000000000000000100 /"
b00000000000000000000000000000100 1"
b00000000000000000000000000111111 2"
b00000000000000000000000000111111 3"
b00000000000000000000000000010100 6"
b00000000000000000000000000010100 9"
b00000000000000000000000000010100 ;"
b00000000000000000000000000111111 ="
b00000000000000000000000000011000 >"
b00000000000000000000000000111111 ?"
1@"
b00100 C"
b10010 D"
b00000000000000000000000000111111 E"
b100 I"
b10010 J"
1K"
b000000000100 N"
b00000000000000000000000000111111 P"
b1 Q"
b000000010100 R"
b00000000010001000010100100000011 S"
b101 T"
#50000000
0!
bXX000000XX0X01000010X0XX000000XX #
0(
bXX000000XX0X01000010X0XX000000XX )
0!"
0@"
0K"
#55000000
1!
bXX00000XX0XX0100X0X0X0XXX0XX00XX #
b00000000000000000000000000001111 $
b00000000000000000000000000111111 %
b00000000000000000000000001001110 &
b00000000000000000000000000010010 '
1(
bXX00000XX0XX0100X0X0X0XXX0XX00XX )
b00000000000000000000000000001111 *
b00000000000000000000000000111111 +
b00000000000000000000000001001110 ,
b00000000000000000000000000010010 -
b00000001001001001000100110110011 .
b00000000000000000000000000010010 /
b00000000000000000000000000001111 0
b00000000000000000000000000111111 1
b00000000000000000000000001001110 2
b00 4
b0000 5
07
08
0;
b00000000000000000000000000011100 >
b00000000000000000000000000011000 @
b00000000000000000000000000101010 A
b00000000000000000000000000011100 B
b00000000000000000000000001001110 C
b00000000000000000000000000001111 D
b00000000000000000000000000111111 E
b00000000000000000000000000000000 F
b00000000000000000000000000011000 G
b00000000000000000000000001001110 H
b0110011 I
0K
0L
b00 O
0Q
b0110011 S
0U
0V
b00 W
0Y
b00000001001001001000100110110011 ]
b00000000000000000000000000010010 ^
b00000000000000000000000000010010 _
b00000000000000000000000000010011 `
b00000000000000000000100000010010 a
b00000000000001001000000000010010 b
b00000001001001001000000000000000 c
b00000000000000000000000000010010 h
b00000000000000000000000000010011 i
b00000000000000000000100000010010 j
b00000001001001001000000000000000 k
b00000000000001001000000000010010 l
b00000000000000000000000000010010 q
b0000 r
b00000000000000000000000000001111 s
b00000000000000000000000000111111 t
b00000000000000000000000001001110 u
b00 w
b000 z
b0000 {
b00000000000000000000000000011100 |
1!"
b00000000000000000000000000011000 ""
b00000000000000000000000000011000 #"
b00000000000000000000000000010010 $"
b00000000000000000000000000101010 %"
b00000000000000000000000000011000 &"
b00000000000000000000000000011100 '"
b00000000000000000000000000011100 )"
b00000000000000000000000000101010 *"
b00000000000000000000000000011100 +"
0,"
b00000000000000000000000000111111 -"
b00000000000000000000000000010010 ."
b00000000000000000000000000111111 /"
00"
b00000000000000000000000001001110 1"
b00000000000000000000000000000000 2"
b00000000000000000000000001001110 3"
b00000000000000000000000000001111 5"
b00000000000000000000000000011000 6"
b00000000000000000000000000001111 7"
b00000000000000000000000000011000 9"
b00000000000000000000000000001111 :"
b00000000000000000000000000011000 ;"
b00000000000000000000000001001110 ="
b00000000000000000000000000011100 >"
b00000000000000000000000001001110 ?"
1@"
b01001 B"
b10010 C"
b10011 D"
b00000000000000000000000001001110 E"
b00000000000000000000000000001111 F"
b00000000000000000000000000111111 G"
b1001 H"
b10010 I"
b10011 J"
1K"
0M"
b000001001110 N"
b00000000000000000000000000111111 O"
b00000000000000000000000000000000 P"
b10011 Q"
b000000011000 R"
b00000001001001001000100110110011 S"
b110 T"
#60000000
0!
bXX00XX01X0XX0X0XX0X0XX0X10XX00XX #
0(
bXX00XX01X0XX0X0XX0X0XX0X10XX00XX )
0!"
0@"
0K"
#65000000
1!
bXX00XX01X0X10X0X00100100X0X000XX #
b00000000000000000010000000000000 $
b00000000000000000000000001001110 %
b00000000000000000000000000001000 &
b00000000000000000000000000001000 '
1(
bXX00XX01X0X10X0X00100100X0X000XX )
b00000000000000000010000000000000 *
b00000000000000000000000001001110 +
b00000000000000000000000000001000 ,
b00000000000000000000000000001000 -
b00000001001101000010010000100011 .
b00000000000000000000000000001000 /
b00000000000000000010000000000000 0
b00000000000000000000000000001000 1
b00000000000000000000000000001000 2
03
b11 4
b1110 5
19
1;
0=
b00000000000000000000000000100000 >
b00000000000000000000000000011100 @
b00000000000000000000000000100100 A
b00000000000000000000000000100000 B
b00000000000000000000000000001000 C
b00000000000000000010000000000000 D
b00000000000000000000000001001110 E
b00000000000000000000000000011100 G
b00000000000000000000000000001000 H
b0100011 I
b11 O
1P
1Q
0R
b0100011 S
b11 W
1X
1Y
0\
b00000001001101000010010000100011 ]
b00000000000000000000000000001000 ^
b00000000000000000000000000010011 _
b00000000000000000000000000001000 `
b00000000000000000000000000001000 a
b00000000000001000010100000010010 b
b00000001001101000010000000000000 c
b001 d
b00000000000000000000000000010011 h
b00000000000000000000000000001000 i
b00000000000000000000000000001000 j
b00000001001101000010000000000000 k
b00000000000001000010100000010010 l
b001 p
b00000000000000000000000000001000 q
b1110 r
b00000000000000000010000000000000 s
b00000000000000000000000000001000 t
b00000000000000000000000000001000 u
0v
b11 w
b010 z
b1110 {
b00000000000000000000000000100000 |
1!"
b00000000000000000000000000011100 ""
b00000000000000000000000000011100 #"
b00000000000000000000000000001000 $"
b00000000000000000000000000100100 %"
b00000000000000000000000000011100 &"
b00000000000000000000000000100000 '"
b00000000000000000000000000100000 )"
b00000000000000000000000000100100 *"
b00000000000000000000000000100000 +"
1,"
b00000000000000000000000001001110 -"
b00000000000000000000000000001000 ."
b00000000000000000000000000001000 /"
b00000000000000000000000000001000 1"
b00000000000000000000000000001000 3"
b00000000000000000010000000000000 5"
b00000000000000000000000000011100 6"
b00000000000000000010000000000000 7"
b00000000000000000000000000011100 9"
b00000000000000000010000000000000 :"
b00000000000000000000000000011100 ;"
b00000000000000000000000000001000 ="
b00000000000000000000000000100000 >"
b00000000000000000000000000001000 ?"
1@"
0A"
b01000 B"
b10011 C"
b01000 D"
b00000000000000000000000000001000 E"
b00000000000000000010000000000000 F"
b00000000000000000000000001001110 G"
b1000 H"
b10011 I"
b1000 J"
1K"
1L"
b000000001000 N"
b00000000000000000000000001001110 O"
b10 Q"
b000000011100 R"
b00000001001101000010010000100011 S"
b111 T"
#70000000
0!
bXX000X0X001X01000010X100X0X000XX #
0(
bXX000X0X001X01000010X100X0X000XX )
0!"
0@"
0K"
#75000000
1!
bXX000X00X0X001000010X10XX00000XX #
b00000000000000000010000000000000 %
b00000000000000000000000001001110 &
1(
bXX000X00X0X001000010X10XX00000XX )
b00000000000000000010000000000000 +
b00000000000000000000000001001110 ,
b00000000100001000010010100000011 .
17
18
09
1=
b00000000000000000000000000100100 >
b00000000000000000000000000100000 @
b00000000000000000000000000101000 A
b00000000000000000000000000100100 B
b00000000000000000000000001001110 C
b00000000000000000010000000000000 E
b00000000000000000000000001001110 F
b00000000000000000000000000100000 G
b00000000000000000000000001001110 H
b0000011 I
1K
1L
0P
1R
b0000011 S
1U
1V
0X
1\
b00000000100001000010010100000011 ]
b00000000000000000000000000001000 _
b00000000000000000000000000001010 `
b00000000000000000000000000001010 a
b00000000000001000010000000001000 b
b00000000100001000010000000000000 c
b000 d
b00000000000000000000000000001000 h
b00000000000000000000000000001010 i
b00000000000000000000000000001010 j
b00000000100001000010000000000000 k
b00000000000001000010000000001000 l
b000 p
b00000000000000000000000000100100 |
1!"
b00000000000000000000000000100000 ""
b00000000000000000000000000100000 #"
b00000000000000000000000000101000 %"
b00000000000000000000000000100000 &"
b00000000000000000000000000100100 '"
b00000000000000000000000000100100 )"
b00000000000000000000000000101000 *"
b00000000000000000000000000100100 +"
b00000000000000000010000000000000 -"
10"
b00000000000000000000000001001110 2"
b00000000000000000000000001001110 3"
b00000000000000000000000000100000 6"
b00000000000000000000000000100000 9"
b00000000000000000000000000100000 ;"
b00000000000000000000000001001110 ="
b00000000000000000000000000100100 >"
b00000000000000000000000001001110 ?"
1@"
1A"
b01000 C"
b01010 D"
b00000000000000000000000001001110 E"
b00000000000000000010000000000000 G"
b1000 I"
b1010 J"
1K"
0L"
1M"
b00000000000000000010000000000000 O"
b00000000000000000000000001001110 P"
b000000100000 R"
b00000000100001000010010100000011 S"
b1000 T"
#80000000
0!
bXX00000010X0010000100X01000000XX #
0(
bXX00000010X0010000100X01000000XX )
0!"
0@"
0K"
