RISC-V-Uniciclo/src/testbench_waveform.vcd
$date
  Sat Dec 16 16:08:41 2023
$end
$version
  GHDL v0
$end
$timescale
  1 fs
$end
$scope module standard $end
$upscope $end
$scope module textio $end
$upscope $end
$scope module std_logic_1164 $end
$upscope $end
$scope module numeric_std $end
$upscope $end
$scope module testbench_rv32_processor $end
$var reg 1 ! clock $end
$var reg 1 " test_finished $end
$scope module uut $end
$var reg 1 # clock $end
$var reg 32 $ instruction[31:0] $end
$var reg 32 % rs1[31:0] $end
$var reg 32 & rs2[31:0] $end
$var reg 32 ' rd[31:0] $end
$var reg 32 ( immediate[31:0] $end
$var reg 32 ) instruction_signal[31:0] $end
$var reg 32 * immout_signal[31:0] $end
$var reg 32 + ain_signal[31:0] $end
$var reg 32 , bin_signal[31:0] $end
$var reg 32 - zout_signal[31:0] $end
$var reg 1 . zeroout_signal $end
$var reg 2 / aluop_signal[1:0] $end
$var reg 4 0 aluopout_signal[3:0] $end
$var reg 1 1 branch_signal $end
$var reg 1 2 memtoreg_signal $end
$var reg 1 3 memread_signal $end
$var reg 1 4 memwrite_signal $end
$var reg 1 5 auipc_signal $end
$var reg 1 6 alusrc_signal $end
$var reg 1 7 jal_signal $end
$var reg 1 8 regwrite_signal $end
$var reg 32 9 addr_in_signal[31:0] $end
$var reg 1 : rst_signal $end
$var reg 32 ; addr_out_signal[31:0] $end
$var reg 32 < adderout_signal[31:0] $end
$var reg 32 = adder4out_signal[31:0] $end
$var reg 32 > write_data_signal[31:0] $end
$var reg 32 ? rs1_signal[31:0] $end
$var reg 32 @ rs2_signal[31:0] $end
$var reg 32 A data_out_signal[31:0] $end
$var reg 32 B adder_in1_signal[31:0] $end
$var reg 32 C write_or_jal_signal[31:0] $end
$scope module control_inst01 $end
$var reg 7 D op[6:0] $end
$var reg 1 E branch $end
$var reg 1 F memread $end
$var reg 1 G memtoreg $end
$var reg 1 H auipc $end
$var reg 1 I jal $end
$var reg 2 J aluop[1:0] $end
$var reg 1 K memwrite $end
$var reg 1 L alusrc $end
$var reg 1 M regwrite $end
$var reg 7 N op_signal[6:0] $end
$var reg 1 O branch_signal $end
$var reg 1 P memread_signal $end
$var reg 1 Q memtoreg_signal $end
$var reg 2 R aluop_signal[1:0] $end
$var reg 1 S memwrite_signal $end
$var reg 1 T alusrc_signal $end
$var reg 1 U auipc_signal $end
$var reg 1 V jal_signal $end
$var reg 1 W regwrite_signal $end
$upscope $end
$scope module genimm_inst02 $end
$var reg 32 X instruction[31:0] $end
$var reg 32 Y immediate[31:0] $end
$var reg 32 Z i_type[31:0] $end
$var reg 32 [ s_type[31:0] $end
$var reg 32 \ sb_type[31:0] $end
$var reg 32 ] uj_type[31:0] $end
$var reg 32 ^ u_type[31:0] $end
$var reg 3 _ selector[2:0] $end
$scope module mux_inst $end
$var reg 32 ` a[31:0] $end
$var reg 32 a b[31:0] $end
$var reg 32 b c[31:0] $end
$var reg 32 c d[31:0] $end
$var reg 32 d e[31:0] $end
$var reg 32 e f[31:0] $end
$var reg 32 f g[31:0] $end
$var reg 32 g h[31:0] $end
$var reg 3 h sel[2:0] $end
$var reg 32 i result[31:0] $end
$upscope $end
$upscope $end
$scope module alu_inst03 $end
$var reg 4 j opcode[3:0] $end
$var reg 32 k a[31:0] $end
$var reg 32 l b[31:0] $end
$var reg 32 m z[31:0] $end
$var reg 1 n zero $end
$upscope $end
$scope module control_alu_inst04 $end
$var reg 2 o ulaop[1:0] $end
$var reg 1 p funct7 $end
$var reg 1 q auipcin $end
$var reg 3 r funct3[2:0] $end
$var reg 4 s opout[3:0] $end
$upscope $end
$scope module pc_inst05 $end
$var reg 32 t addr_in[31:0] $end
$var reg 1 u rst $end
$var reg 1 v clk $end
$var reg 32 w addr_out[31:0] $end
$upscope $end
$scope module adder_inst06 $end
$var reg 32 x a[31:0] $end
$var reg 32 y b[31:0] $end
$var reg 32 z z[31:0] $end
$upscope $end
$scope module adder4_inst07 $end
$var reg 32 { a[31:0] $end
$var reg 32 | z[31:0] $end
$upscope $end
$scope module muxa_inst08 $end
$var reg 1 } sel $end
$var reg 32 !" a[31:0] $end
$var reg 32 "" b[31:0] $end
$var reg 32 #" result[31:0] $end
$upscope $end
$scope module muxb_inst09 $end
$var reg 1 $" sel $end
$var reg 32 %" a[31:0] $end
$var reg 32 &" b[31:0] $end
$var reg 32 '" result[31:0] $end
$upscope $end
$scope module muxc_inst10 $end
$var reg 1 (" sel $end
$var reg 32 )" a[31:0] $end
$var reg 32 *" b[31:0] $end
$var reg 32 +" result[31:0] $end
$upscope $end
$scope module muxd_inst11 $end
$var reg 1 ," sel $end
$var reg 32 -" a[31:0] $end
$var reg 32 ." b[31:0] $end
$var reg 32 /" result[31:0] $end
$upscope $end
$scope module muxg_inst14 $end
$var reg 1 0" sel $end
$var reg 32 1" a[31:0] $end
$var reg 32 2" b[31:0] $end
$var reg 32 3" result[31:0] $end
$upscope $end
$scope module muxh_inst15 $end
$var reg 1 4" sel $end
$var reg 32 5" a[31:0] $end
$var reg 32 6" b[31:0] $end
$var reg 32 7" result[31:0] $end
$upscope $end
$scope module mem_reg_inst16 $end
$var reg 1 8" clk $end
$var reg 1 9" wren $end
$var reg 5 :" rs1[4:0] $end
$var reg 5 ;" rs2[4:0] $end
$var reg 5 <" rd[4:0] $end
$var reg 32 =" data[31:0] $end
$var reg 32 >" ro1[31:0] $end
$var reg 32 ?" ro2[31:0] $end
$var integer 32 @" address1_signal $end
$var integer 32 A" address2_signal $end
$var integer 32 B" write_address_signal $end
$comment breg is not handled $end
$upscope $end
$scope module mem_data_inst17 $end
$var reg 1 C" clock $end
$var reg 1 D" we $end
$var reg 1 E" re $end
$var reg 12 F" address[11:0] $end
$var reg 32 G" datain[31:0] $end
$var reg 32 H" dataout[31:0] $end
$var integer 32 I" address_signal $end
$comment newramsignal is not handled $end
$upscope $end
$scope module mem_instr_inst18 $end
$var reg 12 J" address[11:0] $end
$var reg 32 K" dataout[31:0] $end
$var integer 32 L" address_signal $end
$comment newromsignal is not handled $end
$upscope $end
$upscope $end
$upscope $end
$enddefinitions $end
#0
0!
0"
0#
b00001111111100000110001010010011 $
b00000000000000000000000000000000 %
b00000000000000000000000000000000 &
b00000000000000000000000011111111 '
b00000000000000000000000011111111 (
b00001111111100000110001010010011 )
b00000000000000000000000011111111 *
b00000000000000000000000000000000 +
b00000000000000000000000011111111 ,
b00000000000000000000000011111111 -
0.
b01 /
b0011 0
01
02
03
04
05
16
07
18
b00000000000000000000000000000100 9
0:
b00000000000000000000000000000000 ;
b00000000000000000000000011111111 <
b00000000000000000000000000000100 =
b00000000000000000000000011111111 >
b00000000000000000000000000000000 ?
b00000000000000000000000000000000 @
b00000000000000000000000000000000 A
b00000000000000000000000000000000 B
b00000000000000000000000011111111 C
b0010011 D
0E
0F
0G
0H
0I
b01 J
0K
1L
1M
b0010011 N
0O
0P
0Q
b01 R
0S
1T
0U
0V
1W
b00001111111100000110001010010011 X
b00000000000000000000000011111111 Y
b00000000000000000000000011111111 Z
b00000000000000000000000011100101 [
b00000000000000000000100011100100 \
b00000000000000000110100011111110 ]
b00001111111100000110000000000000 ^
b000 _
b00000000000000000000000011111111 `
b00000000000000000000000011100101 a
b00000000000000000000100011100100 b
b00001111111100000110000000000000 c
b00000000000000000110100011111110 d
b00000000000000000000000000000000 e
b00000000000000000000000000000000 f
b00000000000000000000000000000000 g
b000 h
b00000000000000000000000011111111 i
b0011 j
b00000000000000000000000000000000 k
b00000000000000000000000011111111 l
b00000000000000000000000011111111 m
0n
b01 o
0p
0q
b110 r
b0011 s
b00000000000000000000000000000100 t
0u
0v
b00000000000000000000000000000000 w
b00000000000000000000000000000000 x
b00000000000000000000000011111111 y
b00000000000000000000000011111111 z
b00000000000000000000000000000000 {
b00000000000000000000000000000100 |
0}
b00000000000000000000000000000100 !"
b00000000000000000000000011111111 ""
b00000000000000000000000000000100 #"
1$"
b00000000000000000000000000000000 %"
b00000000000000000000000011111111 &"
b00000000000000000000000011111111 '"
0("
b00000000000000000000000011111111 )"
b00000000000000000000000000000000 *"
b00000000000000000000000011111111 +"
0,"
b00000000000000000000000000000000 -"
b00000000000000000000000000000000 ."
b00000000000000000000000000000000 /"
00"
b00000000000000000000000000000000 1"
b00000000000000000000000000000000 2"
b00000000000000000000000000000000 3"
04"
b00000000000000000000000011111111 5"
b00000000000000000000000000000100 6"
b00000000000000000000000011111111 7"
08"
19"
b00000 :"
b11111 ;"
b00101 <"
b00000000000000000000000011111111 ="
b00000000000000000000000000000000 >"
b00000000000000000000000000000000 ?"
b0 @"
b11111 A"
b101 B"
0C"
0D"
0E"
b000011111111 F"
b00000000000000000000000000000000 G"
b00000000000000000000000000000000 H"
b111111 I"
b000000000000 J"
b00001111111100000110001010010011 K"
b0 L"
#5000000
1!
1#
b00001111000000101111001010010011 $
b00000000000000000000000011111111 %
b00000000000000000000000011110000 '
b00000000000000000000000011110000 (
b00001111000000101111001010010011 )
b00000000000000000000000011110000 *
b00000000000000000000000011111111 +
b00000000000000000000000011110000 ,
b00000000000000000000000011110000 -
b0010 0
b00000000000000000000000000001000 9
b00000000000000000000000000000100 ;
b00000000000000000000000011110100 <
b00000000000000000000000000001000 =
b00000000000000000000000011110000 >
b00000000000000000000000011111111 ?
b00000000000000000000000000000100 B
b00000000000000000000000011110000 C
b00001111000000101111001010010011 X
b00000000000000000000000011110000 Y
b00000000000000000000000011110000 Z
b00000000000000101111000011110000 ]
b00001111000000101111000000000000 ^
b00000000000000000000000011110000 `
b00001111000000101111000000000000 c
b00000000000000101111000011110000 d
b00000000000000000000000011110000 i
b0010 j
b00000000000000000000000011111111 k
b00000000000000000000000011110000 l
b00000000000000000000000011110000 m
b111 r
b0010 s
b00000000000000000000000000001000 t
1v
b00000000000000000000000000000100 w
b00000000000000000000000000000100 x
b00000000000000000000000011110000 y
b00000000000000000000000011110100 z
b00000000000000000000000000000100 {
b00000000000000000000000000001000 |
b00000000000000000000000000001000 !"
b00000000000000000000000011110100 ""
b00000000000000000000000000001000 #"
b00000000000000000000000011110000 &"
b00000000000000000000000011110000 '"
b00000000000000000000000011110000 )"
b00000000000000000000000011110000 +"
b00000000000000000000000011111111 -"
b00000000000000000000000000000100 ."
b00000000000000000000000011111111 /"
b00000000000000000000000000000100 1"
b00000000000000000000000011111111 2"
b00000000000000000000000000000100 3"
b00000000000000000000000011110000 5"
b00000000000000000000000000001000 6"
b00000000000000000000000011110000 7"
18"
b00101 :"
b10000 ;"
b00000000000000000000000011110000 ="
b00000000000000000000000011111111 >"
b101 @"
b10000 A"
1C"
b000011110000 F"
b111100 I"
b000000000100 J"
b00001111000000101111001010010011 K"
b1 L"
#10000000
0!
0#
0v
08"
0C"
#15000000
1!
1#
b00000000000000000010010000110111 $
b00000000000000000000000000000000 %
b00000000000000000000000000000000 '
b00000000000000000000000000000000 (
b00000000000000000010010000110111 )
b00000000000000000000000000000000 *
b00000000000000000000000000000000 +
b00000000000000000000000000000000 ,
b00000000000000000000000000000000 -
b11 /
b1110 0
b00000000000000000000000000001100 9
b00000000000000000000000000001000 ;
b00000000000000000000000000001000 <
b00000000000000000000000000001100 =
b00000000000000000000000000000000 >
b00000000000000000000000000000000 ?
b00000000000000000000000000001000 B
b00000000000000000000000000000000 C
b0110111 D
b11 J
b0110111 N
b11 R
b00000000000000000010010000110111 X
b00000000000000000000000000000000 Y
b00000000000000000000000000000000 Z
b00000000000000000000000000001000 [
b00000000000000000000000000001000 \
b00000000000000000010000000000000 ]
b00000000000000000010000000000000 ^
b00000000000000000000000000000000 `
b00000000000000000000000000001000 a
b00000000000000000000000000001000 b
b00000000000000000010000000000000 c
b00000000000000000010000000000000 d
b00000000000000000000000000000000 i
b1110 j
b00000000000000000000000000000000 k
b00000000000000000000000000000000 l
b00000000000000000000000000000000 m
b11 o
b010 r
b1110 s
b00000000000000000000000000001100 t
1v
b00000000000000000000000000001000 w
b00000000000000000000000000001000 x
b00000000000000000000000000000000 y
b00000000000000000000000000001000 z
b00000000000000000000000000001000 {
b00000000000000000000000000001100 |
b00000000000000000000000000001100 !"
b00000000000000000000000000001000 ""
b00000000000000000000000000001100 #"
b00000000000000000000000000000000 &"
b00000000000000000000000000000000 '"
b00000000000000000000000000000000 )"
b00000000000000000000000000000000 +"
b00000000000000000000000000000000 -"
b00000000000000000000000000001000 ."
b00000000000000000000000000000000 /"
b00000000000000000000000000001000 1"
b00000000000000000000000000000000 2"
b00000000000000000000000000001000 3"
b00000000000000000000000000000000 5"
b00000000000000000000000000001100 6"
b00000000000000000000000000000000 7"
18"
b00000 :"
b00000 ;"
b01000 <"
b00000000000000000000000000000000 ="
b00000000000000000000000000000000 >"
b0 @"
b0 A"
b1000 B"
1C"
b000000000000 F"
b0 I"
b000000001000 J"
b00000000000000000010010000110111 K"
b10 L"
#20000000
0!
0#
0v
08"
0C"
#25000000
1!
1#
b00000000000000000010111100010111 $
b00000000000000000000000000001100 '
b00000000000000000010111100010111 )
b00000000000000000000000000001100 +
b00000000000000000000000000001100 -
b1111 0
15
b00000000000000000000000000010000 9
b00000000000000000000000000001100 ;
b00000000000000000000000000001100 <
b00000000000000000000000000010000 =
b00000000000000000000000000001100 >
b00000000000000000000000000001100 B
b00000000000000000000000000001100 C
b0010111 D
1H
b0010111 N
1U
b00000000000000000010111100010111 X
b00000000000000000000000000011110 [
b00000000000000000000000000011110 \
b00000000000000000000000000011110 a
b00000000000000000000000000011110 b
b1111 j
b00000000000000000000000000001100 k
b00000000000000000000000000001100 m
1q
b1111 s
b00000000000000000000000000010000 t
1v
b00000000000000000000000000001100 w
b00000000000000000000000000001100 x
b00000000000000000000000000001100 z
b00000000000000000000000000001100 {
b00000000000000000000000000010000 |
b00000000000000000000000000010000 !"
b00000000000000000000000000001100 ""
b00000000000000000000000000010000 #"
b00000000000000000000000000001100 )"
b00000000000000000000000000001100 +"
1,"
b00000000000000000000000000001100 ."
b00000000000000000000000000001100 /"
b00000000000000000000000000001100 1"
b00000000000000000000000000001100 3"
b00000000000000000000000000001100 5"
b00000000000000000000000000010000 6"
b00000000000000000000000000001100 7"
18"
b11110 <"
b00000000000000000000000000001100 ="
b11110 B"
1C"
b000000001100 F"
b11 I"
b000000001100 J"
b00000000000000000010111100010111 K"
b11 L"
#30000000
0!
0#
0v
08"
0C"
#35000000
1!
1#
b00000000000001000010010010000011 $
b00000000000000000000000000001111 '
b00000000000001000010010010000011 )
b00000000000000000000000000000000 +
b00000000000000000000000000000000 -
b1110 0
12
13
05
b00000000000000000000000000010100 9
b00000000000000000000000000010000 ;
b00000000000000000000000000010000 <
b00000000000000000000000000010100 =
b00000000000000000000000000001111 >
b00000000000000000000000000001111 A
b00000000000000000000000000010000 B
b00000000000000000000000000001111 C
b0000011 D
1F
1G
0H
b0000011 N
1P
1Q
0U
b00000000000001000010010010000011 X
b00000000000000000000000000001001 [
b00000000000000000000100000001000 \
b00000000000001000010000000000000 ]
b00000000000001000010000000000000 ^
b00000000000000000000000000001001 a
b00000000000000000000100000001000 b
b00000000000001000010000000000000 c
b00000000000001000010000000000000 d
b1110 j
b00000000000000000000000000000000 k
b00000000000000000000000000000000 m
0q
b1110 s
b00000000000000000000000000010100 t
1v
b00000000000000000000000000010000 w
b00000000000000000000000000010000 x
b00000000000000000000000000010000 z
b00000000000000000000000000010000 {
b00000000000000000000000000010100 |
b00000000000000000000000000010100 !"
b00000000000000000000000000010000 ""
b00000000000000000000000000010100 #"
1("
b00000000000000000000000000000000 )"
b00000000000000000000000000001111 *"
b00000000000000000000000000001111 +"
0,"
b00000000000000000000000000010000 ."
b00000000000000000000000000000000 /"
b00000000000000000000000000010000 1"
b00000000000000000000000000010000 3"
b00000000000000000000000000001111 5"
b00000000000000000000000000010100 6"
b00000000000000000000000000001111 7"
18"
b01000 :"
b01001 <"
b00000000000000000000000000001111 ="
b1000 @"
b1001 B"
1C"
1E"
b000000000000 F"
b00000000000000000000000000001111 H"
b0 I"
b000000010000 J"
b00000000000001000010010010000011 K"
b100 L"
#40000000
0!
0#
0v
08"
0C"
#45000000
1!
1#
b00000000010001000010100100000011 $
b00000000000000000000000000111111 '
b00000000000000000000000000000100 (
b00000000010001000010100100000011 )
b00000000000000000000000000000100 *
b00000000000000000000000000000100 ,
b00000000000000000000000000000100 -
b00000000000000000000000000011000 9
b00000000000000000000000000010100 ;
b00000000000000000000000000011000 <
b00000000000000000000000000011000 =
b00000000000000000000000000111111 >
b00000000000000000000000000111111 A
b00000000000000000000000000010100 B
b00000000000000000000000000111111 C
b00000000010001000010100100000011 X
b00000000000000000000000000000100 Y
b00000000000000000000000000000100 Z
b00000000000000000000000000010010 [
b00000000000000000000000000010010 \
b00000000000001000010000000000100 ]
b00000000010001000010000000000000 ^
b00000000000000000000000000000100 `
b00000000000000000000000000010010 a
b00000000000000000000000000010010 b
b00000000010001000010000000000000 c
b00000000000001000010000000000100 d
b00000000000000000000000000000100 i
b00000000000000000000000000000100 l
b00000000000000000000000000000100 m
b00000000000000000000000000011000 t
1v
b00000000000000000000000000010100 w
b00000000000000000000000000010100 x
b00000000000000000000000000000100 y
b00000000000000000000000000011000 z
b00000000000000000000000000010100 {
b00000000000000000000000000011000 |
b00000000000000000000000000011000 !"
b00000000000000000000000000011000 ""
b00000000000000000000000000011000 #"
b00000000000000000000000000000100 &"
b00000000000000000000000000000100 '"
b00000000000000000000000000000100 )"
b00000000000000000000000000111111 *"
b00000000000000000000000000111111 +"
b00000000000000000000000000010100 ."
b00000000000000000000000000010100 1"
b00000000000000000000000000010100 3"
b00000000000000000000000000111111 5"
b00000000000000000000000000011000 6"
b00000000000000000000000000111111 7"
18"
b00100 ;"
b10010 <"
b00000000000000000000000000111111 ="
b100 A"
b10010 B"
1C"
b000000000100 F"
b00000000000000000000000000111111 H"
b1 I"
b000000010100 J"
b00000000010001000010100100000011 K"
b101 L"
#50000000
0!
0#
0v
08"
0C"
#55000000
1!
1#
b00000001001001001000100110110011 $
b00000000000000000000000000001111 %
b00000000000000000000000000111111 &
b00000000000000000000000001001110 '
b00000000000000000000000000010010 (
b00000001001001001000100110110011 )
b00000000000000000000000000010010 *
b00000000000000000000000000001111 +
b00000000000000000000000000111111 ,
b00000000000000000000000001001110 -
b00 /
b0000 0
02
03
06
b00000000000000000000000000011100 9
b00000000000000000000000000011000 ;
b00000000000000000000000000101010 <
b00000000000000000000000000011100 =
b00000000000000000000000001001110 >
b00000000000000000000000000001111 ?
b00000000000000000000000000111111 @
b00000000000000000000000000000000 A
b00000000000000000000000000011000 B
b00000000000000000000000001001110 C
b0110011 D
0F
0G
b00 J
0L
b0110011 N
0P
0Q
b00 R
0T
b00000001001001001000100110110011 X
b00000000000000000000000000010010 Y
b00000000000000000000000000010010 Z
b00000000000000000000000000010011 [
b00000000000000000000100000010010 \
b00000000000001001000000000010010 ]
b00000001001001001000000000000000 ^
b00000000000000000000000000010010 `
b00000000000000000000000000010011 a
b00000000000000000000100000010010 b
b00000001001001001000000000000000 c
b00000000000001001000000000010010 d
b00000000000000000000000000010010 i
b0000 j
b00000000000000000000000000001111 k
b00000000000000000000000000111111 l
b00000000000000000000000001001110 m
b00 o
b000 r
b0000 s
b00000000000000000000000000011100 t
1v
b00000000000000000000000000011000 w
b00000000000000000000000000011000 x
b00000000000000000000000000010010 y
b00000000000000000000000000101010 z
b00000000000000000000000000011000 {
b00000000000000000000000000011100 |
b00000000000000000000000000011100 !"
b00000000000000000000000000101010 ""
b00000000000000000000000000011100 #"
0$"
b00000000000000000000000000111111 %"
b00000000000000000000000000010010 &"
b00000000000000000000000000111111 '"
0("
b00000000000000000000000001001110 )"
b00000000000000000000000000000000 *"
b00000000000000000000000001001110 +"
b00000000000000000000000000001111 -"
b00000000000000000000000000011000 ."
b00000000000000000000000000001111 /"
b00000000000000000000000000011000 1"
b00000000000000000000000000001111 2"
b00000000000000000000000000011000 3"
b00000000000000000000000001001110 5"
b00000000000000000000000000011100 6"
b00000000000000000000000001001110 7"
18"
b01001 :"
b10010 ;"
b10011 <"
b00000000000000000000000001001110 ="
b00000000000000000000000000001111 >"
b00000000000000000000000000111111 ?"
b1001 @"
b10010 A"
b10011 B"
1C"
0E"
b000001001110 F"
b00000000000000000000000000111111 G"
b00000000000000000000000000000000 H"
b10011 I"
b000000011000 J"
b00000001001001001000100110110011 K"
b110 L"
#60000000
0!
0#
0v
08"
0C"
#65000000
1!
1#
b00000001001101000010010000100011 $
b00000000000000000000000000000000 %
b00000000000000000000000001001110 &
b00000000000000000000000000010011 '
b00000000000000000000000000010011 (
b00000001001101000010010000100011 )
b00000000000000000000000000010011 *
b00000000000000000000000000000000 +
b00000000000000000000000000010011 ,
b00000000000000000000000000010011 -
0.
b11 /
b1110 0
14
16
08
b00000000000000000000000000100000 9
b00000000000000000000000000011100 ;
b00000000000000000000000000101111 <
b00000000000000000000000000100000 =
b00000000000000000000000000010011 >
b00000000000000000000000000000000 ?
b00000000000000000000000001001110 @
b00000000000000000000000000011100 B
b00000000000000000000000000010011 C
b0100011 D
b11 J
1K
1L
0M
b0100011 N
b11 R
1S
1T
0W
b00000001001101000010010000100011 X
b00000000000000000000000000010011 Y
b00000000000000000000000000010011 Z
b00000000000000000000000000001000 [
b00000000000000000000000000001000 \
b00000000000001000010100000010010 ]
b00000001001101000010000000000000 ^
b00000000000000000000000000010011 `
b00000000000000000000000000001000 a
b00000000000000000000000000001000 b
b00000001001101000010000000000000 c
b00000000000001000010100000010010 d
b00000000000000000000000000010011 i
b1110 j
b00000000000000000000000000000000 k
b00000000000000000000000000010011 l
b00000000000000000000000000010011 m
0n
b11 o
b010 r
b1110 s
b00000000000000000000000000100000 t
1v
b00000000000000000000000000011100 w
b00000000000000000000000000011100 x
b00000000000000000000000000010011 y
b00000000000000000000000000101111 z
b00000000000000000000000000011100 {
b00000000000000000000000000100000 |
b00000000000000000000000000100000 !"
b00000000000000000000000000101111 ""
b00000000000000000000000000100000 #"
1$"
b00000000000000000000000001001110 %"
b00000000000000000000000000010011 &"
b00000000000000000000000000010011 '"
b00000000000000000000000000010011 )"
b00000000000000000000000000010011 +"
b00000000000000000000000000000000 -"
b00000000000000000000000000011100 ."
b00000000000000000000000000000000 /"
b00000000000000000000000000011100 1"
b00000000000000000000000000000000 2"
b00000000000000000000000000011100 3"
b00000000000000000000000000010011 5"
b00000000000000000000000000100000 6"
b00000000000000000000000000010011 7"
18"
09"
b01000 :"
b10011 ;"
b01000 <"
b00000000000000000000000000010011 ="
b00000000000000000000000000000000 >"
b00000000000000000000000001001110 ?"
b1000 @"
b10011 A"
b1000 B"
1C"
1D"
b000000010011 F"
b00000000000000000000000001001110 G"
b100 I"
b000000011100 J"
b00000001001101000010010000100011 K"
b111 L"
#70000000
0!
0#
0v
08"
0C"
#75000000
1!
1#
b00000000100001000010010100000011 $
b00000000000000000000000000000000 &
b00000000000000000000000000000000 '
b00000000000000000000000000001000 (
b00000000100001000010010100000011 )
b00000000000000000000000000001000 *
b00000000000000000000000000001000 ,
b00000000000000000000000000001000 -
12
13
04
18
b00000000000000000000000000100100 9
b00000000000000000000000000100000 ;
b00000000000000000000000000101000 <
b00000000000000000000000000100100 =
b00000000000000000000000000000000 >
b00000000000000000000000000000000 @
b00000000000000000000000000000000 A
b00000000000000000000000000100000 B
b00000000000000000000000000000000 C
b0000011 D
1F
1G
0K
1M
b0000011 N
1P
1Q
0S
1W
b00000000100001000010010100000011 X
b00000000000000000000000000001000 Y
b00000000000000000000000000001000 Z
b00000000000000000000000000001010 [
b00000000000000000000000000001010 \
b00000000000001000010000000001000 ]
b00000000100001000010000000000000 ^
b00000000000000000000000000001000 `
b00000000000000000000000000001010 a
b00000000000000000000000000001010 b
b00000000100001000010000000000000 c
b00000000000001000010000000001000 d
b00000000000000000000000000001000 i
b00000000000000000000000000001000 l
b00000000000000000000000000001000 m
b00000000000000000000000000100100 t
1v
b00000000000000000000000000100000 w
b00000000000000000000000000100000 x
b00000000000000000000000000001000 y
b00000000000000000000000000101000 z
b00000000000000000000000000100000 {
b00000000000000000000000000100100 |
b00000000000000000000000000100100 !"
b00000000000000000000000000101000 ""
b00000000000000000000000000100100 #"
b00000000000000000000000000000000 %"
b00000000000000000000000000001000 &"
b00000000000000000000000000001000 '"
1("
b00000000000000000000000000001000 )"
b00000000000000000000000000000000 *"
b00000000000000000000000000000000 +"
b00000000000000000000000000100000 ."
b00000000000000000000000000100000 1"
b00000000000000000000000000100000 3"
b00000000000000000000000000000000 5"
b00000000000000000000000000100100 6"
b00000000000000000000000000000000 7"
18"
19"
b01000 ;"
b01010 <"
b00000000000000000000000000000000 ="
b00000000000000000000000000000000 ?"
b1000 A"
b1010 B"
1C"
0D"
1E"
b000000001000 F"
b00000000000000000000000000000000 G"
b00000000000000000000000000000000 H"
b10 I"
b000000100000 J"
b00000000100001000010010100000011 K"
b1000 L"
#80000000
0!
0#
0v
08"
0C"
#85000000
1!
1#
b01111111000000000000101000010011 $
b00000000000000000000011111110000 '
b00000000000000000000011111110000 (
b01111111000000000000101000010011 )
b00000000000000000000011111110000 *
b00000000000000000000011111110000 ,
b00000000000000000000011111110000 -
b01 /
b0000 0
02
03
b00000000000000000000000000101000 9
b00000000000000000000000000100100 ;
b00000000000000000000100000010100 <
b00000000000000000000000000101000 =
b00000000000000000000011111110000 >
b00000000000000000000000000100100 B
b00000000000000000000011111110000 C
b0010011 D
0F
0G
b01 J
b0010011 N
0P
0Q
b01 R
b01111111000000000000101000010011 X
b00000000000000000000011111110000 Y
b00000000000000000000011111110000 Z
b00000000000000000000011111110100 [
b00000000000000000000011111110100 \
b00000000000000000000011111110000 ]
b01111111000000000000000000000000 ^
b00000000000000000000011111110000 `
b00000000000000000000011111110100 a
b00000000000000000000011111110100 b
b01111111000000000000000000000000 c
b00000000000000000000011111110000 d
b00000000000000000000011111110000 i
b0000 j
b00000000000000000000011111110000 l
b00000000000000000000011111110000 m
b01 o
1p
b000 r
b0000 s
b00000000000000000000000000101000 t
1v
b00000000000000000000000000100100 w
b00000000000000000000000000100100 x
b00000000000000000000011111110000 y
b00000000000000000000100000010100 z
b00000000000000000000000000100100 {
b00000000000000000000000000101000 |
b00000000000000000000000000101000 !"
b00000000000000000000100000010100 ""
b00000000000000000000000000101000 #"
b00000000000000000000011111110000 &"
b00000000000000000000011111110000 '"
0("
b00000000000000000000011111110000 )"
b00000000000000000000011111110000 +"
b00000000000000000000000000100100 ."
b00000000000000000000000000100100 1"
b00000000000000000000000000100100 3"
b00000000000000000000011111110000 5"
b00000000000000000000000000101000 6"
b00000000000000000000011111110000 7"
18"
b00000 :"
b10000 ;"
b10100 <"
b00000000000000000000011111110000 ="
b0 @"
b10000 A"
b10100 B"
1C"
0E"
b011111110000 F"
b111111100 I"
b000000100100 J"
b01111111000000000000101000010011 K"
b1001 L"
#90000000
0!
0#
0v
08"
0C"
#95000000
1!
1#
b00001111111100000000101010010011 $
b00000000000000000000000011111111 '
b00000000000000000000000011111111 (
b00001111111100000000101010010011 )
b00000000000000000000000011111111 *
b00000000000000000000000011111111 ,
b00000000000000000000000011111111 -
b00000000000000000000000000101100 9
b00000000000000000000000000101000 ;
b00000000000000000000000100100111 <
b00000000000000000000000000101100 =
b00000000000000000000000011111111 >
b00000000000000000000000000101000 B
b00000000000000000000000011111111 C
b00001111111100000000101010010011 X
b00000000000000000000000011111111 Y
b00000000000000000000000011111111 Z
b00000000000000000000000011110101 [
b00000000000000000000100011110100 \
b00000000000000000000100011111110 ]
b00001111111100000000000000000000 ^
b00000000000000000000000011111111 `
b00000000000000000000000011110101 a
b00000000000000000000100011110100 b
b00001111111100000000000000000000 c
b00000000000000000000100011111110 d
b00000000000000000000000011111111 i
b00000000000000000000000011111111 l
b00000000000000000000000011111111 m
0p
b00000000000000000000000000101100 t
1v
b00000000000000000000000000101000 w
b00000000000000000000000000101000 x
b00000000000000000000000011111111 y
b00000000000000000000000100100111 z
b00000000000000000000000000101000 {
b00000000000000000000000000101100 |
b00000000000000000000000000101100 !"
b00000000000000000000000100100111 ""
b00000000000000000000000000101100 #"
b00000000000000000000000011111111 &"
b00000000000000000000000011111111 '"
b00000000000000000000000011111111 )"
b00000000000000000000000011111111 +"
b00000000000000000000000000101000 ."
b00000000000000000000000000101000 1"
b00000000000000000000000000101000 3"
b00000000000000000000000011111111 5"
b00000000000000000000000000101100 6"
b00000000000000000000000011111111 7"
18"
b11111 ;"
b10101 <"
b00000000000000000000000011111111 ="
b11111 A"
b10101 B"
1C"
b000011111111 F"
b111111 I"
b000000101000 J"
b00001111111100000000101010010011 K"
b1010 L"
#100000000
0!
0#
0v
08"
0C"
