RISC-V-Uniciclo/src/testbench_waveform.vcd
$date
  Thu Dec 14 22:16:22 2023
$end
$version
  GHDL v0
$end
$timescale
  1 fs
$end
$scope module standard $end
$upscope $end
$scope module textio $end
$upscope $end
$scope module std_logic_1164 $end
$upscope $end
$scope module numeric_std $end
$upscope $end
$scope module testbench_rv32_processor $end
$var reg 1 ! clock $end
$var reg 1 " test_finished $end
$var reg 32 # instruction[31:0] $end
$var reg 32 $ rs1[31:0] $end
$var reg 32 % rs2[31:0] $end
$var reg 32 & rd[31:0] $end
$var reg 32 ' immediate[31:0] $end
$scope module uut $end
$var reg 1 ( clock $end
$var reg 32 ) instruction[31:0] $end
$var reg 32 * rs1[31:0] $end
$var reg 32 + rs2[31:0] $end
$var reg 32 , rd[31:0] $end
$var reg 32 - immediate[31:0] $end
$var reg 32 . instruction_signal[31:0] $end
$var reg 32 / immout_signal[31:0] $end
$var reg 32 0 ain_signal[31:0] $end
$var reg 32 1 bin_signal[31:0] $end
$var reg 32 2 zout_signal[31:0] $end
$var reg 1 3 zeroout_signal $end
$var reg 2 4 aluop_signal[1:0] $end
$var reg 4 5 aluopout_signal[3:0] $end
$var reg 1 6 branch_signal $end
$var reg 1 7 memtoreg_signal $end
$var reg 1 8 memread_signal $end
$var reg 1 9 memwrite_signal $end
$var reg 1 : auipc_signal $end
$var reg 1 ; alusrc_signal $end
$var reg 1 < jal_signal $end
$var reg 1 = regwrite_signal $end
$var reg 32 > addr_in_signal[31:0] $end
$var reg 1 ? rst_signal $end
$var reg 32 @ addr_out_signal[31:0] $end
$var reg 32 A adderout_signal[31:0] $end
$var reg 32 B adder4out_signal[31:0] $end
$var reg 32 C write_data_signal[31:0] $end
$var reg 32 D rs1_signal[31:0] $end
$var reg 32 E rs2_signal[31:0] $end
$var reg 32 F data_out_signal[31:0] $end
$var reg 32 G adder_in1_signal[31:0] $end
$var reg 32 H write_or_jal_signal[31:0] $end
$scope module control_inst01 $end
$var reg 7 I op[6:0] $end
$var reg 1 J branch $end
$var reg 1 K memread $end
$var reg 1 L memtoreg $end
$var reg 1 M auipc $end
$var reg 1 N jal $end
$var reg 2 O aluop[1:0] $end
$var reg 1 P memwrite $end
$var reg 1 Q alusrc $end
$var reg 1 R regwrite $end
$var reg 7 S op_signal[6:0] $end
$var reg 1 T branch_signal $end
$var reg 1 U memread_signal $end
$var reg 1 V memtoreg_signal $end
$var reg 2 W aluop_signal[1:0] $end
$var reg 1 X memwrite_signal $end
$var reg 1 Y alusrc_signal $end
$var reg 1 Z auipc_signal $end
$var reg 1 [ jal_signal $end
$var reg 1 \ regwrite_signal $end
$upscope $end
$scope module genimm_inst02 $end
$var reg 32 ] instruction[31:0] $end
$var reg 32 ^ immediate[31:0] $end
$var reg 32 _ i[31:0] $end
$var reg 32 ` s[31:0] $end
$var reg 32 a sb[31:0] $end
$var reg 32 b u[31:0] $end
$var reg 32 c uj[31:0] $end
$var reg 32 d r[31:0] $end
$comment instrtype is not handled $end
$var reg 8 e opcode[7:0] $end
$var reg 3 f funct3[2:0] $end
$upscope $end
$scope module alu_inst03 $end
$var reg 4 g opcode[3:0] $end
$var reg 32 h a[31:0] $end
$var reg 32 i b[31:0] $end
$var reg 32 j z[31:0] $end
$var reg 1 k zero $end
$upscope $end
$scope module control_alu_inst04 $end
$var reg 2 l ulaop[1:0] $end
$var reg 1 m funct7 $end
$var reg 1 n auipcin $end
$var reg 3 o funct3[2:0] $end
$var reg 4 p opout[3:0] $end
$upscope $end
$scope module pc_inst05 $end
$var reg 32 q addr_in[31:0] $end
$var reg 1 r rst $end
$var reg 1 s clk $end
$var reg 32 t addr_out[31:0] $end
$upscope $end
$scope module adder_inst06 $end
$var reg 32 u a[31:0] $end
$var reg 32 v b[31:0] $end
$var reg 32 w z[31:0] $end
$upscope $end
$scope module adder4_inst07 $end
$var reg 32 x a[31:0] $end
$var reg 32 y z[31:0] $end
$var reg 32 z a_signal[31:0] $end
$upscope $end
$scope module muxa_inst08 $end
$var reg 1 { sel $end
$var reg 32 | a[31:0] $end
$var reg 32 } b[31:0] $end
$var reg 32 !" result[31:0] $end
$upscope $end
$scope module muxb_inst09 $end
$var reg 1 "" sel $end
$var reg 32 #" a[31:0] $end
$var reg 32 $" b[31:0] $end
$var reg 32 %" result[31:0] $end
$upscope $end
$scope module muxc_inst10 $end
$var reg 1 &" sel $end
$var reg 32 '" a[31:0] $end
$var reg 32 (" b[31:0] $end
$var reg 32 )" result[31:0] $end
$upscope $end
$scope module muxd_inst11 $end
$var reg 1 *" sel $end
$var reg 32 +" a[31:0] $end
$var reg 32 ," b[31:0] $end
$var reg 32 -" result[31:0] $end
$upscope $end
$scope module muxg_inst14 $end
$var reg 1 ." sel $end
$var reg 32 /" a[31:0] $end
$var reg 32 0" b[31:0] $end
$var reg 32 1" result[31:0] $end
$upscope $end
$scope module muxh_inst15 $end
$var reg 1 2" sel $end
$var reg 32 3" a[31:0] $end
$var reg 32 4" b[31:0] $end
$var reg 32 5" result[31:0] $end
$upscope $end
$scope module mem_reg_inst16 $end
$var reg 1 6" clk $end
$var reg 1 7" wren $end
$var reg 5 8" rs1[4:0] $end
$var reg 5 9" rs2[4:0] $end
$var reg 5 :" rd[4:0] $end
$var reg 32 ;" data[31:0] $end
$var reg 32 <" ro1[31:0] $end
$var reg 32 =" ro2[31:0] $end
$comment registers is not handled $end
$upscope $end
$scope module mem_data_inst17 $end
$var reg 1 >" clock $end
$var reg 1 ?" we $end
$var reg 8 @" address[7:0] $end
$var reg 32 A" datain[31:0] $end
$var reg 32 B" dataout[31:0] $end
$comment mem is not handled $end
$var reg 8 C" read_address[7:0] $end
$upscope $end
$scope module mem_instr_inst18 $end
$var reg 8 D" address[7:0] $end
$var reg 32 E" dataout[31:0] $end
$comment mem is not handled $end
$upscope $end
$upscope $end
$upscope $end
$enddefinitions $end
#0
0!
0"
bXX00X00X0X000XX00000XXXXXXXX0000 #
bUUUUUUUUUUUUUUUUUUUUUUUUUUUUUUUU $
bUUUUUUUUUUUUUUUUUUUUUUUUUUUUUUUU %
bXXXXXXXXXXXXXXXXXXXXXXXXXXXXXXXX &
b00000000000000000000000000000000 '
0(
bXX00X00X0X000XX00000XXXXXXXX0000 )
bUUUUUUUUUUUUUUUUUUUUUUUUUUUUUUUU *
bUUUUUUUUUUUUUUUUUUUUUUUUUUUUUUUU +
bXXXXXXXXXXXXXXXXXXXXXXXXXXXXXXXX ,
b00000000000000000000000000000000 -
b00000000000000000000000000000000 .
b00000000000000000000000000000000 /
bUUUUUUUUUUUUUUUUUUUUUUUUUUUUUUUU 0
bUUUUUUUUUUUUUUUUUUUUUUUUUUUUUUUU 1
bXXXXXXXXXXXXXXXXXXXXXXXXXXXXXXXX 2
03
b00 4
b0000 5
06
07
08
09
0:
0;
0<
0=
b00000000000000000000000000000100 >
0?
b00000000000000000000000000000000 @
b00000000000000000000000000000000 A
b00000000000000000000000000000100 B
bXXXXXXXXXXXXXXXXXXXXXXXXXXXXXXXX C
bUUUUUUUUUUUUUUUUUUUUUUUUUUUUUUUU D
bUUUUUUUUUUUUUUUUUUUUUUUUUUUUUUUU E
b00000000000000000000000000000000 F
b00000000000000000000000000000000 G
bXXXXXXXXXXXXXXXXXXXXXXXXXXXXXXXX H
b0000000 I
0J
0K
0L
0M
0N
b00 O
0P
0Q
0R
b0000000 S
0T
0U
0V
b00 W
0X
0Y
0Z
0[
0\
b00000000000000000000000000000000 ]
b00000000000000000000000000000000 ^
b00000000000000000000000000000000 _
b00000000000000000000000000000000 `
b00000000000000000000000000000000 a
b00000000000000000000000000000000 b
b00000000000000000000000000000000 c
b00000000000000000000000000000000 d
b00000000 e
b000 f
b0000 g
bUUUUUUUUUUUUUUUUUUUUUUUUUUUUUUUU h
bUUUUUUUUUUUUUUUUUUUUUUUUUUUUUUUU i
bXXXXXXXXXXXXXXXXXXXXXXXXXXXXXXXX j
0k
b00 l
0m
0n
b000 o
b0000 p
b00000000000000000000000000000100 q
0r
0s
b00000000000000000000000000000000 t
b00000000000000000000000000000000 u
b00000000000000000000000000000000 v
b00000000000000000000000000000000 w
b00000000000000000000000000000000 x
b00000000000000000000000000000100 y
b00000000000000000000000000000100 z
0{
b00000000000000000000000000000100 |
b00000000000000000000000000000000 }
b00000000000000000000000000000100 !"
0""
bUUUUUUUUUUUUUUUUUUUUUUUUUUUUUUUU #"
b00000000000000000000000000000000 $"
bUUUUUUUUUUUUUUUUUUUUUUUUUUUUUUUU %"
0&"
bXXXXXXXXXXXXXXXXXXXXXXXXXXXXXXXX '"
b00000000000000000000000000000000 ("
bXXXXXXXXXXXXXXXXXXXXXXXXXXXXXXXX )"
0*"
bUUUUUUUUUUUUUUUUUUUUUUUUUUUUUUUU +"
b00000000000000000000000000000000 ,"
bUUUUUUUUUUUUUUUUUUUUUUUUUUUUUUUU -"
0."
b00000000000000000000000000000000 /"
bUUUUUUUUUUUUUUUUUUUUUUUUUUUUUUUU 0"
b00000000000000000000000000000000 1"
02"
bXXXXXXXXXXXXXXXXXXXXXXXXXXXXXXXX 3"
b00000000000000000000000000000100 4"
bXXXXXXXXXXXXXXXXXXXXXXXXXXXXXXXX 5"
06"
07"
b00000 8"
b00000 9"
b00000 :"
bXXXXXXXXXXXXXXXXXXXXXXXXXXXXXXXX ;"
bUUUUUUUUUUUUUUUUUUUUUUUUUUUUUUUU <"
bUUUUUUUUUUUUUUUUUUUUUUUUUUUUUUUU ="
0>"
0?"
bXXXXXXXX @"
bUUUUUUUUUUUUUUUUUUUUUUUUUUUUUUUU A"
b00000000000000000000000000000000 B"
b00000000 C"
b00000000 D"
b00000000000000000000000000000000 E"
#5000000
1!
bXX00X00X0X000XX00000XXXXXXXX0X00 #
b00000000000000000000000000000000 $
b00000000000000000000000000000000 %
b00000000000000000000000000000000 &
1(
bXX00X00X0X000XX00000XXXXXXXX0X00 )
b00000000000000000000000000000000 *
b00000000000000000000000000000000 +
b00000000000000000000000000000000 ,
b00000000000000000000000000000100 .
b00000000000000000000000000000000 0
b00000000000000000000000000000000 1
b00000000000000000000000000000000 2
13
b00000000000000000000000000001000 >
b00000000000000000000000000000100 @
b00000000000000000000000000000100 A
b00000000000000000000000000001000 B
b00000000000000000000000000000000 C
b00000000000000000000000000000000 D
b00000000000000000000000000000000 E
b00000000000000000000000000000100 G
b00000000000000000000000000000000 H
b0000100 I
b0000100 S
b00000000000000000000000000000100 ]
b00000100 e
b00000000000000000000000000000000 h
b00000000000000000000000000000000 i
b00000000000000000000000000000000 j
1k
b00000000000000000000000000001000 q
1s
b00000000000000000000000000000100 t
b00000000000000000000000000000100 u
b00000000000000000000000000000100 w
b00000000000000000000000000000100 x
b00000000000000000000000000001000 y
b00000000000000000000000000001000 z
b00000000000000000000000000001000 |
b00000000000000000000000000000100 }
b00000000000000000000000000001000 !"
b00000000000000000000000000000000 #"
b00000000000000000000000000000000 %"
b00000000000000000000000000000000 '"
b00000000000000000000000000000000 )"
b00000000000000000000000000000000 +"
b00000000000000000000000000000100 ,"
b00000000000000000000000000000000 -"
b00000000000000000000000000000100 /"
b00000000000000000000000000000000 0"
b00000000000000000000000000000100 1"
b00000000000000000000000000000000 3"
b00000000000000000000000000001000 4"
b00000000000000000000000000000000 5"
16"
b00000000000000000000000000000000 ;"
b00000000000000000000000000000000 <"
b00000000000000000000000000000000 ="
1>"
b00000000 @"
b00000000000000000000000000000000 A"
bXXXXXXXX C"
b00000100 D"
b00000000000000000000000000000100 E"
#10000000
0!
bXX00X00X0X00XXXX0X000000XXXX0X00 #
0(
bXX00X00X0X00XXXX0X000000XXXX0X00 )
0s
06"
0>"
#15000000
1!
bXX00X00X0X00XXXX0X000000XXXXX000 #
1(
bXX00X00X0X00XXXX0X000000XXXXX000 )
b00000000000000000000000000001000 .
b00000000000000000000000000001100 >
b00000000000000000000000000001000 @
b00000000000000000000000000001000 A
b00000000000000000000000000001100 B
b00000000000000000000000000001000 G
b0001000 I
b0001000 S
b00000000000000000000000000001000 ]
b00001000 e
b00000000000000000000000000001100 q
1s
b00000000000000000000000000001000 t
b00000000000000000000000000001000 u
b00000000000000000000000000001000 w
b00000000000000000000000000001000 x
b00000000000000000000000000001100 y
b00000000000000000000000000001100 z
b00000000000000000000000000001100 |
b00000000000000000000000000001000 }
b00000000000000000000000000001100 !"
b00000000000000000000000000001000 ,"
b00000000000000000000000000001000 /"
b00000000000000000000000000001000 1"
b00000000000000000000000000001100 4"
16"
1>"
b00000000 C"
b00001000 D"
b00000000000000000000000000001000 E"
#20000000
0!
bXXX0XX0000X00X00000000000000X000 #
0(
bXXX0XX0000X00X00000000000000X000 )
0s
06"
0>"
#25000000
1!
bXXX0XX0000X00X00000000000000XX00 #
1(
bXXX0XX0000X00X00000000000000XX00 )
b00000000000000000000000000001100 .
b00000000000000000000000000010000 >
b00000000000000000000000000001100 @
b00000000000000000000000000001100 A
b00000000000000000000000000010000 B
b00000000000000000000000000001100 G
b0001100 I
b0001100 S
b00000000000000000000000000001100 ]
b00001100 e
b00000000000000000000000000010000 q
1s
b00000000000000000000000000001100 t
b00000000000000000000000000001100 u
b00000000000000000000000000001100 w
b00000000000000000000000000001100 x
b00000000000000000000000000010000 y
b00000000000000000000000000010000 z
b00000000000000000000000000010000 |
b00000000000000000000000000001100 }
b00000000000000000000000000010000 !"
b00000000000000000000000000001100 ,"
b00000000000000000000000000001100 /"
b00000000000000000000000000001100 1"
b00000000000000000000000000010000 4"
16"
1>"
b00001100 D"
b00000000000000000000000000001100 E"
#30000000
0!
bXXX0X000XXXX0X00000000000000XX00 #
0(
bXXX0X000XXXX0X00000000000000XX00 )
0s
06"
0>"
#35000000
1!
bXXX0X000XXXX0X0000000000000X0000 #
1(
bXXX0X000XXXX0X0000000000000X0000 )
b00000000000000000000000000010000 .
b00000000000000000000000000010100 >
b00000000000000000000000000010000 @
b00000000000000000000000000010000 A
b00000000000000000000000000010100 B
b00000000000000000000000000010000 G
b0010000 I
b0010000 S
b00000000000000000000000000010000 ]
b00010000 e
b00000000000000000000000000010100 q
1s
b00000000000000000000000000010000 t
b00000000000000000000000000010000 u
b00000000000000000000000000010000 w
b00000000000000000000000000010000 x
b00000000000000000000000000010100 y
b00000000000000000000000000010100 z
b00000000000000000000000000010100 |
b00000000000000000000000000010000 }
b00000000000000000000000000010100 !"
b00000000000000000000000000010000 ,"
b00000000000000000000000000010000 /"
b00000000000000000000000000010000 1"
b00000000000000000000000000010100 4"
16"
1>"
b00010000 D"
b00000000000000000000000000010000 E"
#40000000
0!
bXX00000X00X00X0000X00000000X0000 #
0(
bXX00000X00X00X0000X00000000X0000 )
0s
06"
0>"
#45000000
1!
bXX00000X00X00X0000X00000000X0X00 #
1(
bXX00000X00X00X0000X00000000X0X00 )
b00000000000000000000000000010100 .
b00000000000000000000000000011000 >
b00000000000000000000000000010100 @
b00000000000000000000000000010100 A
b00000000000000000000000000011000 B
b00000000000000000000000000010100 G
b0010100 I
b0010100 S
b00000000000000000000000000010100 ]
b00010100 e
b00000000000000000000000000011000 q
1s
b00000000000000000000000000010100 t
b00000000000000000000000000010100 u
b00000000000000000000000000010100 w
b00000000000000000000000000010100 x
b00000000000000000000000000011000 y
b00000000000000000000000000011000 z
b00000000000000000000000000011000 |
b00000000000000000000000000010100 }
b00000000000000000000000000011000 !"
b00000000000000000000000000010100 ,"
b00000000000000000000000000010100 /"
b00000000000000000000000000010100 1"
b00000000000000000000000000011000 4"
16"
1>"
b00010100 D"
b00000000000000000000000000010100 E"
#50000000
0!
bXX000000X00X0X0000X000X0000X0X00 #
0(
bXX000000X00X0X0000X000X0000X0X00 )
0s
06"
0>"
#55000000
1!
bXX000000X00X0X0000X000X0000XX000 #
1(
bXX000000X00X0X0000X000X0000XX000 )
b00000000000000000000000000011000 .
b00000000000000000000000000011100 >
b00000000000000000000000000011000 @
b00000000000000000000000000011000 A
b00000000000000000000000000011100 B
b00000000000000000000000000011000 G
b0011000 I
b0011000 S
b00000000000000000000000000011000 ]
b00011000 e
b00000000000000000000000000011100 q
1s
b00000000000000000000000000011000 t
b00000000000000000000000000011000 u
b00000000000000000000000000011000 w
b00000000000000000000000000011000 x
b00000000000000000000000000011100 y
b00000000000000000000000000011100 z
b00000000000000000000000000011100 |
b00000000000000000000000000011000 }
b00000000000000000000000000011100 !"
b00000000000000000000000000011000 ,"
b00000000000000000000000000011000 /"
b00000000000000000000000000011000 1"
b00000000000000000000000000011100 4"
16"
1>"
b00011000 D"
b00000000000000000000000000011000 E"
#60000000
0!
bXX00XX0XX00X000X00X00X00X00XX000 #
0(
bXX00XX0XX00X000X00X00X00X00XX000 )
0s
06"
0>"
#65000000
1!
bXX00XX0XX00X000X00X00X00X00XXX00 #
1(
bXX00XX0XX00X000X00X00X00X00XXX00 )
b00000000000000000000000000011100 .
b00000000000000000000000000100000 >
b00000000000000000000000000011100 @
b00000000000000000000000000011100 A
b00000000000000000000000000100000 B
b00000000000000000000000000011100 G
b0011100 I
b0011100 S
b00000000000000000000000000011100 ]
b00011100 e
b00000000000000000000000000100000 q
1s
b00000000000000000000000000011100 t
b00000000000000000000000000011100 u
b00000000000000000000000000011100 w
b00000000000000000000000000011100 x
b00000000000000000000000000100000 y
b00000000000000000000000000100000 z
b00000000000000000000000000100000 |
b00000000000000000000000000011100 }
b00000000000000000000000000100000 !"
b00000000000000000000000000011100 ,"
b00000000000000000000000000011100 /"
b00000000000000000000000000011100 1"
b00000000000000000000000000100000 4"
16"
1>"
b00011100 D"
b00000000000000000000000000011100 E"
#70000000
0!
bXX000X0000X00X0000X0XX00X00XXX00 #
0(
bXX000X0000X00X0000X0XX00X00XXX00 )
0s
06"
0>"
#75000000
1!
bXX000X0000X00X0000X0XX00X0X00000 #
1(
bXX000X0000X00X0000X0XX00X0X00000 )
b00000000000000000000000000100000 .
b00000000000000000000000000100100 >
b00000000000000000000000000100000 @
b00000000000000000000000000100000 A
b00000000000000000000000000100100 B
b00000000000000000000000000100000 G
b0100000 I
b0100000 S
b00000000000000000000000000100000 ]
b00100000 e
b00000000000000000000000000100100 q
1s
b00000000000000000000000000100000 t
b00000000000000000000000000100000 u
b00000000000000000000000000100000 w
b00000000000000000000000000100000 x
b00000000000000000000000000100100 y
b00000000000000000000000000100100 z
b00000000000000000000000000100100 |
b00000000000000000000000000100000 }
b00000000000000000000000000100100 !"
b00000000000000000000000000100000 ,"
b00000000000000000000000000100000 /"
b00000000000000000000000000100000 1"
b00000000000000000000000000100100 4"
16"
1>"
b00100000 D"
b00000000000000000000000000100000 E"
#80000000
0!
bXX000000X0X00X0000X0000X00X00000 #
0(
bXX000000X0X00X0000X0000X00X00000 )
0s
06"
0>"
#85000000
1!
bXX000000X0X00X0000X0000X00X00X00 #
1(
bXX000000X0X00X0000X0000X00X00X00 )
b00000000000000000000000000100100 .
b00000000000000000000000000101000 >
b00000000000000000000000000100100 @
b00000000000000000000000000100100 A
b00000000000000000000000000101000 B
b00000000000000000000000000100100 G
b0100100 I
b0100100 S
b00000000000000000000000000100100 ]
b00100100 e
b00000000000000000000000000101000 q
1s
b00000000000000000000000000100100 t
b00000000000000000000000000100100 u
b00000000000000000000000000100100 w
b00000000000000000000000000100100 x
b00000000000000000000000000101000 y
b00000000000000000000000000101000 z
b00000000000000000000000000101000 |
b00000000000000000000000000100100 }
b00000000000000000000000000101000 !"
b00000000000000000000000000100100 ,"
b00000000000000000000000000100100 /"
b00000000000000000000000000100100 1"
b00000000000000000000000000101000 4"
16"
1>"
b00100100 D"
b00000000000000000000000000100100 E"
#90000000
0!
bXX00X0000X0X000000000000XX1XX1X0 #
0(
bXX00X0000X0X000000000000XX1XX1X0 )
0s
06"
0>"
#95000000
1!
bXX00X0000X0X000000000000XX1X1XX0 #
1(
bXX00X0000X0X000000000000XX1X1XX0 )
b00000000000000000000000000101000 .
b00000000000000000000000000101100 >
b00000000000000000000000000101000 @
b00000000000000000000000000101000 A
b00000000000000000000000000101100 B
b00000000000000000000000000101000 G
b0101000 I
b0101000 S
b00000000000000000000000000101000 ]
b00101000 e
b00000000000000000000000000101100 q
1s
b00000000000000000000000000101000 t
b00000000000000000000000000101000 u
b00000000000000000000000000101000 w
b00000000000000000000000000101000 x
b00000000000000000000000000101100 y
b00000000000000000000000000101100 z
b00000000000000000000000000101100 |
b00000000000000000000000000101000 }
b00000000000000000000000000101100 !"
b00000000000000000000000000101000 ,"
b00000000000000000000000000101000 /"
b00000000000000000000000000101000 1"
b00000000000000000000000000101100 4"
16"
1>"
b00101000 D"
b00000000000000000000000000101000 E"
#100000000
0!
bXX00X00X0X0X00000000XXXXXX1XX000 #
0(
bXX00X00X0X0X00000000XXXXXX1XX000 )
0s
06"
0>"
#105000000
1!
bXX00X00X0X0X00000000XXXXXX1XXX00 #
1(
bXX00X00X0X0X00000000XXXXXX1XXX00 )
b00000000000000000000000000101100 .
b00000000000000000000000000110000 >
b00000000000000000000000000101100 @
b00000000000000000000000000101100 A
b00000000000000000000000000110000 B
b00000000000000000000000000101100 G
b0101100 I
b0101100 S
b00000000000000000000000000101100 ]
b00101100 e
b00000000000000000000000000110000 q
1s
b00000000000000000000000000101100 t
b00000000000000000000000000101100 u
b00000000000000000000000000101100 w
b00000000000000000000000000101100 x
b00000000000000000000000000110000 y
b00000000000000000000000000110000 z
b00000000000000000000000000110000 |
b00000000000000000000000000101100 }
b00000000000000000000000000110000 !"
b00000000000000000000000000101100 ,"
b00000000000000000000000000101100 /"
b00000000000000000000000000101100 1"
b00000000000000000000000000110000 4"
16"
1>"
b00101100 D"
b00000000000000000000000000101100 E"
#110000000
0!
bXX00XX00XX0XXXXX0X0X00X0X0X0XX00 #
0(
bXX00XX00XX0XXXXX0X0X00X0X0X0XX00 )
0s
06"
0>"
#115000000
1!
bXX00XX00XX0XXXXX0X0X00X0X0XX0000 #
1(
bXX00XX00XX0XXXXX0X0X00X0X0XX0000 )
b00000000000000000000000000110000 .
b00000000000000000000000000110100 >
b00000000000000000000000000110000 @
b00000000000000000000000000110000 A
b00000000000000000000000000110100 B
b00000000000000000000000000110000 G
b0110000 I
b0110000 S
b00000000000000000000000000110000 ]
b00110000 e
b00000000000000000000000000110100 q
1s
b00000000000000000000000000110000 t
b00000000000000000000000000110000 u
b00000000000000000000000000110000 w
b00000000000000000000000000110000 x
b00000000000000000000000000110100 y
b00000000000000000000000000110100 z
b00000000000000000000000000110100 |
b00000000000000000000000000110000 }
b00000000000000000000000000110100 !"
b00000000000000000000000000110000 ,"
b00000000000000000000000000110000 /"
b00000000000000000000000000110000 1"
b00000000000000000000000000110100 4"
16"
1>"
b00110000 D"
b00000000000000000000000000110000 E"
#120000000
0!
bXX00XX0XXX0X0XXX0X0X00X0X0XX0000 #
0(
bXX00XX0XXX0X0XXX0X0X00X0X0XX0000 )
0s
06"
0>"
#125000000
1!
bXX00XX0XXX0X0XXX0X0X00X0X0XX0X00 #
1(
bXX00XX0XXX0X0XXX0X0X00X0X0XX0X00 )
b00000000000000000000000000110100 .
b00000000000000000000000000111000 >
b00000000000000000000000000110100 @
b00000000000000000000000000110100 A
b00000000000000000000000000111000 B
b00000000000000000000000000110100 G
b0110100 I
b0110100 S
b00000000000000000000000000110100 ]
b00110100 e
b00000000000000000000000000111000 q
1s
b00000000000000000000000000110100 t
b00000000000000000000000000110100 u
b00000000000000000000000000110100 w
b00000000000000000000000000110100 x
b00000000000000000000000000111000 y
b00000000000000000000000000111000 z
b00000000000000000000000000111000 |
b00000000000000000000000000110100 }
b00000000000000000000000000111000 !"
b00000000000000000000000000110100 ,"
b00000000000000000000000000110100 /"
b00000000000000000000000000110100 1"
b00000000000000000000000000111000 4"
16"
1>"
b00110100 D"
b00000000000000000000000000110100 E"
#130000000
0!
bXX00XX0000XX00XX0X0X00X0X0XX0X00 #
0(
bXX00XX0000XX00XX0X0X00X0X0XX0X00 )
0s
06"
0>"
#135000000
1!
bXX00XX0000XX00XX0X0X00X0X0XXX000 #
1(
bXX00XX0000XX00XX0X0X00X0X0XXX000 )
b00000000000000000000000000111000 .
b00000000000000000000000000111100 >
b00000000000000000000000000111000 @
b00000000000000000000000000111000 A
b00000000000000000000000000111100 B
b00000000000000000000000000111000 G
b0111000 I
b0111000 S
b00000000000000000000000000111000 ]
b00111000 e
b00000000000000000000000000111100 q
1s
b00000000000000000000000000111000 t
b00000000000000000000000000111000 u
b00000000000000000000000000111000 w
b00000000000000000000000000111000 x
b00000000000000000000000000111100 y
b00000000000000000000000000111100 z
b00000000000000000000000000111100 |
b00000000000000000000000000111000 }
b00000000000000000000000000111100 !"
b00000000000000000000000000111000 ,"
b00000000000000000000000000111000 /"
b00000000000000000000000000111000 1"
b00000000000000000000000000111100 4"
16"
1>"
b00111000 D"
b00000000000000000000000000111000 E"
#140000000
0!
bXX00X000XX00X00X0X0X00X000XXX000 #
0(
bXX00X000XX00X00X0X0X00X000XXX000 )
0s
06"
0>"
#145000000
1!
bXX00X000XX00X00X0X0X00X000XXXX00 #
1(
bXX00X000XX00X00X0X0X00X000XXXX00 )
b00000000000000000000000000111100 .
b00000000000000000000000001000000 >
b00000000000000000000000000111100 @
b00000000000000000000000000111100 A
b00000000000000000000000001000000 B
b00000000000000000000000000111100 G
b0111100 I
b0111100 S
b00000000000000000000000000111100 ]
b00111100 e
b00000000000000000000000001000000 q
1s
b00000000000000000000000000111100 t
b00000000000000000000000000111100 u
b00000000000000000000000000111100 w
b00000000000000000000000000111100 x
b00000000000000000000000001000000 y
b00000000000000000000000001000000 z
b00000000000000000000000001000000 |
b00000000000000000000000000111100 }
b00000000000000000000000001000000 !"
b00000000000000000000000000111100 ,"
b00000000000000000000000000111100 /"
b00000000000000000000000000111100 1"
b00000000000000000000000001000000 4"
16"
1>"
b00111100 D"
b00000000000000000000000000111100 E"
#150000000
0!
bXXX0XX0XXX00000000000000XX1111XX #
0(
bXXX0XX0XXX00000000000000XX1111XX )
0s
06"
0>"
#155000000
1!
bXXX0XX0XXX00000000000000X1XXXXXX #
1(
bXXX0XX0XXX00000000000000X1XXXXXX )
b00000000000000000000000001000000 .
b00000000000000000000000001000100 >
b00000000000000000000000001000000 @
b00000000000000000000000001000000 A
b00000000000000000000000001000100 B
b00000000000000000000000001000000 G
b1000000 I
b1000000 S
b00000000000000000000000001000000 ]
b01000000 e
b00000000000000000000000001000100 q
1s
b00000000000000000000000001000000 t
b00000000000000000000000001000000 u
b00000000000000000000000001000000 w
b00000000000000000000000001000000 x
b00000000000000000000000001000100 y
b00000000000000000000000001000100 z
b00000000000000000000000001000100 |
b00000000000000000000000001000000 }
b00000000000000000000000001000100 !"
b00000000000000000000000001000000 ,"
b00000000000000000000000001000000 /"
b00000000000000000000000001000000 1"
b00000000000000000000000001000100 4"
16"
1>"
b01000000 D"
b00000000000000000000000001000000 E"
#160000000
0!
bXX00X0000XXXX0XXXX0000X00X000000 #
0(
bXX00X0000XXXX0XXXX0000X00X000000 )
0s
06"
0>"
#165000000
1!
bXX00X0000XXXX0XXXX0000X00X000X00 #
1(
bXX00X0000XXXX0XXXX0000X00X000X00 )
b00000000000000000000000001000100 .
b00000000000000000000000001001000 >
b00000000000000000000000001000100 @
b00000000000000000000000001000100 A
b00000000000000000000000001001000 B
b00000000000000000000000001000100 G
b1000100 I
b1000100 S
b00000000000000000000000001000100 ]
b01000100 e
b00000000000000000000000001001000 q
1s
b00000000000000000000000001000100 t
b00000000000000000000000001000100 u
b00000000000000000000000001000100 w
b00000000000000000000000001000100 x
b00000000000000000000000001001000 y
b00000000000000000000000001001000 z
b00000000000000000000000001001000 |
b00000000000000000000000001000100 }
b00000000000000000000000001001000 !"
b00000000000000000000000001000100 ,"
b00000000000000000000000001000100 /"
b00000000000000000000000001000100 1"
b00000000000000000000000001001000 4"
16"
1>"
b01000100 D"
b00000000000000000000000001000100 E"
#170000000
0!
bXX00X00X0XXXX0XXXX0000X00X000XX0 #
0(
bXX00X00X0XXXX0XXXX0000X00X000XX0 )
0s
06"
0>"
#175000000
1!
bXX00X00X0XXXX0XXXX0000X00X00X0X0 #
1(
bXX00X00X0XXXX0XXXX0000X00X00X0X0 )
b00000000000000000000000001001000 .
b00000000000000000000000001001100 >
b00000000000000000000000001001000 @
b00000000000000000000000001001000 A
b00000000000000000000000001001100 B
b00000000000000000000000001001000 G
b1001000 I
b1001000 S
b00000000000000000000000001001000 ]
b01001000 e
b00000000000000000000000001001100 q
1s
b00000000000000000000000001001000 t
b00000000000000000000000001001000 u
b00000000000000000000000001001000 w
b00000000000000000000000001001000 x
b00000000000000000000000001001100 y
b00000000000000000000000001001100 z
b00000000000000000000000001001100 |
b00000000000000000000000001001000 }
b00000000000000000000000001001100 !"
b00000000000000000000000001001000 ,"
b00000000000000000000000001001000 /"
b00000000000000000000000001001000 1"
b00000000000000000000000001001100 4"
16"
1>"
b01001000 D"
b00000000000000000000000001001000 E"
#180000000
0!
bXX00XX0000X00X0X0X000XX00X00X000 #
0(
bXX00XX0000X00X0X0X000XX00X00X000 )
0s
06"
0>"
