RISC-V-Uniciclo/src/testbench_waveform.vcd
$date
  Sat Dec 16 16:39:38 2023
$end
$version
  GHDL v0
$end
$timescale
  1 fs
$end
$scope module standard $end
$upscope $end
$scope module textio $end
$upscope $end
$scope module std_logic_1164 $end
$upscope $end
$scope module numeric_std $end
$upscope $end
$scope module testbench_rv32_processor $end
$var reg 1 ! test_finished $end
$var reg 1 " clock $end
$var reg 32 # instruction[31:0] $end
$var reg 32 $ rs1[31:0] $end
$var reg 32 % rs2[31:0] $end
$var reg 32 & rd[31:0] $end
$var reg 32 ' immediate[31:0] $end
$scope module uut $end
$var reg 1 ( clock $end
$var reg 32 ) instruction[31:0] $end
$var reg 32 * rs1[31:0] $end
$var reg 32 + rs2[31:0] $end
$var reg 32 , rd[31:0] $end
$var reg 32 - immediate[31:0] $end
$var reg 32 . instruction_signal[31:0] $end
$var reg 32 / immout_signal[31:0] $end
$var reg 32 0 ain_signal[31:0] $end
$var reg 32 1 bin_signal[31:0] $end
$var reg 32 2 zout_signal[31:0] $end
$var reg 1 3 zeroout_signal $end
$var reg 2 4 aluop_signal[1:0] $end
$var reg 4 5 aluopout_signal[3:0] $end
$var reg 1 6 branch_signal $end
$var reg 1 7 memtoreg_signal $end
$var reg 1 8 memread_signal $end
$var reg 1 9 memwrite_signal $end
$var reg 1 : auipc_signal $end
$var reg 1 ; alusrc_signal $end
$var reg 1 < jal_signal $end
$var reg 1 = regwrite_signal $end
$var reg 32 > addr_in_signal[31:0] $end
$var reg 1 ? rst_signal $end
$var reg 32 @ addr_out_signal[31:0] $end
$var reg 32 A adderout_signal[31:0] $end
$var reg 32 B adder4out_signal[31:0] $end
$var reg 32 C write_data_signal[31:0] $end
$var reg 32 D rs1_signal[31:0] $end
$var reg 32 E rs2_signal[31:0] $end
$var reg 32 F data_out_signal[31:0] $end
$var reg 32 G adder_in1_signal[31:0] $end
$var reg 32 H write_or_jal_signal[31:0] $end
$scope module control_inst01 $end
$var reg 7 I op[6:0] $end
$var reg 1 J branch $end
$var reg 1 K memread $end
$var reg 1 L memtoreg $end
$var reg 1 M auipc $end
$var reg 1 N jal $end
$var reg 2 O aluop[1:0] $end
$var reg 1 P memwrite $end
$var reg 1 Q alusrc $end
$var reg 1 R regwrite $end
$var reg 7 S op_signal[6:0] $end
$var reg 1 T branch_signal $end
$var reg 1 U memread_signal $end
$var reg 1 V memtoreg_signal $end
$var reg 2 W aluop_signal[1:0] $end
$var reg 1 X memwrite_signal $end
$var reg 1 Y alusrc_signal $end
$var reg 1 Z auipc_signal $end
$var reg 1 [ jal_signal $end
$var reg 1 \ regwrite_signal $end
$upscope $end
$scope module genimm_inst02 $end
$var reg 32 ] instruction[31:0] $end
$var reg 32 ^ immediate[31:0] $end
$var reg 32 _ i_type[31:0] $end
$var reg 32 ` s_type[31:0] $end
$var reg 32 a sb_type[31:0] $end
$var reg 32 b uj_type[31:0] $end
$var reg 32 c u_type[31:0] $end
$var reg 3 d selector[2:0] $end
$scope module mux_inst $end
$var reg 32 e a[31:0] $end
$var reg 32 f b[31:0] $end
$var reg 32 g c[31:0] $end
$var reg 32 h d[31:0] $end
$var reg 32 i e[31:0] $end
$var reg 32 j f[31:0] $end
$var reg 32 k g[31:0] $end
$var reg 32 l h[31:0] $end
$var reg 3 m sel[2:0] $end
$var reg 32 n result[31:0] $end
$upscope $end
$upscope $end
$scope module alu_inst03 $end
$var reg 4 o opcode[3:0] $end
$var reg 32 p a[31:0] $end
$var reg 32 q b[31:0] $end
$var reg 32 r z[31:0] $end
$var reg 1 s zero $end
$upscope $end
$scope module control_alu_inst04 $end
$var reg 2 t ulaop[1:0] $end
$var reg 1 u funct7 $end
$var reg 1 v auipcin $end
$var reg 3 w funct3[2:0] $end
$var reg 4 x opout[3:0] $end
$upscope $end
$scope module pc_inst05 $end
$var reg 32 y addr_in[31:0] $end
$var reg 1 z rst $end
$var reg 1 { clk $end
$var reg 32 | addr_out[31:0] $end
$upscope $end
$scope module adder_inst06 $end
$var reg 32 } a[31:0] $end
$var reg 32 !" b[31:0] $end
$var reg 32 "" z[31:0] $end
$upscope $end
$scope module adder4_inst07 $end
$var reg 32 #" a[31:0] $end
$var reg 32 $" z[31:0] $end
$upscope $end
$scope module muxa_inst08 $end
$var reg 1 %" sel $end
$var reg 32 &" a[31:0] $end
$var reg 32 '" b[31:0] $end
$var reg 32 (" result[31:0] $end
$upscope $end
$scope module muxb_inst09 $end
$var reg 1 )" sel $end
$var reg 32 *" a[31:0] $end
$var reg 32 +" b[31:0] $end
$var reg 32 ," result[31:0] $end
$upscope $end
$scope module muxc_inst10 $end
$var reg 1 -" sel $end
$var reg 32 ." a[31:0] $end
$var reg 32 /" b[31:0] $end
$var reg 32 0" result[31:0] $end
$upscope $end
$scope module muxd_inst11 $end
$var reg 1 1" sel $end
$var reg 32 2" a[31:0] $end
$var reg 32 3" b[31:0] $end
$var reg 32 4" result[31:0] $end
$upscope $end
$scope module muxg_inst14 $end
$var reg 1 5" sel $end
$var reg 32 6" a[31:0] $end
$var reg 32 7" b[31:0] $end
$var reg 32 8" result[31:0] $end
$upscope $end
$scope module muxh_inst15 $end
$var reg 1 9" sel $end
$var reg 32 :" a[31:0] $end
$var reg 32 ;" b[31:0] $end
$var reg 32 <" result[31:0] $end
$upscope $end
$scope module mem_reg_inst16 $end
$var reg 1 =" clk $end
$var reg 1 >" wren $end
$var reg 5 ?" rs1[4:0] $end
$var reg 5 @" rs2[4:0] $end
$var reg 5 A" rd[4:0] $end
$var reg 32 B" data[31:0] $end
$var reg 32 C" ro1[31:0] $end
$var reg 32 D" ro2[31:0] $end
$var integer 32 E" address1_signal $end
$var integer 32 F" address2_signal $end
$var integer 32 G" write_address_signal $end
$comment breg is not handled $end
$upscope $end
$scope module mem_data_inst17 $end
$var reg 1 H" clock $end
$var reg 1 I" we $end
$var reg 1 J" re $end
$var reg 12 K" address[11:0] $end
$var reg 32 L" datain[31:0] $end
$var reg 32 M" dataout[31:0] $end
$var integer 32 N" address_signal $end
$comment newramsignal is not handled $end
$upscope $end
$scope module mem_instr_inst18 $end
$var reg 12 O" address[11:0] $end
$var reg 32 P" dataout[31:0] $end
$var integer 32 Q" address_signal $end
$comment newromsignal is not handled $end
$upscope $end
$upscope $end
$upscope $end
$enddefinitions $end
#0
0!
0"
b00001111111100000110001010010011 #
b00000000000000000000000000000000 $
b00000000000000000000000000000000 %
b00000000000000000000000011111111 &
b00000000000000000000000011111111 '
0(
b00001111111100000110001010010011 )
b00000000000000000000000000000000 *
b00000000000000000000000000000000 +
b00000000000000000000000011111111 ,
b00000000000000000000000011111111 -
b00001111111100000110001010010011 .
b00000000000000000000000011111111 /
b00000000000000000000000000000000 0
b00000000000000000000000011111111 1
b00000000000000000000000011111111 2
03
b01 4
b0011 5
06
07
08
09
0:
1;
0<
1=
b00000000000000000000000000000100 >
0?
b00000000000000000000000000000000 @
b00000000000000000000000011111111 A
b00000000000000000000000000000100 B
b00000000000000000000000011111111 C
b00000000000000000000000000000000 D
b00000000000000000000000000000000 E
b00000000000000000000000000000000 F
b00000000000000000000000000000000 G
b00000000000000000000000011111111 H
b0010011 I
0J
0K
0L
0M
0N
b01 O
0P
1Q
1R
b0010011 S
0T
0U
0V
b01 W
0X
1Y
0Z
0[
1\
b00001111111100000110001010010011 ]
b00000000000000000000000011111111 ^
b00000000000000000000000011111111 _
b00000000000000000000000011100101 `
b00000000000000000000100011100100 a
b00000000000000000110100011111110 b
b00001111111100000110000000000000 c
b000 d
b00000000000000000000000011111111 e
b00000000000000000000000011100101 f
b00000000000000000000100011100100 g
b00001111111100000110000000000000 h
b00000000000000000110100011111110 i
b00000000000000000000000000000000 j
b00000000000000000000000000000000 k
b00000000000000000000000000000000 l
b000 m
b00000000000000000000000011111111 n
b0011 o
b00000000000000000000000000000000 p
b00000000000000000000000011111111 q
b00000000000000000000000011111111 r
0s
b01 t
0u
0v
b110 w
b0011 x
b00000000000000000000000000000100 y
0z
0{
b00000000000000000000000000000000 |
b00000000000000000000000000000000 }
b00000000000000000000000011111111 !"
b00000000000000000000000011111111 ""
b00000000000000000000000000000000 #"
b00000000000000000000000000000100 $"
0%"
b00000000000000000000000000000100 &"
b00000000000000000000000011111111 '"
b00000000000000000000000000000100 ("
1)"
b00000000000000000000000000000000 *"
b00000000000000000000000011111111 +"
b00000000000000000000000011111111 ,"
0-"
b00000000000000000000000011111111 ."
b00000000000000000000000000000000 /"
b00000000000000000000000011111111 0"
01"
b00000000000000000000000000000000 2"
b00000000000000000000000000000000 3"
b00000000000000000000000000000000 4"
05"
b00000000000000000000000000000000 6"
b00000000000000000000000000000000 7"
b00000000000000000000000000000000 8"
09"
b00000000000000000000000011111111 :"
b00000000000000000000000000000100 ;"
b00000000000000000000000011111111 <"
0="
1>"
b00000 ?"
b11111 @"
b00101 A"
b00000000000000000000000011111111 B"
b00000000000000000000000000000000 C"
b00000000000000000000000000000000 D"
b0 E"
b11111 F"
b101 G"
0H"
0I"
0J"
b000011111111 K"
b00000000000000000000000000000000 L"
b00000000000000000000000000000000 M"
b111111 N"
b000000000000 O"
b00001111111100000110001010010011 P"
b0 Q"
#5000000
1"
b00001111000000101111001010010011 #
b00000000000000000000000011111111 $
b00000000000000000000000011110000 &
b00000000000000000000000011110000 '
1(
b00001111000000101111001010010011 )
b00000000000000000000000011111111 *
b00000000000000000000000011110000 ,
b00000000000000000000000011110000 -
b00001111000000101111001010010011 .
b00000000000000000000000011110000 /
b00000000000000000000000011111111 0
b00000000000000000000000011110000 1
b00000000000000000000000011110000 2
b0010 5
b00000000000000000000000000001000 >
b00000000000000000000000000000100 @
b00000000000000000000000011110100 A
b00000000000000000000000000001000 B
b00000000000000000000000011110000 C
b00000000000000000000000011111111 D
b00000000000000000000000000000100 G
b00000000000000000000000011110000 H
b00001111000000101111001010010011 ]
b00000000000000000000000011110000 ^
b00000000000000000000000011110000 _
b00000000000000101111000011110000 b
b00001111000000101111000000000000 c
b00000000000000000000000011110000 e
b00001111000000101111000000000000 h
b00000000000000101111000011110000 i
b00000000000000000000000011110000 n
b0010 o
b00000000000000000000000011111111 p
b00000000000000000000000011110000 q
b00000000000000000000000011110000 r
b111 w
b0010 x
b00000000000000000000000000001000 y
1{
b00000000000000000000000000000100 |
b00000000000000000000000000000100 }
b00000000000000000000000011110000 !"
b00000000000000000000000011110100 ""
b00000000000000000000000000000100 #"
b00000000000000000000000000001000 $"
b00000000000000000000000000001000 &"
b00000000000000000000000011110100 '"
b00000000000000000000000000001000 ("
b00000000000000000000000011110000 +"
b00000000000000000000000011110000 ,"
b00000000000000000000000011110000 ."
b00000000000000000000000011110000 0"
b00000000000000000000000011111111 2"
b00000000000000000000000000000100 3"
b00000000000000000000000011111111 4"
b00000000000000000000000000000100 6"
b00000000000000000000000011111111 7"
b00000000000000000000000000000100 8"
b00000000000000000000000011110000 :"
b00000000000000000000000000001000 ;"
b00000000000000000000000011110000 <"
1="
b00101 ?"
b10000 @"
b00000000000000000000000011110000 B"
b00000000000000000000000011111111 C"
b101 E"
b10000 F"
1H"
b000011110000 K"
b111100 N"
b000000000100 O"
b00001111000000101111001010010011 P"
b1 Q"
#10000000
0"
0(
0{
0="
0H"
#15000000
1"
b00000000000000000010010000110111 #
b00000000000000000000000000000000 $
b00000000000000000000000000000000 &
b00000000000000000000000000000000 '
1(
b00000000000000000010010000110111 )
b00000000000000000000000000000000 *
b00000000000000000000000000000000 ,
b00000000000000000000000000000000 -
b00000000000000000010010000110111 .
b00000000000000000000000000000000 /
b00000000000000000000000000000000 0
b00000000000000000000000000000000 1
b00000000000000000000000000000000 2
b11 4
b1110 5
b00000000000000000000000000001100 >
b00000000000000000000000000001000 @
b00000000000000000000000000001000 A
b00000000000000000000000000001100 B
b00000000000000000000000000000000 C
b00000000000000000000000000000000 D
b00000000000000000000000000001000 G
b00000000000000000000000000000000 H
b0110111 I
b11 O
b0110111 S
b11 W
b00000000000000000010010000110111 ]
b00000000000000000000000000000000 ^
b00000000000000000000000000000000 _
b00000000000000000000000000001000 `
b00000000000000000000000000001000 a
b00000000000000000010000000000000 b
b00000000000000000010000000000000 c
b00000000000000000000000000000000 e
b00000000000000000000000000001000 f
b00000000000000000000000000001000 g
b00000000000000000010000000000000 h
b00000000000000000010000000000000 i
b00000000000000000000000000000000 n
b1110 o
b00000000000000000000000000000000 p
b00000000000000000000000000000000 q
b00000000000000000000000000000000 r
b11 t
b010 w
b1110 x
b00000000000000000000000000001100 y
1{
b00000000000000000000000000001000 |
b00000000000000000000000000001000 }
b00000000000000000000000000000000 !"
b00000000000000000000000000001000 ""
b00000000000000000000000000001000 #"
b00000000000000000000000000001100 $"
b00000000000000000000000000001100 &"
b00000000000000000000000000001000 '"
b00000000000000000000000000001100 ("
b00000000000000000000000000000000 +"
b00000000000000000000000000000000 ,"
b00000000000000000000000000000000 ."
b00000000000000000000000000000000 0"
b00000000000000000000000000000000 2"
b00000000000000000000000000001000 3"
b00000000000000000000000000000000 4"
b00000000000000000000000000001000 6"
b00000000000000000000000000000000 7"
b00000000000000000000000000001000 8"
b00000000000000000000000000000000 :"
b00000000000000000000000000001100 ;"
b00000000000000000000000000000000 <"
1="
b00000 ?"
b00000 @"
b01000 A"
b00000000000000000000000000000000 B"
b00000000000000000000000000000000 C"
b0 E"
b0 F"
b1000 G"
1H"
b000000000000 K"
b0 N"
b000000001000 O"
b00000000000000000010010000110111 P"
b10 Q"
#20000000
0"
0(
0{
0="
0H"
#25000000
1"
b00000000000000000010111100010111 #
b00000000000000000000000000001100 &
1(
b00000000000000000010111100010111 )
b00000000000000000000000000001100 ,
b00000000000000000010111100010111 .
b00000000000000000000000000001100 0
b00000000000000000000000000001100 2
b1111 5
1:
b00000000000000000000000000010000 >
b00000000000000000000000000001100 @
b00000000000000000000000000001100 A
b00000000000000000000000000010000 B
b00000000000000000000000000001100 C
b00000000000000000000000000001100 G
b00000000000000000000000000001100 H
b0010111 I
1M
b0010111 S
1Z
b00000000000000000010111100010111 ]
b00000000000000000000000000011110 `
b00000000000000000000000000011110 a
b00000000000000000000000000011110 f
b00000000000000000000000000011110 g
b1111 o
b00000000000000000000000000001100 p
b00000000000000000000000000001100 r
1v
b1111 x
b00000000000000000000000000010000 y
1{
b00000000000000000000000000001100 |
b00000000000000000000000000001100 }
b00000000000000000000000000001100 ""
b00000000000000000000000000001100 #"
b00000000000000000000000000010000 $"
b00000000000000000000000000010000 &"
b00000000000000000000000000001100 '"
b00000000000000000000000000010000 ("
b00000000000000000000000000001100 ."
b00000000000000000000000000001100 0"
11"
b00000000000000000000000000001100 3"
b00000000000000000000000000001100 4"
b00000000000000000000000000001100 6"
b00000000000000000000000000001100 8"
b00000000000000000000000000001100 :"
b00000000000000000000000000010000 ;"
b00000000000000000000000000001100 <"
1="
b11110 A"
b00000000000000000000000000001100 B"
b11110 G"
1H"
b000000001100 K"
b11 N"
b000000001100 O"
b00000000000000000010111100010111 P"
b11 Q"
#30000000
0"
0(
0{
0="
0H"
#35000000
1"
b00000000000001000010010010000011 #
b00000000000000000000000000001111 &
1(
b00000000000001000010010010000011 )
b00000000000000000000000000001111 ,
b00000000000001000010010010000011 .
b00000000000000000000000000000000 0
b00000000000000000000000000000000 2
b1110 5
17
18
0:
b00000000000000000000000000010100 >
b00000000000000000000000000010000 @
b00000000000000000000000000010000 A
b00000000000000000000000000010100 B
b00000000000000000000000000001111 C
b00000000000000000000000000001111 F
b00000000000000000000000000010000 G
b00000000000000000000000000001111 H
b0000011 I
1K
1L
0M
b0000011 S
1U
1V
0Z
b00000000000001000010010010000011 ]
b00000000000000000000000000001001 `
b00000000000000000000100000001000 a
b00000000000001000010000000000000 b
b00000000000001000010000000000000 c
b00000000000000000000000000001001 f
b00000000000000000000100000001000 g
b00000000000001000010000000000000 h
b00000000000001000010000000000000 i
b1110 o
b00000000000000000000000000000000 p
b00000000000000000000000000000000 r
0v
b1110 x
b00000000000000000000000000010100 y
1{
b00000000000000000000000000010000 |
b00000000000000000000000000010000 }
b00000000000000000000000000010000 ""
b00000000000000000000000000010000 #"
b00000000000000000000000000010100 $"
b00000000000000000000000000010100 &"
b00000000000000000000000000010000 '"
b00000000000000000000000000010100 ("
1-"
b00000000000000000000000000000000 ."
b00000000000000000000000000001111 /"
b00000000000000000000000000001111 0"
01"
b00000000000000000000000000010000 3"
b00000000000000000000000000000000 4"
b00000000000000000000000000010000 6"
b00000000000000000000000000010000 8"
b00000000000000000000000000001111 :"
b00000000000000000000000000010100 ;"
b00000000000000000000000000001111 <"
1="
b01000 ?"
b01001 A"
b00000000000000000000000000001111 B"
b1000 E"
b1001 G"
1H"
1J"
b000000000000 K"
b00000000000000000000000000001111 M"
b0 N"
b000000010000 O"
b00000000000001000010010010000011 P"
b100 Q"
#40000000
0"
0(
0{
0="
0H"
#45000000
1"
b00000000010001000010100100000011 #
b00000000000000000000000000111111 &
b00000000000000000000000000000100 '
1(
b00000000010001000010100100000011 )
b00000000000000000000000000111111 ,
b00000000000000000000000000000100 -
b00000000010001000010100100000011 .
b00000000000000000000000000000100 /
b00000000000000000000000000000100 1
b00000000000000000000000000000100 2
b00000000000000000000000000011000 >
b00000000000000000000000000010100 @
b00000000000000000000000000011000 A
b00000000000000000000000000011000 B
b00000000000000000000000000111111 C
b00000000000000000000000000111111 F
b00000000000000000000000000010100 G
b00000000000000000000000000111111 H
b00000000010001000010100100000011 ]
b00000000000000000000000000000100 ^
b00000000000000000000000000000100 _
b00000000000000000000000000010010 `
b00000000000000000000000000010010 a
b00000000000001000010000000000100 b
b00000000010001000010000000000000 c
b00000000000000000000000000000100 e
b00000000000000000000000000010010 f
b00000000000000000000000000010010 g
b00000000010001000010000000000000 h
b00000000000001000010000000000100 i
b00000000000000000000000000000100 n
b00000000000000000000000000000100 q
b00000000000000000000000000000100 r
b00000000000000000000000000011000 y
1{
b00000000000000000000000000010100 |
b00000000000000000000000000010100 }
b00000000000000000000000000000100 !"
b00000000000000000000000000011000 ""
b00000000000000000000000000010100 #"
b00000000000000000000000000011000 $"
b00000000000000000000000000011000 &"
b00000000000000000000000000011000 '"
b00000000000000000000000000011000 ("
b00000000000000000000000000000100 +"
b00000000000000000000000000000100 ,"
b00000000000000000000000000000100 ."
b00000000000000000000000000111111 /"
b00000000000000000000000000111111 0"
b00000000000000000000000000010100 3"
b00000000000000000000000000010100 6"
b00000000000000000000000000010100 8"
b00000000000000000000000000111111 :"
b00000000000000000000000000011000 ;"
b00000000000000000000000000111111 <"
1="
b00100 @"
b10010 A"
b00000000000000000000000000111111 B"
b100 F"
b10010 G"
1H"
b000000000100 K"
b00000000000000000000000000111111 M"
b1 N"
b000000010100 O"
b00000000010001000010100100000011 P"
b101 Q"
#50000000
0"
0(
0{
0="
0H"
#55000000
1"
b00000001001001001000100110110011 #
b00000000000000000000000000001111 $
b00000000000000000000000000111111 %
b00000000000000000000000001001110 &
b00000000000000000000000000010010 '
1(
b00000001001001001000100110110011 )
b00000000000000000000000000001111 *
b00000000000000000000000000111111 +
b00000000000000000000000001001110 ,
b00000000000000000000000000010010 -
b00000001001001001000100110110011 .
b00000000000000000000000000010010 /
b00000000000000000000000000001111 0
b00000000000000000000000000111111 1
b00000000000000000000000001001110 2
b00 4
b0000 5
07
08
0;
b00000000000000000000000000011100 >
b00000000000000000000000000011000 @
b00000000000000000000000000101010 A
b00000000000000000000000000011100 B
b00000000000000000000000001001110 C
b00000000000000000000000000001111 D
b00000000000000000000000000111111 E
b00000000000000000000000000000000 F
b00000000000000000000000000011000 G
b00000000000000000000000001001110 H
b0110011 I
0K
0L
b00 O
0Q
b0110011 S
0U
0V
b00 W
0Y
b00000001001001001000100110110011 ]
b00000000000000000000000000010010 ^
b00000000000000000000000000010010 _
b00000000000000000000000000010011 `
b00000000000000000000100000010010 a
b00000000000001001000000000010010 b
b00000001001001001000000000000000 c
b00000000000000000000000000010010 e
b00000000000000000000000000010011 f
b00000000000000000000100000010010 g
b00000001001001001000000000000000 h
b00000000000001001000000000010010 i
b00000000000000000000000000010010 n
b0000 o
b00000000000000000000000000001111 p
b00000000000000000000000000111111 q
b00000000000000000000000001001110 r
b00 t
b000 w
b0000 x
b00000000000000000000000000011100 y
1{
b00000000000000000000000000011000 |
b00000000000000000000000000011000 }
b00000000000000000000000000010010 !"
b00000000000000000000000000101010 ""
b00000000000000000000000000011000 #"
b00000000000000000000000000011100 $"
b00000000000000000000000000011100 &"
b00000000000000000000000000101010 '"
b00000000000000000000000000011100 ("
0)"
b00000000000000000000000000111111 *"
b00000000000000000000000000010010 +"
b00000000000000000000000000111111 ,"
0-"
b00000000000000000000000001001110 ."
b00000000000000000000000000000000 /"
b00000000000000000000000001001110 0"
b00000000000000000000000000001111 2"
b00000000000000000000000000011000 3"
b00000000000000000000000000001111 4"
b00000000000000000000000000011000 6"
b00000000000000000000000000001111 7"
b00000000000000000000000000011000 8"
b00000000000000000000000001001110 :"
b00000000000000000000000000011100 ;"
b00000000000000000000000001001110 <"
1="
b01001 ?"
b10010 @"
b10011 A"
b00000000000000000000000001001110 B"
b00000000000000000000000000001111 C"
b00000000000000000000000000111111 D"
b1001 E"
b10010 F"
b10011 G"
1H"
0J"
b000001001110 K"
b00000000000000000000000000111111 L"
b00000000000000000000000000000000 M"
b10011 N"
b000000011000 O"
b00000001001001001000100110110011 P"
b110 Q"
#60000000
0"
0(
0{
0="
0H"
#65000000
1"
b00000001001101000010010000100011 #
b00000000000000000000000000000000 $
b00000000000000000000000001001110 %
b00000000000000000000000000010011 &
b00000000000000000000000000010011 '
1(
b00000001001101000010010000100011 )
b00000000000000000000000000000000 *
b00000000000000000000000001001110 +
b00000000000000000000000000010011 ,
b00000000000000000000000000010011 -
b00000001001101000010010000100011 .
b00000000000000000000000000010011 /
b00000000000000000000000000000000 0
b00000000000000000000000000010011 1
b00000000000000000000000000010011 2
03
b11 4
b1110 5
19
1;
0=
b00000000000000000000000000100000 >
b00000000000000000000000000011100 @
b00000000000000000000000000101111 A
b00000000000000000000000000100000 B
b00000000000000000000000000010011 C
b00000000000000000000000000000000 D
b00000000000000000000000001001110 E
b00000000000000000000000000011100 G
b00000000000000000000000000010011 H
b0100011 I
b11 O
1P
1Q
0R
b0100011 S
b11 W
1X
1Y
0\
b00000001001101000010010000100011 ]
b00000000000000000000000000010011 ^
b00000000000000000000000000010011 _
b00000000000000000000000000001000 `
b00000000000000000000000000001000 a
b00000000000001000010100000010010 b
b00000001001101000010000000000000 c
b00000000000000000000000000010011 e
b00000000000000000000000000001000 f
b00000000000000000000000000001000 g
b00000001001101000010000000000000 h
b00000000000001000010100000010010 i
b00000000000000000000000000010011 n
b1110 o
b00000000000000000000000000000000 p
b00000000000000000000000000010011 q
b00000000000000000000000000010011 r
0s
b11 t
b010 w
b1110 x
b00000000000000000000000000100000 y
1{
b00000000000000000000000000011100 |
b00000000000000000000000000011100 }
b00000000000000000000000000010011 !"
b00000000000000000000000000101111 ""
b00000000000000000000000000011100 #"
b00000000000000000000000000100000 $"
b00000000000000000000000000100000 &"
b00000000000000000000000000101111 '"
b00000000000000000000000000100000 ("
1)"
b00000000000000000000000001001110 *"
b00000000000000000000000000010011 +"
b00000000000000000000000000010011 ,"
b00000000000000000000000000010011 ."
b00000000000000000000000000010011 0"
b00000000000000000000000000000000 2"
b00000000000000000000000000011100 3"
b00000000000000000000000000000000 4"
b00000000000000000000000000011100 6"
b00000000000000000000000000000000 7"
b00000000000000000000000000011100 8"
b00000000000000000000000000010011 :"
b00000000000000000000000000100000 ;"
b00000000000000000000000000010011 <"
1="
0>"
b01000 ?"
b10011 @"
b01000 A"
b00000000000000000000000000010011 B"
b00000000000000000000000000000000 C"
b00000000000000000000000001001110 D"
b1000 E"
b10011 F"
b1000 G"
1H"
1I"
b000000010011 K"
b00000000000000000000000001001110 L"
b100 N"
b000000011100 O"
b00000001001101000010010000100011 P"
b111 Q"
#70000000
0"
0(
0{
0="
0H"
#75000000
1"
b00000000100001000010010100000011 #
b00000000000000000000000000000000 %
b00000000000000000000000000000000 &
b00000000000000000000000000001000 '
1(
b00000000100001000010010100000011 )
b00000000000000000000000000000000 +
b00000000000000000000000000000000 ,
b00000000000000000000000000001000 -
b00000000100001000010010100000011 .
b00000000000000000000000000001000 /
b00000000000000000000000000001000 1
b00000000000000000000000000001000 2
17
18
09
1=
b00000000000000000000000000100100 >
b00000000000000000000000000100000 @
b00000000000000000000000000101000 A
b00000000000000000000000000100100 B
b00000000000000000000000000000000 C
b00000000000000000000000000000000 E
b00000000000000000000000000000000 F
b00000000000000000000000000100000 G
b00000000000000000000000000000000 H
b0000011 I
1K
1L
0P
1R
b0000011 S
1U
1V
0X
1\
b00000000100001000010010100000011 ]
b00000000000000000000000000001000 ^
b00000000000000000000000000001000 _
b00000000000000000000000000001010 `
b00000000000000000000000000001010 a
b00000000000001000010000000001000 b
b00000000100001000010000000000000 c
b00000000000000000000000000001000 e
b00000000000000000000000000001010 f
b00000000000000000000000000001010 g
b00000000100001000010000000000000 h
b00000000000001000010000000001000 i
b00000000000000000000000000001000 n
b00000000000000000000000000001000 q
b00000000000000000000000000001000 r
b00000000000000000000000000100100 y
1{
b00000000000000000000000000100000 |
b00000000000000000000000000100000 }
b00000000000000000000000000001000 !"
b00000000000000000000000000101000 ""
b00000000000000000000000000100000 #"
b00000000000000000000000000100100 $"
b00000000000000000000000000100100 &"
b00000000000000000000000000101000 '"
b00000000000000000000000000100100 ("
b00000000000000000000000000000000 *"
b00000000000000000000000000001000 +"
b00000000000000000000000000001000 ,"
1-"
b00000000000000000000000000001000 ."
b00000000000000000000000000000000 /"
b00000000000000000000000000000000 0"
b00000000000000000000000000100000 3"
b00000000000000000000000000100000 6"
b00000000000000000000000000100000 8"
b00000000000000000000000000000000 :"
b00000000000000000000000000100100 ;"
b00000000000000000000000000000000 <"
1="
1>"
b01000 @"
b01010 A"
b00000000000000000000000000000000 B"
b00000000000000000000000000000000 D"
b1000 F"
b1010 G"
1H"
0I"
1J"
b000000001000 K"
b00000000000000000000000000000000 L"
b00000000000000000000000000000000 M"
b10 N"
b000000100000 O"
b00000000100001000010010100000011 P"
b1000 Q"
#80000000
0"
0(
0{
0="
0H"
#85000000
1"
b01111111000000000000101000010011 #
b00000000000000000000011111110000 &
b00000000000000000000011111110000 '
1(
b01111111000000000000101000010011 )
b00000000000000000000011111110000 ,
b00000000000000000000011111110000 -
b01111111000000000000101000010011 .
b00000000000000000000011111110000 /
b00000000000000000000011111110000 1
b00000000000000000000011111110000 2
b01 4
b0000 5
07
08
b00000000000000000000000000101000 >
b00000000000000000000000000100100 @
b00000000000000000000100000010100 A
b00000000000000000000000000101000 B
b00000000000000000000011111110000 C
b00000000000000000000000000100100 G
b00000000000000000000011111110000 H
b0010011 I
0K
0L
b01 O
b0010011 S
0U
0V
b01 W
b01111111000000000000101000010011 ]
b00000000000000000000011111110000 ^
b00000000000000000000011111110000 _
b00000000000000000000011111110100 `
b00000000000000000000011111110100 a
b00000000000000000000011111110000 b
b01111111000000000000000000000000 c
b00000000000000000000011111110000 e
b00000000000000000000011111110100 f
b00000000000000000000011111110100 g
b01111111000000000000000000000000 h
b00000000000000000000011111110000 i
b00000000000000000000011111110000 n
b0000 o
b00000000000000000000011111110000 q
b00000000000000000000011111110000 r
b01 t
1u
b000 w
b0000 x
b00000000000000000000000000101000 y
1{
b00000000000000000000000000100100 |
b00000000000000000000000000100100 }
b00000000000000000000011111110000 !"
b00000000000000000000100000010100 ""
b00000000000000000000000000100100 #"
b00000000000000000000000000101000 $"
b00000000000000000000000000101000 &"
b00000000000000000000100000010100 '"
b00000000000000000000000000101000 ("
b00000000000000000000011111110000 +"
b00000000000000000000011111110000 ,"
0-"
b00000000000000000000011111110000 ."
b00000000000000000000011111110000 0"
b00000000000000000000000000100100 3"
b00000000000000000000000000100100 6"
b00000000000000000000000000100100 8"
b00000000000000000000011111110000 :"
b00000000000000000000000000101000 ;"
b00000000000000000000011111110000 <"
1="
b00000 ?"
b10000 @"
b10100 A"
b00000000000000000000011111110000 B"
b0 E"
b10000 F"
b10100 G"
1H"
0J"
b011111110000 K"
b111111100 N"
b000000100100 O"
b01111111000000000000101000010011 P"
b1001 Q"
#90000000
0"
0(
0{
0="
0H"
