RISC-V-Uniciclo/src/testbench_waveform.vcd
$date
  Thu Dec 14 21:02:37 2023
$end
$version
  GHDL v0
$end
$timescale
  1 fs
$end
$scope module standard $end
$upscope $end
$scope module textio $end
$upscope $end
$scope module std_logic_1164 $end
$upscope $end
$scope module numeric_std $end
$upscope $end
$scope module testbench_rv32_processor $end
$var reg 1 ! clock $end
$var reg 1 " test_finished $end
$var reg 32 # instruction[31:0] $end
$var reg 32 $ rs1[31:0] $end
$var reg 32 % rs2[31:0] $end
$var reg 32 & rd[31:0] $end
$var reg 32 ' immediate[31:0] $end
$scope module uut $end
$var reg 1 ( clock $end
$var reg 32 ) instruction[31:0] $end
$var reg 32 * rs1[31:0] $end
$var reg 32 + rs2[31:0] $end
$var reg 32 , rd[31:0] $end
$var reg 32 - immediate[31:0] $end
$var reg 32 . instruction_signal[31:0] $end
$var reg 32 / immout_signal[31:0] $end
$var reg 32 0 ain_signal[31:0] $end
$var reg 32 1 bin_signal[31:0] $end
$var reg 32 2 zout_signal[31:0] $end
$var reg 1 3 zeroout_signal $end
$var reg 2 4 aluop_signal[1:0] $end
$var reg 4 5 aluopout_signal[3:0] $end
$var reg 1 6 branch_signal $end
$var reg 1 7 memtoreg_signal $end
$var reg 1 8 memread_signal $end
$var reg 1 9 memwrite_signal $end
$var reg 1 : auipc_signal $end
$var reg 1 ; alusrc_signal $end
$var reg 1 < jal_signal $end
$var reg 1 = regwrite_signal $end
$var reg 32 > addr_in_signal[31:0] $end
$var reg 1 ? rst_signal $end
$var reg 32 @ addr_out_signal[31:0] $end
$var reg 32 A adderout_signal[31:0] $end
$var reg 32 B adder4out_signal[31:0] $end
$var reg 32 C write_data_signal[31:0] $end
$var reg 32 D rs1_signal[31:0] $end
$var reg 32 E rs2_signal[31:0] $end
$var reg 32 F data_out_signal[31:0] $end
$var reg 32 G adder_in1_signal[31:0] $end
$var reg 32 H write_or_jal_signal[31:0] $end
$scope module control_inst01 $end
$var reg 7 I op[6:0] $end
$var reg 1 J branch $end
$var reg 1 K memread $end
$var reg 1 L memtoreg $end
$var reg 1 M auipc $end
$var reg 1 N jal $end
$var reg 2 O aluop[1:0] $end
$var reg 1 P memwrite $end
$var reg 1 Q alusrc $end
$var reg 1 R regwrite $end
$var reg 7 S op_signal[6:0] $end
$var reg 1 T branch_signal $end
$var reg 1 U memread_signal $end
$var reg 1 V memtoreg_signal $end
$var reg 2 W aluop_signal[1:0] $end
$var reg 1 X memwrite_signal $end
$var reg 1 Y alusrc_signal $end
$var reg 1 Z auipc_signal $end
$var reg 1 [ jal_signal $end
$var reg 1 \ regwrite_signal $end
$upscope $end
$scope module genimm_inst02 $end
$upscope $end
$scope module alu_inst03 $end
$upscope $end
$scope module control_alu_inst04 $end
$upscope $end
$scope module pc_inst05 $end
$var reg 32 ] addr_in[31:0] $end
$var reg 1 ^ rst $end
$var reg 1 _ clk $end
$var reg 32 ` addr_out[31:0] $end
$upscope $end
$scope module adder_inst06 $end
$var reg 32 a a[31:0] $end
$var reg 32 b b[31:0] $end
$var reg 32 c z[31:0] $end
$upscope $end
$scope module adder4_inst07 $end
$upscope $end
$scope module muxa_inst08 $end
$upscope $end
$scope module muxb_inst09 $end
$upscope $end
$scope module muxc_inst10 $end
$upscope $end
$scope module muxd_inst11 $end
$upscope $end
$scope module muxg_inst14 $end
$upscope $end
$scope module muxh_inst15 $end
$upscope $end
$scope module mem_reg_inst16 $end
$upscope $end
$scope module mem_data_inst17 $end
$upscope $end
$scope module mem_instr_inst18 $end
$upscope $end
$upscope $end
$upscope $end
$enddefinitions $end
#0
0!
0"
bUUUUUUUUUUUUUUUUUUUUUUUUUUUUUUUU #
bUUUUUUUUUUUUUUUUUUUUUUUUUUUUUUUU $
bUUUUUUUUUUUUUUUUUUUUUUUUUUUUUUUU %
bUUUUUUUUUUUUUUUUUUUUUUUUUUUUUUUU &
bUUUUUUUUUUUUUUUUUUUUUUUUUUUUUUUU '
0(
bUUUUUUUUUUUUUUUUUUUUUUUUUUUUUUUU )
bUUUUUUUUUUUUUUUUUUUUUUUUUUUUUUUU *
bUUUUUUUUUUUUUUUUUUUUUUUUUUUUUUUU +
bUUUUUUUUUUUUUUUUUUUUUUUUUUUUUUUU ,
bUUUUUUUUUUUUUUUUUUUUUUUUUUUUUUUU -
bUUUUUUUUUUUUUUUUUUUUUUUUUUUUUUUU .
bUUUUUUUUUUUUUUUUUUUUUUUUUUUUUUUU /
bUUUUUUUUUUUUUUUUUUUUUUUUUUUUUUUU 0
bUUUUUUUUUUUUUUUUUUUUUUUUUUUUUUUU 1
bUUUUUUUUUUUUUUUUUUUUUUUUUUUUUUUU 2
U3
b00 4
bUUUU 5
06
07
08
09
0:
0;
0<
0=
bUUUUUUUUUUUUUUUUUUUUUUUUUUUUUUUU >
0?
b00000000000000000000000000000000 @
bXXXXXXXXXXXXXXXXXXXXXXXXXXXXXXXX A
bUUUUUUUUUUUUUUUUUUUUUUUUUUUUUUUU B
bUUUUUUUUUUUUUUUUUUUUUUUUUUUUUUUU C
bUUUUUUUUUUUUUUUUUUUUUUUUUUUUUUUU D
bUUUUUUUUUUUUUUUUUUUUUUUUUUUUUUUU E
bUUUUUUUUUUUUUUUUUUUUUUUUUUUUUUUU F
bUUUUUUUUUUUUUUUUUUUUUUUUUUUUUUUU G
bUUUUUUUUUUUUUUUUUUUUUUUUUUUUUUUU H
bUUUUUUU I
0J
0K
0L
0M
0N
b00 O
0P
0Q
0R
bUUUUUUU S
0T
0U
0V
b00 W
0X
0Y
0Z
0[
0\
bUUUUUUUUUUUUUUUUUUUUUUUUUUUUUUUU ]
0^
0_
b00000000000000000000000000000000 `
bUUUUUUUUUUUUUUUUUUUUUUUUUUUUUUUU a
bUUUUUUUUUUUUUUUUUUUUUUUUUUUUUUUU b
bXXXXXXXXXXXXXXXXXXXXXXXXXXXXXXXX c
#5000000
1!
1(
bUUUUUUUUUUUUUUUUUUUUUUUUUUUUUUUU @
1_
bUUUUUUUUUUUUUUUUUUUUUUUUUUUUUUUU `
#10000000
0!
0(
bUUUUUUUUUUUUUUUUUUUUUUUUUUUUUUUU )
0_
#15000000
1!
1(
1_
#20000000
0!
0(
bUUUUUUUUUUUUUUUUUUUUUUUUUUUUUUUU )
0_
#25000000
1!
1(
1_
#30000000
0!
0(
bUUUUUUUUUUUUUUUUUUUUUUUUUUUUUUUU )
0_
#35000000
1!
1(
1_
#40000000
0!
0(
bUUUUUUUUUUUUUUUUUUUUUUUUUUUUUUUU )
0_
#45000000
1!
1(
1_
#50000000
0!
0(
bUUUUUUUUUUUUUUUUUUUUUUUUUUUUUUUU )
0_
#55000000
1!
1(
1_
#60000000
0!
0(
bUUUUUUUUUUUUUUUUUUUUUUUUUUUUUUUU )
0_
#65000000
1!
1(
1_
#70000000
0!
0(
bUUUUUUUUUUUUUUUUUUUUUUUUUUUUUUUU )
0_
#75000000
1!
1(
1_
#80000000
0!
0(
bUUUUUUUUUUUUUUUUUUUUUUUUUUUUUUUU )
0_
#85000000
1!
1(
1_
#90000000
0!
0(
bUUUUUUUUUUUUUUUUUUUUUUUUUUUUUUUU )
0_
#95000000
1!
1(
1_
#100000000
0!
0(
bUUUUUUUUUUUUUUUUUUUUUUUUUUUUUUUU )
0_
#105000000
1!
1(
1_
#110000000
0!
0(
bUUUUUUUUUUUUUUUUUUUUUUUUUUUUUUUU )
0_
#115000000
1!
1(
1_
#120000000
0!
0(
bUUUUUUUUUUUUUUUUUUUUUUUUUUUUUUUU )
0_
#125000000
1!
1(
1_
#130000000
0!
0(
bUUUUUUUUUUUUUUUUUUUUUUUUUUUUUUUU )
0_
#135000000
1!
1(
1_
#140000000
0!
0(
bUUUUUUUUUUUUUUUUUUUUUUUUUUUUUUUU )
0_
#145000000
1!
1(
1_
#150000000
0!
0(
bUUUUUUUUUUUUUUUUUUUUUUUUUUUUUUUU )
0_
#155000000
1!
1(
1_
#160000000
0!
0(
bUUUUUUUUUUUUUUUUUUUUUUUUUUUUUUUU )
0_
#165000000
1!
1(
1_
#170000000
0!
0(
bUUUUUUUUUUUUUUUUUUUUUUUUUUUUUUUU )
0_
#175000000
1!
1(
1_
#180000000
0!
0(
bUUUUUUUUUUUUUUUUUUUUUUUUUUUUUUUU )
0_
#185000000
1!
1(
1_
#190000000
0!
0(
bUUUUUUUUUUUUUUUUUUUUUUUUUUUUUUUU )
0_
#195000000
1!
1(
1_
#200000000
0!
0(
bUUUUUUUUUUUUUUUUUUUUUUUUUUUUUUUU )
0_
#205000000
1!
1(
1_
#210000000
0!
0(
bUUUUUUUUUUUUUUUUUUUUUUUUUUUUUUUU )
0_
#215000000
1!
1(
1_
#220000000
0!
0(
bUUUUUUUUUUUUUUUUUUUUUUUUUUUUUUUU )
0_
#225000000
1!
1(
1_
#230000000
0!
0(
bUUUUUUUUUUUUUUUUUUUUUUUUUUUUUUUU )
0_
#235000000
1!
1(
1_
#240000000
0!
0(
bUUUUUUUUUUUUUUUUUUUUUUUUUUUUUUUU )
0_
#245000000
1!
1(
1_
#250000000
0!
0(
bUUUUUUUUUUUUUUUUUUUUUUUUUUUUUUUU )
0_
#255000000
1!
1(
1_
#260000000
0!
0(
bUUUUUUUUUUUUUUUUUUUUUUUUUUUUUUUU )
0_
#265000000
1!
1(
1_
#270000000
0!
0(
bUUUUUUUUUUUUUUUUUUUUUUUUUUUUUUUU )
0_
#275000000
1!
1(
1_
#280000000
0!
0(
bUUUUUUUUUUUUUUUUUUUUUUUUUUUUUUUU )
0_
#285000000
1!
1(
1_
#290000000
0!
0(
bUUUUUUUUUUUUUUUUUUUUUUUUUUUUUUUU )
0_
#295000000
1!
1(
1_
#300000000
0!
0(
bUUUUUUUUUUUUUUUUUUUUUUUUUUUUUUUU )
0_
