RISC-V-Uniciclo/src/testbench_waveform.vcd
$date
  Thu Dec 21 22:35:37 2023
$end
$version
  GHDL v0
$end
$timescale
  1 fs
$end
$scope module standard $end
$upscope $end
$scope module textio $end
$upscope $end
$scope module std_logic_1164 $end
$upscope $end
$scope module numeric_std $end
$upscope $end
$scope module testbench_rv32_processor $end
$var reg 1 ! test_finished $end
$var reg 1 " clock $end
$var reg 32 # instruction[31:0] $end
$var reg 32 $ rs1[31:0] $end
$var reg 32 % rs2[31:0] $end
$var reg 32 & rd[31:0] $end
$var reg 32 ' immediate[31:0] $end
$scope module uut $end
$var reg 1 ( clock $end
$var reg 32 ) instruction[31:0] $end
$var reg 32 * rs1[31:0] $end
$var reg 32 + rs2[31:0] $end
$var reg 32 , rd[31:0] $end
$var reg 32 - immediate[31:0] $end
$var reg 32 . instruction_signal[31:0] $end
$var reg 32 / immout_signal[31:0] $end
$var reg 32 0 ain_signal[31:0] $end
$var reg 32 1 bin_signal[31:0] $end
$var reg 32 2 zout_signal[31:0] $end
$var reg 1 3 zeroout_signal $end
$var reg 1 4 branch_signal $end
$var reg 1 5 memtoreg_signal $end
$var reg 1 6 memread_signal $end
$var reg 1 7 memwrite_signal $end
$var reg 1 8 auipc_signal $end
$var reg 1 9 alusrc_signal $end
$var reg 1 : jal_signal $end
$var reg 1 ; regwrite_signal $end
$var reg 32 < addr_in_signal[31:0] $end
$var reg 32 = addr_out_signal[31:0] $end
$var reg 32 > adderout_signal[31:0] $end
$var reg 32 ? adder4out_signal[31:0] $end
$var reg 32 @ write_data_signal[31:0] $end
$var reg 32 A rs1_signal[31:0] $end
$var reg 32 B rs2_signal[31:0] $end
$var reg 32 C data_out_signal[31:0] $end
$var reg 32 D adder_in1_signal[31:0] $end
$var reg 32 E write_or_jal_signal[31:0] $end
$var reg 2 F aluop_signal[1:0] $end
$var reg 4 G aluopout_signal[3:0] $end
$var reg 1 H rst_signal $end
$scope module control_inst01 $end
$var reg 7 I op[6:0] $end
$var reg 1 J branch $end
$var reg 1 K memread $end
$var reg 1 L memtoreg $end
$var reg 1 M auipc $end
$var reg 1 N jal $end
$var reg 2 O aluop[1:0] $end
$var reg 1 P memwrite $end
$var reg 1 Q alusrc $end
$var reg 1 R regwrite $end
$upscope $end
$scope module genimm_inst02 $end
$var reg 32 S instruction[31:0] $end
$var reg 32 T immediate[31:0] $end
$var reg 32 U i_type[31:0] $end
$var reg 32 V s_type[31:0] $end
$var reg 32 W sb_type[31:0] $end
$var reg 32 X uj_type[31:0] $end
$var reg 32 Y u_type[31:0] $end
$var reg 3 Z selector[2:0] $end
$scope module mux_inst $end
$var reg 32 [ a[31:0] $end
$var reg 32 \ b[31:0] $end
$var reg 32 ] c[31:0] $end
$var reg 32 ^ d[31:0] $end
$var reg 32 _ e[31:0] $end
$var reg 32 ` f[31:0] $end
$var reg 32 a g[31:0] $end
$var reg 32 b h[31:0] $end
$var reg 3 c sel[2:0] $end
$var reg 32 d result[31:0] $end
$upscope $end
$upscope $end
$scope module alu_inst03 $end
$var reg 4 e opcode[3:0] $end
$var reg 32 f a[31:0] $end
$var reg 32 g b[31:0] $end
$var reg 32 h z[31:0] $end
$var reg 1 i zero $end
$upscope $end
$scope module control_alu_inst04 $end
$var reg 2 j ulaop[1:0] $end
$var reg 1 k funct7 $end
$var reg 1 l auipcin $end
$var reg 3 m funct3[2:0] $end
$var reg 4 n opout[3:0] $end
$upscope $end
$scope module pc_inst05 $end
$var reg 32 o addr_in[31:0] $end
$var reg 1 p rst $end
$var reg 1 q clk $end
$var reg 32 r addr_out[31:0] $end
$upscope $end
$scope module adder_inst06 $end
$var reg 32 s a[31:0] $end
$var reg 32 t b[31:0] $end
$var reg 32 u z[31:0] $end
$upscope $end
$scope module adder4_inst07 $end
$var reg 32 v a[31:0] $end
$var reg 32 w z[31:0] $end
$upscope $end
$scope module muxa_inst08 $end
$var reg 1 x sel $end
$var reg 32 y a[31:0] $end
$var reg 32 z b[31:0] $end
$var reg 32 { result[31:0] $end
$upscope $end
$scope module muxb_inst09 $end
$var reg 1 | sel $end
$var reg 32 } a[31:0] $end
$var reg 32 !" b[31:0] $end
$var reg 32 "" result[31:0] $end
$upscope $end
$scope module muxc_inst10 $end
$var reg 1 #" sel $end
$var reg 32 $" a[31:0] $end
$var reg 32 %" b[31:0] $end
$var reg 32 &" result[31:0] $end
$upscope $end
$scope module muxd_inst11 $end
$var reg 1 '" sel $end
$var reg 32 (" a[31:0] $end
$var reg 32 )" b[31:0] $end
$var reg 32 *" result[31:0] $end
$upscope $end
$scope module muxg_inst14 $end
$var reg 1 +" sel $end
$var reg 32 ," a[31:0] $end
$var reg 32 -" b[31:0] $end
$var reg 32 ." result[31:0] $end
$upscope $end
$scope module muxh_inst15 $end
$var reg 1 /" sel $end
$var reg 32 0" a[31:0] $end
$var reg 32 1" b[31:0] $end
$var reg 32 2" result[31:0] $end
$upscope $end
$scope module mem_reg_inst16 $end
$var reg 1 3" wren $end
$var reg 5 4" rs1[4:0] $end
$var reg 5 5" rs2[4:0] $end
$var reg 5 6" rd[4:0] $end
$var reg 32 7" data[31:0] $end
$var reg 32 8" ro1[31:0] $end
$var reg 32 9" ro2[31:0] $end
$var integer 32 :" address1_signal $end
$var integer 32 ;" address2_signal $end
$var integer 32 <" write_address_signal $end
$comment breg is not handled $end
$upscope $end
$scope module mem_data_inst17 $end
$var reg 1 =" we $end
$var reg 1 >" re $end
$var reg 12 ?" address[11:0] $end
$var reg 32 @" datain[31:0] $end
$var reg 32 A" dataout[31:0] $end
$var integer 32 B" address_signal $end
$comment mem is not handled $end
$upscope $end
$scope module mem_instr_inst18 $end
$var reg 12 C" address[11:0] $end
$var reg 32 D" dataout[31:0] $end
$var integer 32 E" address_signal $end
$comment newromsignal is not handled $end
$upscope $end
$upscope $end
$upscope $end
$enddefinitions $end
#0
0!
1"
b00010010001101000101000010110111 #
b00000000000000000000000000000000 $
b00000000000000000000000000000000 %
b00000000000000000000000100100011 &
b00000000000000000000000100100011 '
1(
b00010010001101000101000010110111 )
b00000000000000000000000000000000 *
b00000000000000000000000000000000 +
b00000000000000000000000100100011 ,
b00000000000000000000000100100011 -
b00010010001101000101000010110111 .
b00000000000000000000000100100011 /
b00000000000000000000000000000000 0
b00000000000000000000000100100011 1
b00000000000000000000000100100011 2
03
04
05
06
07
08
19
0:
1;
b00000000000000000000000000000100 <
b00000000000000000000000000000000 =
b00000000000000000000000100100011 >
b00000000000000000000000000000100 ?
b00000000000000000000000100100011 @
b00000000000000000000000000000000 A
b00000000000000000000000000000000 B
b00000000000000000000000000000000 C
b00000000000000000000000000000000 D
b00000000000000000000000100100011 E
b11 F
b1110 G
0H
b0110111 I
0J
0K
0L
0M
0N
b11 O
0P
1Q
1R
b00010010001101000101000010110111 S
b00000000000000000000000100100011 T
b00000000000000000000000100100011 U
b00000000000000000000000100100001 V
b00000000000000000000100100100000 W
b00000000000001000101100100100010 X
b00010010001101000101000000000000 Y
b000 Z
b00000000000000000000000100100011 [
b00000000000000000000000100100001 \
b00000000000000000000100100100000 ]
b00010010001101000101000000000000 ^
b00000000000001000101100100100010 _
b00000000000000000000000000000000 `
b00000000000000000000000000000000 a
b00000000000000000000000000000000 b
b000 c
b00000000000000000000000100100011 d
b1110 e
b00000000000000000000000000000000 f
b00000000000000000000000100100011 g
b00000000000000000000000100100011 h
0i
b11 j
0k
0l
b101 m
b1110 n
b00000000000000000000000000000100 o
0p
1q
b00000000000000000000000000000000 r
b00000000000000000000000000000000 s
b00000000000000000000000100100011 t
b00000000000000000000000100100011 u
b00000000000000000000000000000000 v
b00000000000000000000000000000100 w
0x
b00000000000000000000000000000100 y
b00000000000000000000000100100011 z
b00000000000000000000000000000100 {
1|
b00000000000000000000000000000000 }
b00000000000000000000000100100011 !"
b00000000000000000000000100100011 ""
0#"
b00000000000000000000000100100011 $"
b00000000000000000000000000000000 %"
b00000000000000000000000100100011 &"
0'"
b00000000000000000000000000000000 ("
b00000000000000000000000000000000 )"
b00000000000000000000000000000000 *"
0+"
b00000000000000000000000000000000 ,"
b00000000000000000000000000000000 -"
b00000000000000000000000000000000 ."
0/"
b00000000000000000000000100100011 0"
b00000000000000000000000000000100 1"
b00000000000000000000000100100011 2"
13"
b01000 4"
b00011 5"
b00001 6"
b00000000000000000000000100100011 7"
b00000000000000000000000000000000 8"
b00000000000000000000000000000000 9"
b1000 :"
b11 ;"
b1 <"
0="
0>"
b000100100011 ?"
b00000000000000000000000000000000 @"
b00000000000000000000000000000000 A"
b0 B"
b000000000000 C"
b00010010001101000101000010110111 D"
b0 E"
#5000000
0"
0(
0q
#10000000
1"
b00000110011110001001000100010111 #
b00000000000000000000000001101011 &
b00000000000000000000000001100111 '
1(
b00000110011110001001000100010111 )
b00000000000000000000000001101011 ,
b00000000000000000000000001100111 -
b00000110011110001001000100010111 .
b00000000000000000000000001100111 /
b00000000000000000000000000000100 0
b00000000000000000000000001100111 1
b00000000000000000000000001101011 2
18
b00000000000000000000000000001000 <
b00000000000000000000000000000100 =
b00000000000000000000000001101011 >
b00000000000000000000000000001000 ?
b00000000000000000000000001101011 @
b00000000000000000000000000000100 D
b00000000000000000000000001101011 E
b1111 G
b0010111 I
1M
b00000110011110001001000100010111 S
b00000000000000000000000001100111 T
b00000000000000000000000001100111 U
b00000000000000000000000001100010 V
b00000000000000000000000001100010 W
b00000000000010001001100001100110 X
b00000110011110001001000000000000 Y
b00000000000000000000000001100111 [
b00000000000000000000000001100010 \
b00000000000000000000000001100010 ]
b00000110011110001001000000000000 ^
b00000000000010001001100001100110 _
b00000000000000000000000001100111 d
b1111 e
b00000000000000000000000000000100 f
b00000000000000000000000001100111 g
b00000000000000000000000001101011 h
1l
b001 m
b1111 n
b00000000000000000000000000001000 o
1q
b00000000000000000000000000000100 r
b00000000000000000000000000000100 s
b00000000000000000000000001100111 t
b00000000000000000000000001101011 u
b00000000000000000000000000000100 v
b00000000000000000000000000001000 w
b00000000000000000000000000001000 y
b00000000000000000000000001101011 z
b00000000000000000000000000001000 {
b00000000000000000000000001100111 !"
b00000000000000000000000001100111 ""
b00000000000000000000000001101011 $"
b00000000000000000000000001101011 &"
1'"
b00000000000000000000000000000100 )"
b00000000000000000000000000000100 *"
b00000000000000000000000000000100 ,"
b00000000000000000000000000000100 ."
b00000000000000000000000001101011 0"
b00000000000000000000000000001000 1"
b00000000000000000000000001101011 2"
b10001 4"
b00111 5"
b00010 6"
b00000000000000000000000001101011 7"
b10001 :"
b111 ;"
b10 <"
b000001101011 ?"
b000000000100 C"
b00000110011110001001000100010111 D"
b1 E"
#15000000
0"
0(
0q
#20000000
1"
b00000000001000001000000110110011 #
b00000000000000000000000000000100 $
b00000000000000000000000100100011 %
b00000000000000000000000100100111 &
b00000000000000000000000000000010 '
1(
b00000000001000001000000110110011 )
b00000000000000000000000000000100 *
b00000000000000000000000100100011 +
b00000000000000000000000100100111 ,
b00000000000000000000000000000010 -
b00000000001000001000000110110011 .
b00000000000000000000000000000010 /
b00000000000000000000000000000100 0
b00000000000000000000000100100011 1
b00000000000000000000000100100111 2
08
09
b00000000000000000000000000001100 <
b00000000000000000000000000001000 =
b00000000000000000000000000001010 >
b00000000000000000000000000001100 ?
b00000000000000000000000100100111 @
b00000000000000000000000000000100 A
b00000000000000000000000100100011 B
b00000000000000000000000000001000 D
b00000000000000000000000100100111 E
b00 F
b0000 G
b0110011 I
0M
b00 O
0Q
b00000000001000001000000110110011 S
b00000000000000000000000000000010 T
b00000000000000000000000000000010 U
b00000000000000000000000000000011 V
b00000000000000000000100000000010 W
b00000000000000001000000000000010 X
b00000000001000001000000000000000 Y
b00000000000000000000000000000010 [
b00000000000000000000000000000011 \
b00000000000000000000100000000010 ]
b00000000001000001000000000000000 ^
b00000000000000001000000000000010 _
b00000000000000000000000000000010 d
b0000 e
b00000000000000000000000000000100 f
b00000000000000000000000100100011 g
b00000000000000000000000100100111 h
b00 j
0l
b000 m
b0000 n
b00000000000000000000000000001100 o
1q
b00000000000000000000000000001000 r
b00000000000000000000000000001000 s
b00000000000000000000000000000010 t
b00000000000000000000000000001010 u
b00000000000000000000000000001000 v
b00000000000000000000000000001100 w
b00000000000000000000000000001100 y
b00000000000000000000000000001010 z
b00000000000000000000000000001100 {
0|
b00000000000000000000000100100011 }
b00000000000000000000000000000010 !"
b00000000000000000000000100100011 ""
b00000000000000000000000100100111 $"
b00000000000000000000000100100111 &"
0'"
b00000000000000000000000000000100 ("
b00000000000000000000000000001000 )"
b00000000000000000000000000000100 *"
b00000000000000000000000000001000 ,"
b00000000000000000000000000000100 -"
b00000000000000000000000000001000 ."
b00000000000000000000000100100111 0"
b00000000000000000000000000001100 1"
b00000000000000000000000100100111 2"
b00001 4"
b00010 5"
b00011 6"
b00000000000000000000000100100111 7"
b00000000000000000000000000000100 8"
b00000000000000000000000100100011 9"
b1 :"
b10 ;"
b11 <"
b000100100111 ?"
b00000000000000000000000100100011 @"
b000000001000 C"
b00000000001000001000000110110011 D"
b10 E"
#25000000
0"
0(
0q
#30000000
1"
b01000000000100010000001000110011 #
b00000000000000000000000100100011 $
b00000000000000000000000000000100 %
b00000000000000000000000100011111 &
b00000000000000000000010000000001 '
1(
b01000000000100010000001000110011 )
b00000000000000000000000100100011 *
b00000000000000000000000000000100 +
b00000000000000000000000100011111 ,
b00000000000000000000010000000001 -
b01000000000100010000001000110011 .
b00000000000000000000010000000001 /
b00000000000000000000000100100011 0
b00000000000000000000000000000100 1
b00000000000000000000000100011111 2
b00000000000000000000000000010000 <
b00000000000000000000000000001100 =
b00000000000000000000010000001101 >
b00000000000000000000000000010000 ?
b00000000000000000000000100011111 @
b00000000000000000000000100100011 A
b00000000000000000000000000000100 B
b00000000000000000000000000001100 D
b00000000000000000000000100011111 E
b0001 G
b01000000000100010000001000110011 S
b00000000000000000000010000000001 T
b00000000000000000000010000000001 U
b00000000000000000000010000000100 V
b00000000000000000000010000000100 W
b00000000000000010000110000000000 X
b01000000000100010000000000000000 Y
b00000000000000000000010000000001 [
b00000000000000000000010000000100 \
b00000000000000000000010000000100 ]
b01000000000100010000000000000000 ^
b00000000000000010000110000000000 _
b00000000000000000000010000000001 d
b0001 e
b00000000000000000000000100100011 f
b00000000000000000000000000000100 g
b00000000000000000000000100011111 h
1k
b0001 n
b00000000000000000000000000010000 o
1q
b00000000000000000000000000001100 r
b00000000000000000000000000001100 s
b00000000000000000000010000000001 t
b00000000000000000000010000001101 u
b00000000000000000000000000001100 v
b00000000000000000000000000010000 w
b00000000000000000000000000010000 y
b00000000000000000000010000001101 z
b00000000000000000000000000010000 {
b00000000000000000000000000000100 }
b00000000000000000000010000000001 !"
b00000000000000000000000000000100 ""
b00000000000000000000000100011111 $"
b00000000000000000000000100011111 &"
b00000000000000000000000100100011 ("
b00000000000000000000000000001100 )"
b00000000000000000000000100100011 *"
b00000000000000000000000000001100 ,"
b00000000000000000000000100100011 -"
b00000000000000000000000000001100 ."
b00000000000000000000000100011111 0"
b00000000000000000000000000010000 1"
b00000000000000000000000100011111 2"
b00010 4"
b00001 5"
b00100 6"
b00000000000000000000000100011111 7"
b00000000000000000000000100100011 8"
b00000000000000000000000000000100 9"
b10 :"
b1 ;"
b100 <"
b000100011111 ?"
b00000000000000000000000000000100 @"
b000000001100 C"
b01000000000100010000001000110011 D"
b11 E"
#35000000
0"
0(
0q
#40000000
1"
b00000000101000011000001010010011 #
b00000000000000000000000001101011 $
b00000000000000000000000000000000 %
b00000000000000000000000001110101 &
b00000000000000000000000000001010 '
1(
b00000000101000011000001010010011 )
b00000000000000000000000001101011 *
b00000000000000000000000000000000 +
b00000000000000000000000001110101 ,
b00000000000000000000000000001010 -
b00000000101000011000001010010011 .
b00000000000000000000000000001010 /
b00000000000000000000000001101011 0
b00000000000000000000000000001010 1
b00000000000000000000000001110101 2
19
b00000000000000000000000000010100 <
b00000000000000000000000000010000 =
b00000000000000000000000000011010 >
b00000000000000000000000000010100 ?
b00000000000000000000000001110101 @
b00000000000000000000000001101011 A
b00000000000000000000000000000000 B
b00000000000000000000000000010000 D
b00000000000000000000000001110101 E
b01 F
b0000 G
b0010011 I
b01 O
1Q
b00000000101000011000001010010011 S
b00000000000000000000000000001010 T
b00000000000000000000000000001010 U
b00000000000000000000000000000101 V
b00000000000000000000100000000100 W
b00000000000000011000000000001010 X
b00000000101000011000000000000000 Y
b00000000000000000000000000001010 [
b00000000000000000000000000000101 \
b00000000000000000000100000000100 ]
b00000000101000011000000000000000 ^
b00000000000000011000000000001010 _
b00000000000000000000000000001010 d
b0000 e
b00000000000000000000000001101011 f
b00000000000000000000000000001010 g
b00000000000000000000000001110101 h
b01 j
0k
b0000 n
b00000000000000000000000000010100 o
1q
b00000000000000000000000000010000 r
b00000000000000000000000000010000 s
b00000000000000000000000000001010 t
b00000000000000000000000000011010 u
b00000000000000000000000000010000 v
b00000000000000000000000000010100 w
b00000000000000000000000000010100 y
b00000000000000000000000000011010 z
b00000000000000000000000000010100 {
1|
b00000000000000000000000000000000 }
b00000000000000000000000000001010 !"
b00000000000000000000000000001010 ""
b00000000000000000000000001110101 $"
b00000000000000000000000001110101 &"
b00000000000000000000000001101011 ("
b00000000000000000000000000010000 )"
b00000000000000000000000001101011 *"
b00000000000000000000000000010000 ,"
b00000000000000000000000001101011 -"
b00000000000000000000000000010000 ."
b00000000000000000000000001110101 0"
b00000000000000000000000000010100 1"
b00000000000000000000000001110101 2"
b00011 4"
b01010 5"
b00101 6"
b00000000000000000000000001110101 7"
b00000000000000000000000001101011 8"
b00000000000000000000000000000000 9"
b11 :"
b1010 ;"
b101 <"
b000001110101 ?"
b00000000000000000000000000000000 @"
b000000010000 C"
b00000000101000011000001010010011 D"
b100 E"
#45000000
0"
0(
0q
#50000000
1"
b00000000010000011111001100110011 #
b00000000000000000000000100100111 %
b00000000000000000000000000100011 &
b00000000000000000000000000000100 '
1(
b00000000010000011111001100110011 )
b00000000000000000000000100100111 +
b00000000000000000000000000100011 ,
b00000000000000000000000000000100 -
b00000000010000011111001100110011 .
b00000000000000000000000000000100 /
b00000000000000000000000100100111 1
b00000000000000000000000000100011 2
09
b00000000000000000000000000011000 <
b00000000000000000000000000010100 =
b00000000000000000000000000011000 >
b00000000000000000000000000011000 ?
b00000000000000000000000000100011 @
b00000000000000000000000100100111 B
b00000000000000000000000000010100 D
b00000000000000000000000000100011 E
b00 F
b0010 G
b0110011 I
b00 O
0Q
b00000000010000011111001100110011 S
b00000000000000000000000000000100 T
b00000000000000000000000000000100 U
b00000000000000000000000000000110 V
b00000000000000000000000000000110 W
b00000000000000011111000000000100 X
b00000000010000011111000000000000 Y
b00000000000000000000000000000100 [
b00000000000000000000000000000110 \
b00000000000000000000000000000110 ]
b00000000010000011111000000000000 ^
b00000000000000011111000000000100 _
b00000000000000000000000000000100 d
b0010 e
b00000000000000000000000100100111 g
b00000000000000000000000000100011 h
b00 j
b111 m
b0010 n
b00000000000000000000000000011000 o
1q
b00000000000000000000000000010100 r
b00000000000000000000000000010100 s
b00000000000000000000000000000100 t
b00000000000000000000000000011000 u
b00000000000000000000000000010100 v
b00000000000000000000000000011000 w
b00000000000000000000000000011000 y
b00000000000000000000000000011000 z
b00000000000000000000000000011000 {
0|
b00000000000000000000000100100111 }
b00000000000000000000000000000100 !"
b00000000000000000000000100100111 ""
b00000000000000000000000000100011 $"
b00000000000000000000000000100011 &"
b00000000000000000000000000010100 )"
b00000000000000000000000000010100 ,"
b00000000000000000000000000010100 ."
b00000000000000000000000000100011 0"
b00000000000000000000000000011000 1"
b00000000000000000000000000100011 2"
b00100 5"
b00110 6"
b00000000000000000000000000100011 7"
b00000000000000000000000100100111 9"
b100 ;"
b110 <"
b000000100011 ?"
b00000000000000000000000100100111 @"
b000000010100 C"
b00000000010000011111001100110011 D"
b101 E"
#55000000
0"
0(
0q
#60000000
1"
b00000000010100100010001110110011 #
b00000000000000000000000100100111 $
b00000000000000000000000100011111 %
b00000000000000000000000000000000 &
b00000000000000000000000000000101 '
1(
b00000000010100100010001110110011 )
b00000000000000000000000100100111 *
b00000000000000000000000100011111 +
b00000000000000000000000000000000 ,
b00000000000000000000000000000101 -
b00000000010100100010001110110011 .
b00000000000000000000000000000101 /
b00000000000000000000000100100111 0
b00000000000000000000000100011111 1
b00000000000000000000000000000000 2
03
b00000000000000000000000000011100 <
b00000000000000000000000000011000 =
b00000000000000000000000000011101 >
b00000000000000000000000000011100 ?
b00000000000000000000000000000000 @
b00000000000000000000000100100111 A
b00000000000000000000000100011111 B
b00000000000000000000000000011000 D
b00000000000000000000000000000000 E
b1000 G
b00000000010100100010001110110011 S
b00000000000000000000000000000101 T
b00000000000000000000000000000101 U
b00000000000000000000000000000111 V
b00000000000000000000100000000110 W
b00000000000000100010100000000100 X
b00000000010100100010000000000000 Y
b00000000000000000000000000000101 [
b00000000000000000000000000000111 \
b00000000000000000000100000000110 ]
b00000000010100100010000000000000 ^
b00000000000000100010100000000100 _
b00000000000000000000000000000101 d
b1000 e
b00000000000000000000000100100111 f
b00000000000000000000000100011111 g
b00000000000000000000000000000000 h
0i
b010 m
b1000 n
b00000000000000000000000000011100 o
1q
b00000000000000000000000000011000 r
b00000000000000000000000000011000 s
b00000000000000000000000000000101 t
b00000000000000000000000000011101 u
b00000000000000000000000000011000 v
b00000000000000000000000000011100 w
b00000000000000000000000000011100 y
b00000000000000000000000000011101 z
b00000000000000000000000000011100 {
b00000000000000000000000100011111 }
b00000000000000000000000000000101 !"
b00000000000000000000000100011111 ""
b00000000000000000000000000000000 $"
b00000000000000000000000000000000 &"
b00000000000000000000000100100111 ("
b00000000000000000000000000011000 )"
b00000000000000000000000100100111 *"
b00000000000000000000000000011000 ,"
b00000000000000000000000100100111 -"
b00000000000000000000000000011000 ."
b00000000000000000000000000000000 0"
b00000000000000000000000000011100 1"
b00000000000000000000000000000000 2"
b00100 4"
b00101 5"
b00111 6"
b00000000000000000000000000000000 7"
b00000000000000000000000100100111 8"
b00000000000000000000000100011111 9"
b100 :"
b101 ;"
b111 <"
b000000000000 ?"
b00000000000000000000000100011111 @"
b000000011000 C"
b00000000010100100010001110110011 D"
b110 E"
#65000000
0"
0(
0q
#70000000
1"
b00000000011000101110010000110011 #
b00000000000000000000000100011111 $
b00000000000000000000000001110101 %
b00000000000000000000000101111111 &
b00000000000000000000000000000110 '
1(
b00000000011000101110010000110011 )
b00000000000000000000000100011111 *
b00000000000000000000000001110101 +
b00000000000000000000000101111111 ,
b00000000000000000000000000000110 -
b00000000011000101110010000110011 .
b00000000000000000000000000000110 /
b00000000000000000000000100011111 0
b00000000000000000000000001110101 1
b00000000000000000000000101111111 2
b00000000000000000000000000100000 <
b00000000000000000000000000011100 =
b00000000000000000000000000100010 >
b00000000000000000000000000100000 ?
b00000000000000000000000101111111 @
b00000000000000000000000100011111 A
b00000000000000000000000001110101 B
b00000000000000000000000000011100 D
b00000000000000000000000101111111 E
b0011 G
b00000000011000101110010000110011 S
b00000000000000000000000000000110 T
b00000000000000000000000000000110 U
b00000000000000000000000000001000 V
b00000000000000000000000000001000 W
b00000000000000101110000000000110 X
b00000000011000101110000000000000 Y
b00000000000000000000000000000110 [
b00000000000000000000000000001000 \
b00000000000000000000000000001000 ]
b00000000011000101110000000000000 ^
b00000000000000101110000000000110 _
b00000000000000000000000000000110 d
b0011 e
b00000000000000000000000100011111 f
b00000000000000000000000001110101 g
b00000000000000000000000101111111 h
b110 m
b0011 n
b00000000000000000000000000100000 o
1q
b00000000000000000000000000011100 r
b00000000000000000000000000011100 s
b00000000000000000000000000000110 t
b00000000000000000000000000100010 u
b00000000000000000000000000011100 v
b00000000000000000000000000100000 w
b00000000000000000000000000100000 y
b00000000000000000000000000100010 z
b00000000000000000000000000100000 {
b00000000000000000000000001110101 }
b00000000000000000000000000000110 !"
b00000000000000000000000001110101 ""
b00000000000000000000000101111111 $"
b00000000000000000000000101111111 &"
b00000000000000000000000100011111 ("
b00000000000000000000000000011100 )"
b00000000000000000000000100011111 *"
b00000000000000000000000000011100 ,"
b00000000000000000000000100011111 -"
b00000000000000000000000000011100 ."
b00000000000000000000000101111111 0"
b00000000000000000000000000100000 1"
b00000000000000000000000101111111 2"
b00101 4"
b00110 5"
b01000 6"
b00000000000000000000000101111111 7"
b00000000000000000000000100011111 8"
b00000000000000000000000001110101 9"
b101 :"
b110 ;"
b1000 <"
b000101111111 ?"
b00000000000000000000000001110101 @"
b000000011100 C"
b00000000011000101110010000110011 D"
b111 E"
#75000000
0"
0(
0q
#80000000
1"
b00000000011100110100010010110011 #
b00000000000000000000000001110101 $
b00000000000000000000000000100011 %
b00000000000000000000000001010110 &
b00000000000000000000000000000111 '
1(
b00000000011100110100010010110011 )
b00000000000000000000000001110101 *
b00000000000000000000000000100011 +
b00000000000000000000000001010110 ,
b00000000000000000000000000000111 -
b00000000011100110100010010110011 .
b00000000000000000000000000000111 /
b00000000000000000000000001110101 0
b00000000000000000000000000100011 1
b00000000000000000000000001010110 2
b00000000000000000000000000100100 <
b00000000000000000000000000100000 =
b00000000000000000000000000100111 >
b00000000000000000000000000100100 ?
b00000000000000000000000001010110 @
b00000000000000000000000001110101 A
b00000000000000000000000000100011 B
b00000000000000000000000000100000 D
b00000000000000000000000001010110 E
b0100 G
b00000000011100110100010010110011 S
b00000000000000000000000000000111 T
b00000000000000000000000000000111 U
b00000000000000000000000000001001 V
b00000000000000000000100000001000 W
b00000000000000110100100000000110 X
b00000000011100110100000000000000 Y
b00000000000000000000000000000111 [
b00000000000000000000000000001001 \
b00000000000000000000100000001000 ]
b00000000011100110100000000000000 ^
b00000000000000110100100000000110 _
b00000000000000000000000000000111 d
b0100 e
b00000000000000000000000001110101 f
b00000000000000000000000000100011 g
b00000000000000000000000001010110 h
b100 m
b0100 n
b00000000000000000000000000100100 o
1q
b00000000000000000000000000100000 r
b00000000000000000000000000100000 s
b00000000000000000000000000000111 t
b00000000000000000000000000100111 u
b00000000000000000000000000100000 v
b00000000000000000000000000100100 w
b00000000000000000000000000100100 y
b00000000000000000000000000100111 z
b00000000000000000000000000100100 {
b00000000000000000000000000100011 }
b00000000000000000000000000000111 !"
b00000000000000000000000000100011 ""
b00000000000000000000000001010110 $"
b00000000000000000000000001010110 &"
b00000000000000000000000001110101 ("
b00000000000000000000000000100000 )"
b00000000000000000000000001110101 *"
b00000000000000000000000000100000 ,"
b00000000000000000000000001110101 -"
b00000000000000000000000000100000 ."
b00000000000000000000000001010110 0"
b00000000000000000000000000100100 1"
b00000000000000000000000001010110 2"
b00110 4"
b00111 5"
b01001 6"
b00000000000000000000000001010110 7"
b00000000000000000000000001110101 8"
b00000000000000000000000000100011 9"
b110 :"
b111 ;"
b1001 <"
b000001010110 ?"
b00000000000000000000000000100011 @"
b000000100000 C"
b00000000011100110100010010110011 D"
b1000 E"
#85000000
0"
0(
0q
#90000000
1"
b00000000111100111111010100010011 #
b00000000000000000000000000100011 $
b00000000000000000000000000000000 %
b00000000000000000000000000000011 &
b00000000000000000000000000001111 '
1(
b00000000111100111111010100010011 )
b00000000000000000000000000100011 *
b00000000000000000000000000000000 +
b00000000000000000000000000000011 ,
b00000000000000000000000000001111 -
b00000000111100111111010100010011 .
b00000000000000000000000000001111 /
b00000000000000000000000000100011 0
b00000000000000000000000000001111 1
b00000000000000000000000000000011 2
19
b00000000000000000000000000101000 <
b00000000000000000000000000100100 =
b00000000000000000000000000110011 >
b00000000000000000000000000101000 ?
b00000000000000000000000000000011 @
b00000000000000000000000000100011 A
b00000000000000000000000000000000 B
b00000000000000000000000000100100 D
b00000000000000000000000000000011 E
b01 F
b0010 G
b0010011 I
b01 O
1Q
b00000000111100111111010100010011 S
b00000000000000000000000000001111 T
b00000000000000000000000000001111 U
b00000000000000000000000000001010 V
b00000000000000000000000000001010 W
b00000000000000111111100000001110 X
b00000000111100111111000000000000 Y
b00000000000000000000000000001111 [
b00000000000000000000000000001010 \
b00000000000000000000000000001010 ]
b00000000111100111111000000000000 ^
b00000000000000111111100000001110 _
b00000000000000000000000000001111 d
b0010 e
b00000000000000000000000000100011 f
b00000000000000000000000000001111 g
b00000000000000000000000000000011 h
b01 j
b111 m
b0010 n
b00000000000000000000000000101000 o
1q
b00000000000000000000000000100100 r
b00000000000000000000000000100100 s
b00000000000000000000000000001111 t
b00000000000000000000000000110011 u
b00000000000000000000000000100100 v
b00000000000000000000000000101000 w
b00000000000000000000000000101000 y
b00000000000000000000000000110011 z
b00000000000000000000000000101000 {
1|
b00000000000000000000000000000000 }
b00000000000000000000000000001111 !"
b00000000000000000000000000001111 ""
b00000000000000000000000000000011 $"
b00000000000000000000000000000011 &"
b00000000000000000000000000100011 ("
b00000000000000000000000000100100 )"
b00000000000000000000000000100011 *"
b00000000000000000000000000100100 ,"
b00000000000000000000000000100011 -"
b00000000000000000000000000100100 ."
b00000000000000000000000000000011 0"
b00000000000000000000000000101000 1"
b00000000000000000000000000000011 2"
b00111 4"
b01111 5"
b01010 6"
b00000000000000000000000000000011 7"
b00000000000000000000000000100011 8"
b00000000000000000000000000000000 9"
b111 :"
b1111 ;"
b1010 <"
b000000000011 ?"
b00000000000000000000000000000000 @"
b000000100100 C"
b00000000111100111111010100010011 D"
b1001 E"
#95000000
0"
0(
0q
