RISC-V-Uniciclo/src/testbench_waveform.vcd
$date
  Sat Dec 23 22:07:40 2023
$end
$version
  GHDL v0
$end
$timescale
  1 fs
$end
$scope module standard $end
$upscope $end
$scope module textio $end
$upscope $end
$scope module std_logic_1164 $end
$upscope $end
$scope module numeric_std $end
$upscope $end
$scope module testbench_rv32_processor $end
$var reg 1 ! test_finished $end
$var reg 1 " clock $end
$var reg 32 # instruction[31:0] $end
$var reg 32 $ rs1[31:0] $end
$var reg 32 % rs2[31:0] $end
$var reg 32 & rd[31:0] $end
$var reg 32 ' immediate[31:0] $end
$scope module uut $end
$var reg 1 ( clock $end
$var reg 32 ) instruction[31:0] $end
$var reg 32 * rs1[31:0] $end
$var reg 32 + rs2[31:0] $end
$var reg 32 , rd[31:0] $end
$var reg 32 - immediate[31:0] $end
$var reg 32 . instruction_signal[31:0] $end
$var reg 32 / immout_signal[31:0] $end
$var reg 32 0 ain_signal[31:0] $end
$var reg 32 1 bin_signal[31:0] $end
$var reg 32 2 zout_signal[31:0] $end
$var reg 1 3 zeroout_signal $end
$var reg 1 4 branch_signal $end
$var reg 1 5 memtoreg_signal $end
$var reg 1 6 memread_signal $end
$var reg 1 7 memwrite_signal $end
$var reg 1 8 auipc_signal $end
$var reg 1 9 alusrc_signal $end
$var reg 1 : jal_signal $end
$var reg 1 ; regwrite_signal $end
$var reg 32 < addr_in_signal[31:0] $end
$var reg 32 = addr_out_signal[31:0] $end
$var reg 32 > adderout_signal[31:0] $end
$var reg 32 ? adder4out_signal[31:0] $end
$var reg 32 @ write_data_signal[31:0] $end
$var reg 32 A rs1_signal[31:0] $end
$var reg 32 B rs2_signal[31:0] $end
$var reg 32 C data_out_signal[31:0] $end
$var reg 32 D adder_in1_signal[31:0] $end
$var reg 32 E write_or_jal_signal[31:0] $end
$var reg 2 F aluop_signal[1:0] $end
$var reg 4 G aluopout_signal[3:0] $end
$var reg 1 H rst_signal $end
$var reg 1 I ANONYMOUS_0 $end
$var reg 1 J ANONYMOUS_1 $end
$var reg 1 K ANONYMOUS_2 $end
$scope module control_inst01 $end
$var reg 7 L op[6:0] $end
$var reg 1 M branch $end
$var reg 1 N memread $end
$var reg 1 O memtoreg $end
$var reg 1 P auipc $end
$var reg 1 Q jal $end
$var reg 2 R aluop[1:0] $end
$var reg 1 S memwrite $end
$var reg 1 T alusrc $end
$var reg 1 U regwrite $end
$upscope $end
$scope module genimm_inst02 $end
$var reg 32 V instruction[31:0] $end
$var reg 32 W immediate[31:0] $end
$comment instruction_format is not handled $end
$var reg 7 X opcode[6:0] $end
$var reg 7 Y funct7[6:0] $end
$var reg 3 Z funct3[2:0] $end
$upscope $end
$scope module alu_inst03 $end
$var reg 4 [ opcode[3:0] $end
$var reg 32 \ a[31:0] $end
$var reg 32 ] b[31:0] $end
$var reg 32 ^ z[31:0] $end
$var reg 1 _ zero $end
$upscope $end
$scope module control_alu_inst04 $end
$var reg 2 ` ulaop[1:0] $end
$var reg 1 a funct7 $end
$var reg 1 b auipcin $end
$var reg 3 c funct3[2:0] $end
$var reg 4 d opout[3:0] $end
$upscope $end
$scope module pc_inst05 $end
$var reg 32 e addr_in[31:0] $end
$var reg 1 f rst $end
$var reg 1 g clk $end
$var reg 32 h addr_out[31:0] $end
$upscope $end
$scope module adder_inst06 $end
$var reg 32 i a[31:0] $end
$var reg 32 j b[31:0] $end
$var reg 32 k z[31:0] $end
$upscope $end
$scope module adder4_inst07 $end
$var reg 32 l a[31:0] $end
$var reg 32 m z[31:0] $end
$upscope $end
$scope module muxa_inst08 $end
$var reg 1 n sel $end
$var reg 32 o a[31:0] $end
$var reg 32 p b[31:0] $end
$var reg 32 q result[31:0] $end
$upscope $end
$scope module muxb_inst09 $end
$var reg 1 r sel $end
$var reg 32 s a[31:0] $end
$var reg 32 t b[31:0] $end
$var reg 32 u result[31:0] $end
$upscope $end
$scope module muxc_inst10 $end
$var reg 1 v sel $end
$var reg 32 w a[31:0] $end
$var reg 32 x b[31:0] $end
$var reg 32 y result[31:0] $end
$upscope $end
$scope module muxd_inst11 $end
$var reg 1 z sel $end
$var reg 32 { a[31:0] $end
$var reg 32 | b[31:0] $end
$var reg 32 } result[31:0] $end
$upscope $end
$scope module muxg_inst14 $end
$var reg 1 !" sel $end
$var reg 32 "" a[31:0] $end
$var reg 32 #" b[31:0] $end
$var reg 32 $" result[31:0] $end
$upscope $end
$scope module muxh_inst15 $end
$var reg 1 %" sel $end
$var reg 32 &" a[31:0] $end
$var reg 32 '" b[31:0] $end
$var reg 32 (" result[31:0] $end
$upscope $end
$scope module mem_reg_inst16 $end
$var reg 1 )" wren $end
$var reg 5 *" rs1[4:0] $end
$var reg 5 +" rs2[4:0] $end
$var reg 5 ," rd[4:0] $end
$var reg 32 -" data[31:0] $end
$var reg 32 ." ro1[31:0] $end
$var reg 32 /" ro2[31:0] $end
$comment registers_array is not handled $end
$upscope $end
$scope module mem_data_inst17 $end
$var reg 1 0" we $end
$var reg 1 1" re $end
$var reg 12 2" address[11:0] $end
$var reg 32 3" datain[31:0] $end
$var reg 32 4" dataout[31:0] $end
$var integer 32 5" address_signal $end
$comment mem is not handled $end
$upscope $end
$scope module mem_instr_inst18 $end
$var reg 12 6" address[11:0] $end
$var reg 32 7" dataout[31:0] $end
$var integer 32 8" address_signal $end
$comment newromsignal is not handled $end
$upscope $end
$upscope $end
$upscope $end
$enddefinitions $end
#0
0!
1"
b00001111111100000110001010010011 #
b00000000000000000000000000000000 $
b00000000000000000000000000000000 %
b00000000000000000000000011111111 &
b00000000000000000000000011111111 '
1(
b00001111111100000110001010010011 )
b00000000000000000000000000000000 *
b00000000000000000000000000000000 +
b00000000000000000000000011111111 ,
b00000000000000000000000011111111 -
b00001111111100000110001010010011 .
b00000000000000000000000011111111 /
b00000000000000000000000000000000 0
b00000000000000000000000011111111 1
b00000000000000000000000011111111 2
03
04
05
06
07
08
19
0:
1;
b00000000000000000000000000000100 <
b00000000000000000000000000000000 =
b00000000000000000000000011111111 >
b00000000000000000000000000000100 ?
b00000000000000000000000011111111 @
b00000000000000000000000000000000 A
b00000000000000000000000000000000 B
b00000000000000000000000000000000 C
b00000000000000000000000000000000 D
b00000000000000000000000011111111 E
b01 F
b0011 G
0H
0I
0J
0K
b0010011 L
0M
0N
0O
0P
0Q
b01 R
0S
1T
1U
b00001111111100000110001010010011 V
b00000000000000000000000011111111 W
b0010011 X
b0000111 Y
b110 Z
b0011 [
b00000000000000000000000000000000 \
b00000000000000000000000011111111 ]
b00000000000000000000000011111111 ^
0_
b01 `
0a
0b
b110 c
b0011 d
b00000000000000000000000000000100 e
0f
1g
b00000000000000000000000000000000 h
b00000000000000000000000000000000 i
b00000000000000000000000011111111 j
b00000000000000000000000011111111 k
b00000000000000000000000000000000 l
b00000000000000000000000000000100 m
0n
b00000000000000000000000000000100 o
b00000000000000000000000011111111 p
b00000000000000000000000000000100 q
1r
b00000000000000000000000000000000 s
b00000000000000000000000011111111 t
b00000000000000000000000011111111 u
0v
b00000000000000000000000011111111 w
b00000000000000000000000000000000 x
b00000000000000000000000011111111 y
0z
b00000000000000000000000000000000 {
b00000000000000000000000000000000 |
b00000000000000000000000000000000 }
0!"
b00000000000000000000000000000000 ""
b00000000000000000000000000000000 #"
b00000000000000000000000000000000 $"
0%"
b00000000000000000000000011111111 &"
b00000000000000000000000000000100 '"
b00000000000000000000000011111111 ("
1)"
b00000 *"
b11111 +"
b00101 ,"
b00000000000000000000000011111111 -"
b00000000000000000000000000000000 ."
b00000000000000000000000000000000 /"
00"
01"
b000011111111 2"
b00000000000000000000000000000000 3"
b00000000000000000000000000000000 4"
b0 5"
b000000000000 6"
b00001111111100000110001010010011 7"
b0 8"
#50000000
0"
0(
0g
#100000000
1"
b00001111000000101111001010010011 #
b00000000000000000000000000000100 $
b00000000000000000000000000000000 &
b00000000000000000000000011110000 '
1(
b00001111000000101111001010010011 )
b00000000000000000000000000000100 *
b00000000000000000000000000000000 ,
b00000000000000000000000011110000 -
b00001111000000101111001010010011 .
b00000000000000000000000011110000 /
b00000000000000000000000000000100 0
b00000000000000000000000011110000 1
b00000000000000000000000000000000 2
b00000000000000000000000000001000 <
b00000000000000000000000000000100 =
b00000000000000000000000011110100 >
b00000000000000000000000000001000 ?
b00000000000000000000000000000000 @
b00000000000000000000000000000100 A
b00000000000000000000000000000100 D
b00000000000000000000000000000000 E
b0010 G
b00001111000000101111001010010011 V
b00000000000000000000000011110000 W
b111 Z
b0010 [
b00000000000000000000000000000100 \
b00000000000000000000000011110000 ]
b00000000000000000000000000000000 ^
b111 c
b0010 d
b00000000000000000000000000001000 e
1g
b00000000000000000000000000000100 h
b00000000000000000000000000000100 i
b00000000000000000000000011110000 j
b00000000000000000000000011110100 k
b00000000000000000000000000000100 l
b00000000000000000000000000001000 m
b00000000000000000000000000001000 o
b00000000000000000000000011110100 p
b00000000000000000000000000001000 q
b00000000000000000000000011110000 t
b00000000000000000000000011110000 u
b00000000000000000000000000000000 w
b00000000000000000000000000000000 y
b00000000000000000000000000000100 {
b00000000000000000000000000000100 |
b00000000000000000000000000000100 }
b00000000000000000000000000000100 ""
b00000000000000000000000000000100 #"
b00000000000000000000000000000100 $"
b00000000000000000000000000000000 &"
b00000000000000000000000000001000 '"
b00000000000000000000000000000000 ("
b00101 *"
b10000 +"
b00000000000000000000000000000000 -"
b00000000000000000000000000000100 ."
b000000000000 2"
b000000000100 6"
b00001111000000101111001010010011 7"
b1 8"
#150000000
0"
0(
0g
#200000000
1"
b00000000000000000010010000110111 #
b00000000000000000000000000000000 $
b00000000000000000010000000000000 &
b00000000000000000010000000000000 '
1(
b00000000000000000010010000110111 )
b00000000000000000000000000000000 *
b00000000000000000010000000000000 ,
b00000000000000000010000000000000 -
b00000000000000000010010000110111 .
b00000000000000000010000000000000 /
b00000000000000000000000000000000 0
b00000000000000000010000000000000 1
b00000000000000000010000000000000 2
03
b00000000000000000000000000001100 <
b00000000000000000000000000001000 =
b00000000000000000010000000001000 >
b00000000000000000000000000001100 ?
b00000000000000000010000000000000 @
b00000000000000000000000000000000 A
b00000000000000000000000000001000 D
b00000000000000000010000000000000 E
b11 F
b1110 G
b0110111 L
b11 R
b00000000000000000010010000110111 V
b00000000000000000010000000000000 W
b0110111 X
b0000000 Y
b010 Z
b1110 [
b00000000000000000000000000000000 \
b00000000000000000010000000000000 ]
b00000000000000000010000000000000 ^
0_
b11 `
b010 c
b1110 d
b00000000000000000000000000001100 e
1g
b00000000000000000000000000001000 h
b00000000000000000000000000001000 i
b00000000000000000010000000000000 j
b00000000000000000010000000001000 k
b00000000000000000000000000001000 l
b00000000000000000000000000001100 m
b00000000000000000000000000001100 o
b00000000000000000010000000001000 p
b00000000000000000000000000001100 q
b00000000000000000010000000000000 t
b00000000000000000010000000000000 u
b00000000000000000010000000000000 w
b00000000000000000010000000000000 y
b00000000000000000000000000000000 {
b00000000000000000000000000001000 |
b00000000000000000000000000000000 }
b00000000000000000000000000001000 ""
b00000000000000000000000000000000 #"
b00000000000000000000000000001000 $"
b00000000000000000010000000000000 &"
b00000000000000000000000000001100 '"
b00000000000000000010000000000000 ("
b00000 *"
b00000 +"
b01000 ,"
b00000000000000000010000000000000 -"
b00000000000000000000000000000000 ."
b000000000000 2"
b000000001000 6"
b00000000000000000010010000110111 7"
b10 8"
#250000000
0"
0(
0g
#300000000
1"
b00000000000001000010010010000011 #
b00000000000000000000000000001111 &
b00000000000000000000000000000000 '
1(
b00000000000001000010010010000011 )
b00000000000000000000000000001111 ,
b00000000000000000000000000000000 -
b00000000000001000010010010000011 .
b00000000000000000000000000000000 /
b00000000000000000000000000000000 1
b00000000000000000000000000000000 2
15
16
b00000000000000000000000000010000 <
b00000000000000000000000000001100 =
b00000000000000000000000000001100 >
b00000000000000000000000000010000 ?
b00000000000000000000000000001111 @
b00000000000000000000000000001111 C
b00000000000000000000000000001100 D
b00000000000000000000000000001111 E
b0000011 L
1N
1O
b00000000000001000010010010000011 V
b00000000000000000000000000000000 W
b0000011 X
b00000000000000000000000000000000 ]
b00000000000000000000000000000000 ^
b00000000000000000000000000010000 e
1g
b00000000000000000000000000001100 h
b00000000000000000000000000001100 i
b00000000000000000000000000000000 j
b00000000000000000000000000001100 k
b00000000000000000000000000001100 l
b00000000000000000000000000010000 m
b00000000000000000000000000010000 o
b00000000000000000000000000001100 p
b00000000000000000000000000010000 q
b00000000000000000000000000000000 t
b00000000000000000000000000000000 u
1v
b00000000000000000000000000000000 w
b00000000000000000000000000001111 x
b00000000000000000000000000001111 y
b00000000000000000000000000001100 |
b00000000000000000000000000001100 ""
b00000000000000000000000000001100 $"
b00000000000000000000000000001111 &"
b00000000000000000000000000010000 '"
b00000000000000000000000000001111 ("
b01000 *"
b01001 ,"
b00000000000000000000000000001111 -"
11"
b00000000000000000000000000001111 4"
b000000001100 6"
b00000000000001000010010010000011 7"
b11 8"
#350000000
0"
0(
0g
#400000000
1"
b00000000010001000010100100000011 #
b00000000000000000000000000000100 '
1(
b00000000010001000010100100000011 )
b00000000000000000000000000000100 -
b00000000010001000010100100000011 .
b00000000000000000000000000000100 /
b00000000000000000000000000000100 1
b00000000000000000000000000000100 2
b00000000000000000000000000010100 <
b00000000000000000000000000010000 =
b00000000000000000000000000010100 >
b00000000000000000000000000010100 ?
b00000000000000000000000000010000 D
b00000000010001000010100100000011 V
b00000000000000000000000000000100 W
b00000000000000000000000000000100 ]
b00000000000000000000000000000100 ^
b00000000000000000000000000010100 e
1g
b00000000000000000000000000010000 h
b00000000000000000000000000010000 i
b00000000000000000000000000000100 j
b00000000000000000000000000010100 k
b00000000000000000000000000010000 l
b00000000000000000000000000010100 m
b00000000000000000000000000010100 o
b00000000000000000000000000010100 p
b00000000000000000000000000010100 q
b00000000000000000000000000000100 t
b00000000000000000000000000000100 u
b00000000000000000000000000000100 w
b00000000000000000000000000010000 |
b00000000000000000000000000010000 ""
b00000000000000000000000000010000 $"
b00000000000000000000000000010100 '"
b00100 +"
b10010 ,"
b000000000100 2"
b000000010000 6"
b00000000010001000010100100000011 7"
b100 8"
#450000000
0"
0(
0g
#500000000
1"
b00000001001001001000100110110011 #
b00000000000000000010000000000000 $
b00000000000000000000000000001111 %
b00000000000000000010000000001111 &
b00000000000000000000000000000000 '
1(
b00000001001001001000100110110011 )
b00000000000000000010000000000000 *
b00000000000000000000000000001111 +
b00000000000000000010000000001111 ,
b00000000000000000000000000000000 -
b00000001001001001000100110110011 .
b00000000000000000000000000000000 /
b00000000000000000010000000000000 0
b00000000000000000000000000001111 1
b00000000000000000010000000001111 2
05
06
09
b00000000000000000000000000011000 <
b00000000000000000000000000010100 =
b00000000000000000000000000010100 >
b00000000000000000000000000011000 ?
b00000000000000000010000000001111 @
b00000000000000000010000000000000 A
b00000000000000000000000000001111 B
b00000000000000000000000000010100 D
b00000000000000000010000000001111 E
b00 F
b0000 G
b0110011 L
0N
0O
b00 R
0T
b00000001001001001000100110110011 V
b00000000000000000000000000000000 W
b0110011 X
b000 Z
b0000 [
b00000000000000000010000000000000 \
b00000000000000000000000000001111 ]
b00000000000000000010000000001111 ^
b00 `
b000 c
b0000 d
b00000000000000000000000000011000 e
1g
b00000000000000000000000000010100 h
b00000000000000000000000000010100 i
b00000000000000000000000000000000 j
b00000000000000000000000000010100 k
b00000000000000000000000000010100 l
b00000000000000000000000000011000 m
b00000000000000000000000000011000 o
b00000000000000000000000000010100 p
b00000000000000000000000000011000 q
0r
b00000000000000000000000000001111 s
b00000000000000000000000000000000 t
b00000000000000000000000000001111 u
0v
b00000000000000000010000000001111 w
b00000000000000000010000000001111 y
b00000000000000000010000000000000 {
b00000000000000000000000000010100 |
b00000000000000000010000000000000 }
b00000000000000000000000000010100 ""
b00000000000000000010000000000000 #"
b00000000000000000000000000010100 $"
b00000000000000000010000000001111 &"
b00000000000000000000000000011000 '"
b00000000000000000010000000001111 ("
b01001 *"
b10010 +"
b10011 ,"
b00000000000000000010000000001111 -"
b00000000000000000010000000000000 ."
b00000000000000000000000000001111 /"
01"
b000000001111 2"
b00000000000000000000000000001111 3"
b000000010100 6"
b00000001001001001000100110110011 7"
b101 8"
#550000000
0"
0(
0g
#600000000
1"
b00000001001101000010010000100011 #
b00000000000000000010000000001111 $
b00000000000000000000000000001000 &
b00000000000000000000000000001000 '
1(
b00000001001101000010010000100011 )
b00000000000000000010000000001111 *
b00000000000000000000000000001000 ,
b00000000000000000000000000001000 -
b00000001001101000010010000100011 .
b00000000000000000000000000001000 /
b00000000000000000010000000001111 0
b00000000000000000000000000001000 1
b00000000000000000000000000001000 2
17
19
0;
b00000000000000000000000000011100 <
b00000000000000000000000000011000 =
b00000000000000000000000000100000 >
b00000000000000000000000000011100 ?
b00000000000000000000000000001000 @
b00000000000000000010000000001111 A
b00000000000000000000000000011000 D
b00000000000000000000000000001000 E
b11 F
b1110 G
b0100011 L
b11 R
1S
1T
0U
b00000001001101000010010000100011 V
b00000000000000000000000000001000 W
b0100011 X
b010 Z
b1110 [
b00000000000000000010000000001111 \
b00000000000000000000000000001000 ]
b00000000000000000000000000001000 ^
b11 `
b010 c
b1110 d
b00000000000000000000000000011100 e
1g
b00000000000000000000000000011000 h
b00000000000000000000000000011000 i
b00000000000000000000000000001000 j
b00000000000000000000000000100000 k
b00000000000000000000000000011000 l
b00000000000000000000000000011100 m
b00000000000000000000000000011100 o
b00000000000000000000000000100000 p
b00000000000000000000000000011100 q
1r
b00000000000000000000000000001000 t
b00000000000000000000000000001000 u
b00000000000000000000000000001000 w
b00000000000000000000000000001000 y
b00000000000000000010000000001111 {
b00000000000000000000000000011000 |
b00000000000000000010000000001111 }
b00000000000000000000000000011000 ""
b00000000000000000010000000001111 #"
b00000000000000000000000000011000 $"
b00000000000000000000000000001000 &"
b00000000000000000000000000011100 '"
b00000000000000000000000000001000 ("
0)"
b01000 *"
b10011 +"
b01000 ,"
b00000000000000000000000000001000 -"
b00000000000000000010000000001111 ."
10"
b000000001000 2"
b000000011000 6"
b00000001001101000010010000100011 7"
b110 8"
#650000000
0"
0(
0g
#700000000
1"
b00000000100001000010010100000011 #
b00000000000000000010000000001111 %
b00000000000000000000000000000000 &
b00000000000000000000000000001000 '
1(
b00000000100001000010010100000011 )
b00000000000000000010000000001111 +
b00000000000000000000000000000000 ,
b00000000000000000000000000001000 -
b00000000100001000010010100000011 .
b00000000000000000000000000001000 /
b00000000000000000000000000001000 1
b00000000000000000000000000001000 2
15
16
07
1;
b00000000000000000000000000100000 <
b00000000000000000000000000011100 =
b00000000000000000000000000100100 >
b00000000000000000000000000100000 ?
b00000000000000000000000000000000 @
b00000000000000000010000000001111 B
b00000000000000000000000000000000 C
b00000000000000000000000000011100 D
b00000000000000000000000000000000 E
b0000011 L
1N
1O
0S
1U
b00000000100001000010010100000011 V
b00000000000000000000000000001000 W
b0000011 X
b00000000000000000000000000001000 ]
b00000000000000000000000000001000 ^
b00000000000000000000000000100000 e
1g
b00000000000000000000000000011100 h
b00000000000000000000000000011100 i
b00000000000000000000000000001000 j
b00000000000000000000000000100100 k
b00000000000000000000000000011100 l
b00000000000000000000000000100000 m
b00000000000000000000000000100000 o
b00000000000000000000000000100100 p
b00000000000000000000000000100000 q
b00000000000000000010000000001111 s
b00000000000000000000000000001000 t
b00000000000000000000000000001000 u
1v
b00000000000000000000000000001000 w
b00000000000000000000000000000000 x
b00000000000000000000000000000000 y
b00000000000000000000000000011100 |
b00000000000000000000000000011100 ""
b00000000000000000000000000011100 $"
b00000000000000000000000000000000 &"
b00000000000000000000000000100000 '"
b00000000000000000000000000000000 ("
1)"
b01000 +"
b01010 ,"
b00000000000000000000000000000000 -"
b00000000000000000010000000001111 /"
00"
11"
b000000001000 2"
b00000000000000000010000000001111 3"
b00000000000000000000000000000000 4"
b000000011100 6"
b00000000100001000010010100000011 7"
b111 8"
#750000000
0"
0(
0g
#800000000
1"
b01111111000000000000101000010011 #
b00000000000000000000000000000000 $
b00000000000000000000000000000000 %
b00000000000000000000011111110000 &
b00000000000000000000011111110000 '
1(
b01111111000000000000101000010011 )
b00000000000000000000000000000000 *
b00000000000000000000000000000000 +
b00000000000000000000011111110000 ,
b00000000000000000000011111110000 -
b01111111000000000000101000010011 .
b00000000000000000000011111110000 /
b00000000000000000000000000000000 0
b00000000000000000000011111110000 1
b00000000000000000000011111110000 2
05
06
b00000000000000000000000000100100 <
b00000000000000000000000000100000 =
b00000000000000000000100000010000 >
b00000000000000000000000000100100 ?
b00000000000000000000011111110000 @
b00000000000000000000000000000000 A
b00000000000000000000000000000000 B
b00000000000000000000000000100000 D
b00000000000000000000011111110000 E
b01 F
b0000 G
b0010011 L
0N
0O
b01 R
b01111111000000000000101000010011 V
b00000000000000000000011111110000 W
b0010011 X
b0111111 Y
b000 Z
b0000 [
b00000000000000000000000000000000 \
b00000000000000000000011111110000 ]
b00000000000000000000011111110000 ^
b01 `
1a
b000 c
b0000 d
b00000000000000000000000000100100 e
1g
b00000000000000000000000000100000 h
b00000000000000000000000000100000 i
b00000000000000000000011111110000 j
b00000000000000000000100000010000 k
b00000000000000000000000000100000 l
b00000000000000000000000000100100 m
b00000000000000000000000000100100 o
b00000000000000000000100000010000 p
b00000000000000000000000000100100 q
b00000000000000000000000000000000 s
b00000000000000000000011111110000 t
b00000000000000000000011111110000 u
0v
b00000000000000000000011111110000 w
b00000000000000000000011111110000 y
b00000000000000000000000000000000 {
b00000000000000000000000000100000 |
b00000000000000000000000000000000 }
b00000000000000000000000000100000 ""
b00000000000000000000000000000000 #"
b00000000000000000000000000100000 $"
b00000000000000000000011111110000 &"
b00000000000000000000000000100100 '"
b00000000000000000000011111110000 ("
b00000 *"
b10000 +"
b10100 ,"
b00000000000000000000011111110000 -"
b00000000000000000000000000000000 ."
b00000000000000000000000000000000 /"
01"
b011111110000 2"
b00000000000000000000000000000000 3"
b000000100000 6"
b01111111000000000000101000010011 7"
b1000 8"
#850000000
0"
0(
0g
#900000000
1"
b00001111111100000000101010010011 #
b00000000000000000000000011111111 &
b00000000000000000000000011111111 '
1(
b00001111111100000000101010010011 )
b00000000000000000000000011111111 ,
b00000000000000000000000011111111 -
b00001111111100000000101010010011 .
b00000000000000000000000011111111 /
b00000000000000000000000011111111 1
b00000000000000000000000011111111 2
b00000000000000000000000000101000 <
b00000000000000000000000000100100 =
b00000000000000000000000100100011 >
b00000000000000000000000000101000 ?
b00000000000000000000000011111111 @
b00000000000000000000000000100100 D
b00000000000000000000000011111111 E
b00001111111100000000101010010011 V
b00000000000000000000000011111111 W
b0000111 Y
b00000000000000000000000011111111 ]
b00000000000000000000000011111111 ^
0a
b00000000000000000000000000101000 e
1g
b00000000000000000000000000100100 h
b00000000000000000000000000100100 i
b00000000000000000000000011111111 j
b00000000000000000000000100100011 k
b00000000000000000000000000100100 l
b00000000000000000000000000101000 m
b00000000000000000000000000101000 o
b00000000000000000000000100100011 p
b00000000000000000000000000101000 q
b00000000000000000000000011111111 t
b00000000000000000000000011111111 u
b00000000000000000000000011111111 w
b00000000000000000000000011111111 y
b00000000000000000000000000100100 |
b00000000000000000000000000100100 ""
b00000000000000000000000000100100 $"
b00000000000000000000000011111111 &"
b00000000000000000000000000101000 '"
b00000000000000000000000011111111 ("
b11111 +"
b10101 ,"
b00000000000000000000000011111111 -"
b000011111111 2"
b000000100100 6"
b00001111111100000000101010010011 7"
b1001 8"
#950000000
0"
0(
0g
#1000000000
1"
b00000001010010101111101100110011 #
b00000000000000000000011111110000 $
b00000000000000000000000000000000 &
b00000000000000000000000000000000 '
1(
b00000001010010101111101100110011 )
b00000000000000000000011111110000 *
b00000000000000000000000000000000 ,
b00000000000000000000000000000000 -
b00000001010010101111101100110011 .
b00000000000000000000000000000000 /
b00000000000000000000011111110000 0
b00000000000000000000000000000000 1
b00000000000000000000000000000000 2
09
b00000000000000000000000000101100 <
b00000000000000000000000000101000 =
b00000000000000000000000000101000 >
b00000000000000000000000000101100 ?
b00000000000000000000000000000000 @
b00000000000000000000011111110000 A
b00000000000000000000000000101000 D
b00000000000000000000000000000000 E
b00 F
b0010 G
b0110011 L
b00 R
0T
b00000001010010101111101100110011 V
b00000000000000000000000000000000 W
b0110011 X
b0000000 Y
b111 Z
b0010 [
b00000000000000000000011111110000 \
b00000000000000000000000000000000 ]
b00000000000000000000000000000000 ^
b00 `
b111 c
b0010 d
b00000000000000000000000000101100 e
1g
b00000000000000000000000000101000 h
b00000000000000000000000000101000 i
b00000000000000000000000000000000 j
b00000000000000000000000000101000 k
b00000000000000000000000000101000 l
b00000000000000000000000000101100 m
b00000000000000000000000000101100 o
b00000000000000000000000000101000 p
b00000000000000000000000000101100 q
0r
b00000000000000000000000000000000 t
b00000000000000000000000000000000 u
b00000000000000000000000000000000 w
b00000000000000000000000000000000 y
b00000000000000000000011111110000 {
b00000000000000000000000000101000 |
b00000000000000000000011111110000 }
b00000000000000000000000000101000 ""
b00000000000000000000011111110000 #"
b00000000000000000000000000101000 $"
b00000000000000000000000000000000 &"
b00000000000000000000000000101100 '"
b00000000000000000000000000000000 ("
b10101 *"
b10100 +"
b10110 ,"
b00000000000000000000000000000000 -"
b00000000000000000000011111110000 ."
b000000000000 2"
b000000101000 6"
b00000001010010101111101100110011 7"
b1010 8"
#1050000000
0"
0(
0g
#1100000000
1"
b00000001010010101110101110110011 #
b00000000000000000000011111110000 &
1(
b00000001010010101110101110110011 )
b00000000000000000000011111110000 ,
b00000001010010101110101110110011 .
b00000000000000000000011111110000 2
b00000000000000000000000000110000 <
b00000000000000000000000000101100 =
b00000000000000000000000000101100 >
b00000000000000000000000000110000 ?
b00000000000000000000011111110000 @
b00000000000000000000000000101100 D
b00000000000000000000011111110000 E
b0011 G
b00000001010010101110101110110011 V
b110 Z
b0011 [
b00000000000000000000011111110000 ^
b110 c
b0011 d
b00000000000000000000000000110000 e
1g
b00000000000000000000000000101100 h
b00000000000000000000000000101100 i
b00000000000000000000000000101100 k
b00000000000000000000000000101100 l
b00000000000000000000000000110000 m
b00000000000000000000000000110000 o
b00000000000000000000000000101100 p
b00000000000000000000000000110000 q
b00000000000000000000011111110000 w
b00000000000000000000011111110000 y
b00000000000000000000000000101100 |
b00000000000000000000000000101100 ""
b00000000000000000000000000101100 $"
b00000000000000000000011111110000 &"
b00000000000000000000000000110000 '"
b00000000000000000000011111110000 ("
b10111 ,"
b00000000000000000000011111110000 -"
b011111110000 2"
b000000101100 6"
b00000001010010101110101110110011 7"
b1011 8"
#1150000000
0"
0(
0g
#1200000000
1"
b00000001010010101100110000110011 #
1(
b00000001010010101100110000110011 )
b00000001010010101100110000110011 .
b00000000000000000000000000110100 <
b00000000000000000000000000110000 =
b00000000000000000000000000110000 >
b00000000000000000000000000110100 ?
b00000000000000000000000000110000 D
b0100 G
b00000001010010101100110000110011 V
b100 Z
b0100 [
b100 c
b0100 d
b00000000000000000000000000110100 e
1g
b00000000000000000000000000110000 h
b00000000000000000000000000110000 i
b00000000000000000000000000110000 k
b00000000000000000000000000110000 l
b00000000000000000000000000110100 m
b00000000000000000000000000110100 o
b00000000000000000000000000110000 p
b00000000000000000000000000110100 q
b00000000000000000000000000110000 |
b00000000000000000000000000110000 ""
b00000000000000000000000000110000 $"
b00000000000000000000000000110100 '"
b11000 ,"
b000000110000 6"
b00000001010010101100110000110011 7"
b1100 8"
#1250000000
0"
0(
0g
#1300000000
1"
b00000000010010101001001100010011 #
b00000000000000000111111100000000 &
b00000000000000000000000000000100 '
1(
b00000000010010101001001100010011 )
b00000000000000000111111100000000 ,
b00000000000000000000000000000100 -
b00000000010010101001001100010011 .
b00000000000000000000000000000100 /
b00000000000000000000000000000100 1
b00000000000000000111111100000000 2
19
b00000000000000000000000000111000 <
b00000000000000000000000000110100 =
b00000000000000000000000000111000 >
b00000000000000000000000000111000 ?
b00000000000000000111111100000000 @
b00000000000000000000000000110100 D
b00000000000000000111111100000000 E
b01 F
b0101 G
b0010011 L
b01 R
1T
b00000000010010101001001100010011 V
b00000000000000000000000000000100 W
b0010011 X
b001 Z
b0101 [
b00000000000000000000000000000100 ]
b00000000000000000111111100000000 ^
b01 `
b001 c
b0101 d
b00000000000000000000000000111000 e
1g
b00000000000000000000000000110100 h
b00000000000000000000000000110100 i
b00000000000000000000000000000100 j
b00000000000000000000000000111000 k
b00000000000000000000000000110100 l
b00000000000000000000000000111000 m
b00000000000000000000000000111000 o
b00000000000000000000000000111000 p
b00000000000000000000000000111000 q
1r
b00000000000000000000000000000100 t
b00000000000000000000000000000100 u
b00000000000000000111111100000000 w
b00000000000000000111111100000000 y
b00000000000000000000000000110100 |
b00000000000000000000000000110100 ""
b00000000000000000000000000110100 $"
b00000000000000000111111100000000 &"
b00000000000000000000000000111000 '"
b00000000000000000111111100000000 ("
b00100 +"
b00110 ,"
b00000000000000000111111100000000 -"
b111100000000 2"
b000000110100 6"
b00000000010010101001001100010011 7"
b1101 8"
#1350000000
0"
0(
0g
