RISC-V-Uniciclo/src/testbench_waveform.vcd
$date
  Sat Dec 16 18:12:06 2023
$end
$version
  GHDL v0
$end
$timescale
  1 fs
$end
$scope module standard $end
$upscope $end
$scope module textio $end
$upscope $end
$scope module std_logic_1164 $end
$upscope $end
$scope module numeric_std $end
$upscope $end
$scope module testbench_rv32_processor $end
$var reg 1 ! test_finished $end
$var reg 1 " clock $end
$var reg 32 # instruction[31:0] $end
$var reg 32 $ rs1[31:0] $end
$var reg 32 % rs2[31:0] $end
$var reg 32 & rd[31:0] $end
$var reg 32 ' immediate[31:0] $end
$scope module uut $end
$var reg 1 ( clock $end
$var reg 32 ) instruction[31:0] $end
$var reg 32 * rs1[31:0] $end
$var reg 32 + rs2[31:0] $end
$var reg 32 , rd[31:0] $end
$var reg 32 - immediate[31:0] $end
$var reg 32 . instruction_signal[31:0] $end
$var reg 32 / immout_signal[31:0] $end
$var reg 32 0 ain_signal[31:0] $end
$var reg 32 1 bin_signal[31:0] $end
$var reg 32 2 zout_signal[31:0] $end
$var reg 1 3 zeroout_signal $end
$var reg 2 4 aluop_signal[1:0] $end
$var reg 4 5 aluopout_signal[3:0] $end
$var reg 1 6 branch_signal $end
$var reg 1 7 memtoreg_signal $end
$var reg 1 8 memread_signal $end
$var reg 1 9 memwrite_signal $end
$var reg 1 : auipc_signal $end
$var reg 1 ; alusrc_signal $end
$var reg 1 < jal_signal $end
$var reg 1 = regwrite_signal $end
$var reg 32 > addr_in_signal[31:0] $end
$var reg 1 ? rst_signal $end
$var reg 32 @ addr_out_signal[31:0] $end
$var reg 32 A adderout_signal[31:0] $end
$var reg 32 B adder4out_signal[31:0] $end
$var reg 32 C write_data_signal[31:0] $end
$var reg 32 D rs1_signal[31:0] $end
$var reg 32 E rs2_signal[31:0] $end
$var reg 32 F data_out_signal[31:0] $end
$var reg 32 G adder_in1_signal[31:0] $end
$var reg 32 H write_or_jal_signal[31:0] $end
$scope module control_inst01 $end
$var reg 7 I op[6:0] $end
$var reg 1 J branch $end
$var reg 1 K memread $end
$var reg 1 L memtoreg $end
$var reg 1 M auipc $end
$var reg 1 N jal $end
$var reg 2 O aluop[1:0] $end
$var reg 1 P memwrite $end
$var reg 1 Q alusrc $end
$var reg 1 R regwrite $end
$upscope $end
$scope module genimm_inst02 $end
$var reg 32 S instruction[31:0] $end
$var reg 32 T immediate[31:0] $end
$var reg 32 U i_type[31:0] $end
$var reg 32 V s_type[31:0] $end
$var reg 32 W sb_type[31:0] $end
$var reg 32 X uj_type[31:0] $end
$var reg 32 Y u_type[31:0] $end
$var reg 3 Z selector[2:0] $end
$scope module mux_inst $end
$var reg 32 [ a[31:0] $end
$var reg 32 \ b[31:0] $end
$var reg 32 ] c[31:0] $end
$var reg 32 ^ d[31:0] $end
$var reg 32 _ e[31:0] $end
$var reg 32 ` f[31:0] $end
$var reg 32 a g[31:0] $end
$var reg 32 b h[31:0] $end
$var reg 3 c sel[2:0] $end
$var reg 32 d result[31:0] $end
$upscope $end
$upscope $end
$scope module alu_inst03 $end
$var reg 4 e opcode[3:0] $end
$var reg 32 f a[31:0] $end
$var reg 32 g b[31:0] $end
$var reg 32 h z[31:0] $end
$var reg 1 i zero $end
$upscope $end
$scope module control_alu_inst04 $end
$var reg 2 j ulaop[1:0] $end
$var reg 1 k funct7 $end
$var reg 1 l auipcin $end
$var reg 3 m funct3[2:0] $end
$var reg 4 n opout[3:0] $end
$upscope $end
$scope module pc_inst05 $end
$var reg 32 o addr_in[31:0] $end
$var reg 1 p rst $end
$var reg 1 q clk $end
$var reg 32 r addr_out[31:0] $end
$upscope $end
$scope module adder_inst06 $end
$var reg 32 s a[31:0] $end
$var reg 32 t b[31:0] $end
$var reg 32 u z[31:0] $end
$upscope $end
$scope module adder4_inst07 $end
$var reg 32 v a[31:0] $end
$var reg 32 w z[31:0] $end
$upscope $end
$scope module muxa_inst08 $end
$var reg 1 x sel $end
$var reg 32 y a[31:0] $end
$var reg 32 z b[31:0] $end
$var reg 32 { result[31:0] $end
$upscope $end
$scope module muxb_inst09 $end
$var reg 1 | sel $end
$var reg 32 } a[31:0] $end
$var reg 32 !" b[31:0] $end
$var reg 32 "" result[31:0] $end
$upscope $end
$scope module muxc_inst10 $end
$var reg 1 #" sel $end
$var reg 32 $" a[31:0] $end
$var reg 32 %" b[31:0] $end
$var reg 32 &" result[31:0] $end
$upscope $end
$scope module muxd_inst11 $end
$var reg 1 '" sel $end
$var reg 32 (" a[31:0] $end
$var reg 32 )" b[31:0] $end
$var reg 32 *" result[31:0] $end
$upscope $end
$scope module muxg_inst14 $end
$var reg 1 +" sel $end
$var reg 32 ," a[31:0] $end
$var reg 32 -" b[31:0] $end
$var reg 32 ." result[31:0] $end
$upscope $end
$scope module muxh_inst15 $end
$var reg 1 /" sel $end
$var reg 32 0" a[31:0] $end
$var reg 32 1" b[31:0] $end
$var reg 32 2" result[31:0] $end
$upscope $end
$scope module mem_reg_inst16 $end
$var reg 1 3" wren $end
$var reg 5 4" rs1[4:0] $end
$var reg 5 5" rs2[4:0] $end
$var reg 5 6" rd[4:0] $end
$var reg 32 7" data[31:0] $end
$var reg 32 8" ro1[31:0] $end
$var reg 32 9" ro2[31:0] $end
$var integer 32 :" address1_signal $end
$var integer 32 ;" address2_signal $end
$var integer 32 <" write_address_signal $end
$comment breg is not handled $end
$upscope $end
$scope module mem_data_inst17 $end
$var reg 1 =" we $end
$var reg 1 >" re $end
$var reg 12 ?" address[11:0] $end
$var reg 32 @" datain[31:0] $end
$var reg 32 A" dataout[31:0] $end
$var integer 32 B" address_signal $end
$comment newramsignal is not handled $end
$upscope $end
$scope module mem_instr_inst18 $end
$var reg 12 C" address[11:0] $end
$var reg 32 D" dataout[31:0] $end
$var integer 32 E" address_signal $end
$comment newromsignal is not handled $end
$upscope $end
$upscope $end
$upscope $end
$enddefinitions $end
#0
0!
0"
b00001111111100000110001010010011 #
b00000000000000000000000000000000 $
b00000000000000000000000000000000 %
b00000000000000000000000011111111 &
b00000000000000000000000011111111 '
0(
b00001111111100000110001010010011 )
b00000000000000000000000000000000 *
b00000000000000000000000000000000 +
b00000000000000000000000011111111 ,
b00000000000000000000000011111111 -
b00001111111100000110001010010011 .
b00000000000000000000000011111111 /
b00000000000000000000000000000000 0
b00000000000000000000000011111111 1
b00000000000000000000000011111111 2
03
b01 4
b0011 5
06
07
08
09
0:
1;
0<
1=
b00000000000000000000000000000100 >
0?
b00000000000000000000000000000000 @
b00000000000000000000000011111111 A
b00000000000000000000000000000100 B
b00000000000000000000000011111111 C
b00000000000000000000000000000000 D
b00000000000000000000000000000000 E
b00000000000000000000000000000000 F
b00000000000000000000000000000000 G
b00000000000000000000000011111111 H
b0010011 I
0J
0K
0L
0M
0N
b01 O
0P
1Q
1R
b00001111111100000110001010010011 S
b00000000000000000000000011111111 T
b00000000000000000000000011111111 U
b00000000000000000000000011100101 V
b00000000000000000000100011100100 W
b00000000000000000110100011111110 X
b00001111111100000110000000000000 Y
b000 Z
b00000000000000000000000011111111 [
b00000000000000000000000011100101 \
b00000000000000000000100011100100 ]
b00001111111100000110000000000000 ^
b00000000000000000110100011111110 _
b00000000000000000000000000000000 `
b00000000000000000000000000000000 a
b00000000000000000000000000000000 b
b000 c
b00000000000000000000000011111111 d
b0011 e
b00000000000000000000000000000000 f
b00000000000000000000000011111111 g
b00000000000000000000000011111111 h
0i
b01 j
0k
0l
b110 m
b0011 n
b00000000000000000000000000000100 o
0p
0q
b00000000000000000000000000000000 r
b00000000000000000000000000000000 s
b00000000000000000000000011111111 t
b00000000000000000000000011111111 u
b00000000000000000000000000000000 v
b00000000000000000000000000000100 w
0x
b00000000000000000000000000000100 y
b00000000000000000000000011111111 z
b00000000000000000000000000000100 {
1|
b00000000000000000000000000000000 }
b00000000000000000000000011111111 !"
b00000000000000000000000011111111 ""
0#"
b00000000000000000000000011111111 $"
b00000000000000000000000000000000 %"
b00000000000000000000000011111111 &"
0'"
b00000000000000000000000000000000 ("
b00000000000000000000000000000000 )"
b00000000000000000000000000000000 *"
0+"
b00000000000000000000000000000000 ,"
b00000000000000000000000000000000 -"
b00000000000000000000000000000000 ."
0/"
b00000000000000000000000011111111 0"
b00000000000000000000000000000100 1"
b00000000000000000000000011111111 2"
13"
b00000 4"
b11111 5"
b00101 6"
b00000000000000000000000011111111 7"
b00000000000000000000000000000000 8"
b00000000000000000000000000000000 9"
b0 :"
b11111 ;"
b101 <"
0="
0>"
b000011111111 ?"
b00000000000000000000000000000000 @"
b00000000000000000000000000000000 A"
b111111 B"
b000000000000 C"
b00001111111100000110001010010011 D"
b0 E"
#5000000
1"
b00001111000000101111001010010011 #
b00000000000000000000000000000100 $
b00000000000000000000000000000000 &
b00000000000000000000000011110000 '
1(
b00001111000000101111001010010011 )
b00000000000000000000000000000100 *
b00000000000000000000000000000000 ,
b00000000000000000000000011110000 -
b00001111000000101111001010010011 .
b00000000000000000000000011110000 /
b00000000000000000000000000000100 0
b00000000000000000000000011110000 1
b00000000000000000000000000000000 2
b0010 5
b00000000000000000000000000001000 >
b00000000000000000000000000000100 @
b00000000000000000000000011110100 A
b00000000000000000000000000001000 B
b00000000000000000000000000000000 C
b00000000000000000000000000000100 D
b00000000000000000000000000000100 G
b00000000000000000000000000000000 H
b00001111000000101111001010010011 S
b00000000000000000000000011110000 T
b00000000000000000000000011110000 U
b00000000000000101111000011110000 X
b00001111000000101111000000000000 Y
b00000000000000000000000011110000 [
b00001111000000101111000000000000 ^
b00000000000000101111000011110000 _
b00000000000000000000000011110000 d
b0010 e
b00000000000000000000000000000100 f
b00000000000000000000000011110000 g
b00000000000000000000000000000000 h
b111 m
b0010 n
b00000000000000000000000000001000 o
1q
b00000000000000000000000000000100 r
b00000000000000000000000000000100 s
b00000000000000000000000011110000 t
b00000000000000000000000011110100 u
b00000000000000000000000000000100 v
b00000000000000000000000000001000 w
b00000000000000000000000000001000 y
b00000000000000000000000011110100 z
b00000000000000000000000000001000 {
b00000000000000000000000011110000 !"
b00000000000000000000000011110000 ""
b00000000000000000000000000000000 $"
b00000000000000000000000000000000 &"
b00000000000000000000000000000100 ("
b00000000000000000000000000000100 )"
b00000000000000000000000000000100 *"
b00000000000000000000000000000100 ,"
b00000000000000000000000000000100 -"
b00000000000000000000000000000100 ."
b00000000000000000000000000000000 0"
b00000000000000000000000000001000 1"
b00000000000000000000000000000000 2"
b00101 4"
b10000 5"
b00000000000000000000000000000000 7"
b00000000000000000000000000000100 8"
b101 :"
b10000 ;"
b000000000000 ?"
b0 B"
b000000000100 C"
b00001111000000101111001010010011 D"
b1 E"
#10000000
0"
0(
0q
#15000000
1"
b00000000000000000010010000110111 #
b00000000000000000000000000000000 $
b00000000000000000000000000000000 &
b00000000000000000000000000000000 '
1(
b00000000000000000010010000110111 )
b00000000000000000000000000000000 *
b00000000000000000000000000000000 ,
b00000000000000000000000000000000 -
b00000000000000000010010000110111 .
b00000000000000000000000000000000 /
b00000000000000000000000000000000 0
b00000000000000000000000000000000 1
b00000000000000000000000000000000 2
03
b11 4
b1110 5
b00000000000000000000000000001100 >
b00000000000000000000000000001000 @
b00000000000000000000000000001000 A
b00000000000000000000000000001100 B
b00000000000000000000000000000000 C
b00000000000000000000000000000000 D
b00000000000000000000000000001000 G
b00000000000000000000000000000000 H
b0110111 I
b11 O
b00000000000000000010010000110111 S
b00000000000000000000000000000000 T
b00000000000000000000000000000000 U
b00000000000000000000000000001000 V
b00000000000000000000000000001000 W
b00000000000000000010000000000000 X
b00000000000000000010000000000000 Y
b00000000000000000000000000000000 [
b00000000000000000000000000001000 \
b00000000000000000000000000001000 ]
b00000000000000000010000000000000 ^
b00000000000000000010000000000000 _
b00000000000000000000000000000000 d
b1110 e
b00000000000000000000000000000000 f
b00000000000000000000000000000000 g
b00000000000000000000000000000000 h
0i
b11 j
b010 m
b1110 n
b00000000000000000000000000001100 o
1q
b00000000000000000000000000001000 r
b00000000000000000000000000001000 s
b00000000000000000000000000000000 t
b00000000000000000000000000001000 u
b00000000000000000000000000001000 v
b00000000000000000000000000001100 w
b00000000000000000000000000001100 y
b00000000000000000000000000001000 z
b00000000000000000000000000001100 {
b00000000000000000000000000000000 !"
b00000000000000000000000000000000 ""
b00000000000000000000000000000000 $"
b00000000000000000000000000000000 &"
b00000000000000000000000000000000 ("
b00000000000000000000000000001000 )"
b00000000000000000000000000000000 *"
b00000000000000000000000000001000 ,"
b00000000000000000000000000000000 -"
b00000000000000000000000000001000 ."
b00000000000000000000000000000000 0"
b00000000000000000000000000001100 1"
b00000000000000000000000000000000 2"
b00000 4"
b00000 5"
b01000 6"
b00000000000000000000000000000000 7"
b00000000000000000000000000000000 8"
b0 :"
b0 ;"
b1000 <"
b000000000000 ?"
b0 B"
b000000001000 C"
b00000000000000000010010000110111 D"
b10 E"
#20000000
0"
0(
0q
#25000000
1"
b00000000000000000010111100010111 #
b00000000000000000000000000001100 &
1(
b00000000000000000010111100010111 )
b00000000000000000000000000001100 ,
b00000000000000000010111100010111 .
b00000000000000000000000000001100 0
b00000000000000000000000000001100 2
b1111 5
1:
b00000000000000000000000000010000 >
b00000000000000000000000000001100 @
b00000000000000000000000000001100 A
b00000000000000000000000000010000 B
b00000000000000000000000000001100 C
b00000000000000000000000000001100 G
b00000000000000000000000000001100 H
b0010111 I
1M
b00000000000000000010111100010111 S
b00000000000000000000000000011110 V
b00000000000000000000000000011110 W
b00000000000000000000000000011110 \
b00000000000000000000000000011110 ]
b1111 e
b00000000000000000000000000001100 f
b00000000000000000000000000001100 h
1l
b1111 n
b00000000000000000000000000010000 o
1q
b00000000000000000000000000001100 r
b00000000000000000000000000001100 s
b00000000000000000000000000001100 u
b00000000000000000000000000001100 v
b00000000000000000000000000010000 w
b00000000000000000000000000010000 y
b00000000000000000000000000001100 z
b00000000000000000000000000010000 {
b00000000000000000000000000001100 $"
b00000000000000000000000000001100 &"
1'"
b00000000000000000000000000001100 )"
b00000000000000000000000000001100 *"
b00000000000000000000000000001100 ,"
b00000000000000000000000000001100 ."
b00000000000000000000000000001100 0"
b00000000000000000000000000010000 1"
b00000000000000000000000000001100 2"
b11110 6"
b00000000000000000000000000001100 7"
b11110 <"
b000000001100 ?"
b11 B"
b000000001100 C"
b00000000000000000010111100010111 D"
b11 E"
#30000000
0"
0(
0q
#35000000
1"
b00000000000001000010010010000011 #
b00000000000000000000000000001111 &
1(
b00000000000001000010010010000011 )
b00000000000000000000000000001111 ,
b00000000000001000010010010000011 .
b00000000000000000000000000000000 0
b00000000000000000000000000000000 2
b1110 5
17
18
0:
b00000000000000000000000000010100 >
b00000000000000000000000000010000 @
b00000000000000000000000000010000 A
b00000000000000000000000000010100 B
b00000000000000000000000000001111 C
b00000000000000000000000000001111 F
b00000000000000000000000000010000 G
b00000000000000000000000000001111 H
b0000011 I
1K
1L
0M
b00000000000001000010010010000011 S
b00000000000000000000000000001001 V
b00000000000000000000100000001000 W
b00000000000001000010000000000000 X
b00000000000001000010000000000000 Y
b00000000000000000000000000001001 \
b00000000000000000000100000001000 ]
b00000000000001000010000000000000 ^
b00000000000001000010000000000000 _
b1110 e
b00000000000000000000000000000000 f
b00000000000000000000000000000000 h
0l
b1110 n
b00000000000000000000000000010100 o
1q
b00000000000000000000000000010000 r
b00000000000000000000000000010000 s
b00000000000000000000000000010000 u
b00000000000000000000000000010000 v
b00000000000000000000000000010100 w
b00000000000000000000000000010100 y
b00000000000000000000000000010000 z
b00000000000000000000000000010100 {
1#"
b00000000000000000000000000000000 $"
b00000000000000000000000000001111 %"
b00000000000000000000000000001111 &"
0'"
b00000000000000000000000000010000 )"
b00000000000000000000000000000000 *"
b00000000000000000000000000010000 ,"
b00000000000000000000000000010000 ."
b00000000000000000000000000001111 0"
b00000000000000000000000000010100 1"
b00000000000000000000000000001111 2"
b01000 4"
b01001 6"
b00000000000000000000000000001111 7"
b1000 :"
b1001 <"
1>"
b000000000000 ?"
b00000000000000000000000000001111 A"
b0 B"
b000000010000 C"
b00000000000001000010010010000011 D"
b100 E"
#40000000
0"
0(
0q
#45000000
1"
b00000000010001000010100100000011 #
b00000000000000000000000000111111 &
b00000000000000000000000000000100 '
1(
b00000000010001000010100100000011 )
b00000000000000000000000000111111 ,
b00000000000000000000000000000100 -
b00000000010001000010100100000011 .
b00000000000000000000000000000100 /
b00000000000000000000000000000100 1
b00000000000000000000000000000100 2
b00000000000000000000000000011000 >
b00000000000000000000000000010100 @
b00000000000000000000000000011000 A
b00000000000000000000000000011000 B
b00000000000000000000000000111111 C
b00000000000000000000000000111111 F
b00000000000000000000000000010100 G
b00000000000000000000000000111111 H
b00000000010001000010100100000011 S
b00000000000000000000000000000100 T
b00000000000000000000000000000100 U
b00000000000000000000000000010010 V
b00000000000000000000000000010010 W
b00000000000001000010000000000100 X
b00000000010001000010000000000000 Y
b00000000000000000000000000000100 [
b00000000000000000000000000010010 \
b00000000000000000000000000010010 ]
b00000000010001000010000000000000 ^
b00000000000001000010000000000100 _
b00000000000000000000000000000100 d
b00000000000000000000000000000100 g
b00000000000000000000000000000100 h
b00000000000000000000000000011000 o
1q
b00000000000000000000000000010100 r
b00000000000000000000000000010100 s
b00000000000000000000000000000100 t
b00000000000000000000000000011000 u
b00000000000000000000000000010100 v
b00000000000000000000000000011000 w
b00000000000000000000000000011000 y
b00000000000000000000000000011000 z
b00000000000000000000000000011000 {
b00000000000000000000000000000100 !"
b00000000000000000000000000000100 ""
b00000000000000000000000000000100 $"
b00000000000000000000000000111111 %"
b00000000000000000000000000111111 &"
b00000000000000000000000000010100 )"
b00000000000000000000000000010100 ,"
b00000000000000000000000000010100 ."
b00000000000000000000000000111111 0"
b00000000000000000000000000011000 1"
b00000000000000000000000000111111 2"
b00100 5"
b10010 6"
b00000000000000000000000000111111 7"
b100 ;"
b10010 <"
b000000000100 ?"
b00000000000000000000000000111111 A"
b1 B"
b000000010100 C"
b00000000010001000010100100000011 D"
b101 E"
#50000000
0"
0(
0q
#55000000
1"
b00000001001001001000100110110011 #
b00000000000000000000000000001100 $
b00000000000000000000000000001111 %
b00000000000000000000000000011011 &
b00000000000000000000000000010010 '
1(
b00000001001001001000100110110011 )
b00000000000000000000000000001100 *
b00000000000000000000000000001111 +
b00000000000000000000000000011011 ,
b00000000000000000000000000010010 -
b00000001001001001000100110110011 .
b00000000000000000000000000010010 /
b00000000000000000000000000001100 0
b00000000000000000000000000001111 1
b00000000000000000000000000011011 2
b00 4
b0000 5
07
08
0;
b00000000000000000000000000011100 >
b00000000000000000000000000011000 @
b00000000000000000000000000101010 A
b00000000000000000000000000011100 B
b00000000000000000000000000011011 C
b00000000000000000000000000001100 D
b00000000000000000000000000001111 E
b00000000000000000000000000000000 F
b00000000000000000000000000011000 G
b00000000000000000000000000011011 H
b0110011 I
0K
0L
b00 O
0Q
b00000001001001001000100110110011 S
b00000000000000000000000000010010 T
b00000000000000000000000000010010 U
b00000000000000000000000000010011 V
b00000000000000000000100000010010 W
b00000000000001001000000000010010 X
b00000001001001001000000000000000 Y
b00000000000000000000000000010010 [
b00000000000000000000000000010011 \
b00000000000000000000100000010010 ]
b00000001001001001000000000000000 ^
b00000000000001001000000000010010 _
b00000000000000000000000000010010 d
b0000 e
b00000000000000000000000000001100 f
b00000000000000000000000000001111 g
b00000000000000000000000000011011 h
b00 j
b000 m
b0000 n
b00000000000000000000000000011100 o
1q
b00000000000000000000000000011000 r
b00000000000000000000000000011000 s
b00000000000000000000000000010010 t
b00000000000000000000000000101010 u
b00000000000000000000000000011000 v
b00000000000000000000000000011100 w
b00000000000000000000000000011100 y
b00000000000000000000000000101010 z
b00000000000000000000000000011100 {
0|
b00000000000000000000000000001111 }
b00000000000000000000000000010010 !"
b00000000000000000000000000001111 ""
0#"
b00000000000000000000000000011011 $"
b00000000000000000000000000000000 %"
b00000000000000000000000000011011 &"
b00000000000000000000000000001100 ("
b00000000000000000000000000011000 )"
b00000000000000000000000000001100 *"
b00000000000000000000000000011000 ,"
b00000000000000000000000000001100 -"
b00000000000000000000000000011000 ."
b00000000000000000000000000011011 0"
b00000000000000000000000000011100 1"
b00000000000000000000000000011011 2"
b01001 4"
b10010 5"
b10011 6"
b00000000000000000000000000011011 7"
b00000000000000000000000000001100 8"
b00000000000000000000000000001111 9"
b1001 :"
b10010 ;"
b10011 <"
0>"
b000000011011 ?"
b00000000000000000000000000001111 @"
b00000000000000000000000000000000 A"
b110 B"
b000000011000 C"
b00000001001001001000100110110011 D"
b110 E"
#60000000
0"
0(
0q
#65000000
1"
b00000001001101000010010000100011 #
b00000000000000000000000000000000 $
b00000000000000000000000000111111 %
b00000000000000000000000000010011 &
b00000000000000000000000000010011 '
1(
b00000001001101000010010000100011 )
b00000000000000000000000000000000 *
b00000000000000000000000000111111 +
b00000000000000000000000000010011 ,
b00000000000000000000000000010011 -
b00000001001101000010010000100011 .
b00000000000000000000000000010011 /
b00000000000000000000000000000000 0
b00000000000000000000000000010011 1
b00000000000000000000000000010011 2
03
b11 4
b1110 5
19
1;
0=
b00000000000000000000000000100000 >
b00000000000000000000000000011100 @
b00000000000000000000000000101111 A
b00000000000000000000000000100000 B
b00000000000000000000000000010011 C
b00000000000000000000000000000000 D
b00000000000000000000000000111111 E
b00000000000000000000000000011100 G
b00000000000000000000000000010011 H
b0100011 I
b11 O
1P
1Q
0R
b00000001001101000010010000100011 S
b00000000000000000000000000010011 T
b00000000000000000000000000010011 U
b00000000000000000000000000001000 V
b00000000000000000000000000001000 W
b00000000000001000010100000010010 X
b00000001001101000010000000000000 Y
b00000000000000000000000000010011 [
b00000000000000000000000000001000 \
b00000000000000000000000000001000 ]
b00000001001101000010000000000000 ^
b00000000000001000010100000010010 _
b00000000000000000000000000010011 d
b1110 e
b00000000000000000000000000000000 f
b00000000000000000000000000010011 g
b00000000000000000000000000010011 h
0i
b11 j
b010 m
b1110 n
b00000000000000000000000000100000 o
1q
b00000000000000000000000000011100 r
b00000000000000000000000000011100 s
b00000000000000000000000000010011 t
b00000000000000000000000000101111 u
b00000000000000000000000000011100 v
b00000000000000000000000000100000 w
b00000000000000000000000000100000 y
b00000000000000000000000000101111 z
b00000000000000000000000000100000 {
1|
b00000000000000000000000000111111 }
b00000000000000000000000000010011 !"
b00000000000000000000000000010011 ""
b00000000000000000000000000010011 $"
b00000000000000000000000000010011 &"
b00000000000000000000000000000000 ("
b00000000000000000000000000011100 )"
b00000000000000000000000000000000 *"
b00000000000000000000000000011100 ,"
b00000000000000000000000000000000 -"
b00000000000000000000000000011100 ."
b00000000000000000000000000010011 0"
b00000000000000000000000000100000 1"
b00000000000000000000000000010011 2"
03"
b01000 4"
b10011 5"
b01000 6"
b00000000000000000000000000010011 7"
b00000000000000000000000000000000 8"
b00000000000000000000000000111111 9"
b1000 :"
b10011 ;"
b1000 <"
1="
b000000010011 ?"
b00000000000000000000000000111111 @"
b100 B"
b000000011100 C"
b00000001001101000010010000100011 D"
b111 E"
#70000000
0"
0(
0q
#75000000
1"
b00000000100001000010010100000011 #
b00000000000000000000000000000000 %
b00000000000000000000000000000000 &
b00000000000000000000000000001000 '
1(
b00000000100001000010010100000011 )
b00000000000000000000000000000000 +
b00000000000000000000000000000000 ,
b00000000000000000000000000001000 -
b00000000100001000010010100000011 .
b00000000000000000000000000001000 /
b00000000000000000000000000001000 1
b00000000000000000000000000001000 2
17
18
09
1=
b00000000000000000000000000100100 >
b00000000000000000000000000100000 @
b00000000000000000000000000101000 A
b00000000000000000000000000100100 B
b00000000000000000000000000000000 C
b00000000000000000000000000000000 E
b00000000000000000000000000000000 F
b00000000000000000000000000100000 G
b00000000000000000000000000000000 H
b0000011 I
1K
1L
0P
1R
b00000000100001000010010100000011 S
b00000000000000000000000000001000 T
b00000000000000000000000000001000 U
b00000000000000000000000000001010 V
b00000000000000000000000000001010 W
b00000000000001000010000000001000 X
b00000000100001000010000000000000 Y
b00000000000000000000000000001000 [
b00000000000000000000000000001010 \
b00000000000000000000000000001010 ]
b00000000100001000010000000000000 ^
b00000000000001000010000000001000 _
b00000000000000000000000000001000 d
b00000000000000000000000000001000 g
b00000000000000000000000000001000 h
b00000000000000000000000000100100 o
1q
b00000000000000000000000000100000 r
b00000000000000000000000000100000 s
b00000000000000000000000000001000 t
b00000000000000000000000000101000 u
b00000000000000000000000000100000 v
b00000000000000000000000000100100 w
b00000000000000000000000000100100 y
b00000000000000000000000000101000 z
b00000000000000000000000000100100 {
b00000000000000000000000000000000 }
b00000000000000000000000000001000 !"
b00000000000000000000000000001000 ""
1#"
b00000000000000000000000000001000 $"
b00000000000000000000000000000000 %"
b00000000000000000000000000000000 &"
b00000000000000000000000000100000 )"
b00000000000000000000000000100000 ,"
b00000000000000000000000000100000 ."
b00000000000000000000000000000000 0"
b00000000000000000000000000100100 1"
b00000000000000000000000000000000 2"
13"
b01000 5"
b01010 6"
b00000000000000000000000000000000 7"
b00000000000000000000000000000000 9"
b1000 ;"
b1010 <"
0="
1>"
b000000001000 ?"
b00000000000000000000000000000000 @"
b00000000000000000000000000000000 A"
b10 B"
b000000100000 C"
b00000000100001000010010100000011 D"
b1000 E"
#80000000
0"
0(
0q
#85000000
1"
b01111111000000000000101000010011 #
b00000000000000000000011111110000 &
b00000000000000000000011111110000 '
1(
b01111111000000000000101000010011 )
b00000000000000000000011111110000 ,
b00000000000000000000011111110000 -
b01111111000000000000101000010011 .
b00000000000000000000011111110000 /
b00000000000000000000011111110000 1
b00000000000000000000011111110000 2
b01 4
b0000 5
07
08
b00000000000000000000000000101000 >
b00000000000000000000000000100100 @
b00000000000000000000100000010100 A
b00000000000000000000000000101000 B
b00000000000000000000011111110000 C
b00000000000000000000000000100100 G
b00000000000000000000011111110000 H
b0010011 I
0K
0L
b01 O
b01111111000000000000101000010011 S
b00000000000000000000011111110000 T
b00000000000000000000011111110000 U
b00000000000000000000011111110100 V
b00000000000000000000011111110100 W
b00000000000000000000011111110000 X
b01111111000000000000000000000000 Y
b00000000000000000000011111110000 [
b00000000000000000000011111110100 \
b00000000000000000000011111110100 ]
b01111111000000000000000000000000 ^
b00000000000000000000011111110000 _
b00000000000000000000011111110000 d
b0000 e
b00000000000000000000011111110000 g
b00000000000000000000011111110000 h
b01 j
1k
b000 m
b0000 n
b00000000000000000000000000101000 o
1q
b00000000000000000000000000100100 r
b00000000000000000000000000100100 s
b00000000000000000000011111110000 t
b00000000000000000000100000010100 u
b00000000000000000000000000100100 v
b00000000000000000000000000101000 w
b00000000000000000000000000101000 y
b00000000000000000000100000010100 z
b00000000000000000000000000101000 {
b00000000000000000000011111110000 !"
b00000000000000000000011111110000 ""
0#"
b00000000000000000000011111110000 $"
b00000000000000000000011111110000 &"
b00000000000000000000000000100100 )"
b00000000000000000000000000100100 ,"
b00000000000000000000000000100100 ."
b00000000000000000000011111110000 0"
b00000000000000000000000000101000 1"
b00000000000000000000011111110000 2"
b00000 4"
b10000 5"
b10100 6"
b00000000000000000000011111110000 7"
b0 :"
b10000 ;"
b10100 <"
0>"
b011111110000 ?"
b111111100 B"
b000000100100 C"
b01111111000000000000101000010011 D"
b1001 E"
#90000000
0"
0(
0q
#95000000
1"
b00001111111100000000101010010011 #
b00000000000000000000000011111111 &
b00000000000000000000000011111111 '
1(
b00001111111100000000101010010011 )
b00000000000000000000000011111111 ,
b00000000000000000000000011111111 -
b00001111111100000000101010010011 .
b00000000000000000000000011111111 /
b00000000000000000000000011111111 1
b00000000000000000000000011111111 2
b00000000000000000000000000101100 >
b00000000000000000000000000101000 @
b00000000000000000000000100100111 A
b00000000000000000000000000101100 B
b00000000000000000000000011111111 C
b00000000000000000000000000101000 G
b00000000000000000000000011111111 H
b00001111111100000000101010010011 S
b00000000000000000000000011111111 T
b00000000000000000000000011111111 U
b00000000000000000000000011110101 V
b00000000000000000000100011110100 W
b00000000000000000000100011111110 X
b00001111111100000000000000000000 Y
b00000000000000000000000011111111 [
b00000000000000000000000011110101 \
b00000000000000000000100011110100 ]
b00001111111100000000000000000000 ^
b00000000000000000000100011111110 _
b00000000000000000000000011111111 d
b00000000000000000000000011111111 g
b00000000000000000000000011111111 h
0k
b00000000000000000000000000101100 o
1q
b00000000000000000000000000101000 r
b00000000000000000000000000101000 s
b00000000000000000000000011111111 t
b00000000000000000000000100100111 u
b00000000000000000000000000101000 v
b00000000000000000000000000101100 w
b00000000000000000000000000101100 y
b00000000000000000000000100100111 z
b00000000000000000000000000101100 {
b00000000000000000000000011111111 !"
b00000000000000000000000011111111 ""
b00000000000000000000000011111111 $"
b00000000000000000000000011111111 &"
b00000000000000000000000000101000 )"
b00000000000000000000000000101000 ,"
b00000000000000000000000000101000 ."
b00000000000000000000000011111111 0"
b00000000000000000000000000101100 1"
b00000000000000000000000011111111 2"
b11111 5"
b10101 6"
b00000000000000000000000011111111 7"
b11111 ;"
b10101 <"
b000011111111 ?"
b111111 B"
b000000101000 C"
b00001111111100000000101010010011 D"
b1010 E"
#100000000
0"
0(
0q
